{
    "prepare_queue": {
        "installed": [],
        "uninstalled": []
    },
    "config_munge": {
        "files": {}
    },
    "installed_plugins": {
        "cordova-plugin-app-event": {
            "PACKAGE_NAME": "com.nervelabs.florence"
        },
        "cordova-plugin-camera": {
            "PACKAGE_NAME": "com.nervelabs.florence"
        },
        "cordova-plugin-console": {
            "PACKAGE_NAME": "com.nervelabs.florence"
        },
        "cordova-plugin-dbcopy": {
            "PACKAGE_NAME": "com.nervelabs.florence"
        },
        "cordova-plugin-device": {
            "PACKAGE_NAME": "com.nervelabs.florence"
        },
        "cordova-plugin-email-composer": {
            "PACKAGE_NAME": "com.nervelabs.florence"
        },
        "cordova-plugin-globalization": {
            "PACKAGE_NAME": "com.nervelabs.florence"
        },
        "cordova-plugin-inappbrowser": {
            "PACKAGE_NAME": "com.nervelabs.florence"
        },
        "cordova-plugin-splashscreen": {
            "PACKAGE_NAME": "com.nervelabs.florence"
        },
        "cordova-plugin-statusbar": {
            "PACKAGE_NAME": "com.nervelabs.florence"
        },
        "cordova-plugin-whitelist": {
            "PACKAGE_NAME": "com.nervelabs.florence"
        },
        "cordova-sqlite-storage": {
            "PACKAGE_NAME": "com.nervelabs.florence"
        },
        "de.appplant.cordova.plugin.local-notification": {
            "PACKAGE_NAME": "com.nervelabs.florence"
        },
        "ionic-plugin-keyboard": {
            "PACKAGE_NAME": "com.nervelabs.florence"
        }
    },
    "dependent_plugins": {
        "cordova-plugin-compat": {
            "PACKAGE_NAME": "com.nervelabs.florence"
        }
    }
}