
D:\Program Files\Lvis_NPL\NplLvisUtility>set WORKDIR="D:\Program files\lvis_NPL\NplLvisUtility" 

D:\Program Files\Lvis_NPL\NplLvisUtility>set DATADIR="E:\Data\lvis_NPL\NplPublicering\Data" 

D:\Program Files\Lvis_NPL\NplLvisUtility>set EXPDIR="E:\data\lvis_NPL\NplPublicering" 

D:\Program Files\Lvis_NPL\NplLvisUtility>set PRODEXPDATE=2001-01-01 

D:\Program Files\Lvis_NPL\NplLvisUtility>set LEXEXPDATE=2001-10-20 

D:\Program Files\Lvis_NPL\NplLvisUtility>set TIMESTAMP=2015-04-21 3:00:00,24 
Start export  2015-04-21 3:00:00,24
"Remove old zip- and tar-filer" 

D:\Program Files\Lvis_NPL\NplLvisUtility>DEL  "E:\data\lvis_NPL\NplPublicering"\*.tgz  2>nul 

D:\Program Files\Lvis_NPL\NplLvisUtility>DEL  "E:\data\lvis_NPL\NplPublicering"\*.gz   2>nul 

D:\Program Files\Lvis_NPL\NplLvisUtility>DEL  "E:\data\lvis_NPL\NplPublicering"\*.tar  2>nul 
" "
"Export NPL products ..." 

D:\Program Files\Lvis_NPL\NplLvisUtility>"D:\Program files\lvis_NPL\NplLvisUtility"\NpLvisConsole.exe Export -f noaudit -p "E:\Data\lvis_NPL\NplPublicering\Data" -d 2001-01-01 
Info :Filter is set to noaudit

Info: Outputfile directory:  E:\Data\lvis_NPL\NplPublicering\Data

Info: Changed products after =  2001-01-01

Processing EXPORT
Export products in Xml format
Output file E:\Data\lvis_NPL\NplPublicering\Data\NplProducts.xml
2015-04-21 03:00:05 Retrieving product list

2015-04-21 03:00:27 Retriving Xml for 25464 products 

2015-04-21 03:00:49 100 unloaded ...
2015-04-21 03:01:08 200 unloaded ...
2015-04-21 03:01:24 300 unloaded ...
2015-04-21 03:01:43 400 unloaded ...
2015-04-21 03:02:01 500 unloaded ...
2015-04-21 03:02:19 600 unloaded ...
2015-04-21 03:02:37 700 unloaded ...
2015-04-21 03:02:54 800 unloaded ...
2015-04-21 03:03:15 900 unloaded ...
2015-04-21 03:03:33 1000 unloaded ...
2015-04-21 03:03:52 1100 unloaded ...
2015-04-21 03:04:13 1200 unloaded ...
2015-04-21 03:04:33 1300 unloaded ...
2015-04-21 03:04:54 1400 unloaded ...
2015-04-21 03:05:22 1500 unloaded ...
2015-04-21 03:05:42 1600 unloaded ...
2015-04-21 03:06:02 1700 unloaded ...
2015-04-21 03:06:17 1800 unloaded ...
2015-04-21 03:06:36 1900 unloaded ...
2015-04-21 03:06:59 2000 unloaded ...
2015-04-21 03:07:18 2100 unloaded ...
2015-04-21 03:07:38 2200 unloaded ...
2015-04-21 03:07:57 2300 unloaded ...
2015-04-21 03:08:19 2400 unloaded ...
2015-04-21 03:08:41 2500 unloaded ...
2015-04-21 03:09:00 2600 unloaded ...
2015-04-21 03:09:23 2700 unloaded ...
2015-04-21 03:09:45 2800 unloaded ...
2015-04-21 03:10:06 2900 unloaded ...
2015-04-21 03:10:27 3000 unloaded ...
2015-04-21 03:10:52 3100 unloaded ...
2015-04-21 03:11:15 3200 unloaded ...
2015-04-21 03:11:40 3300 unloaded ...
2015-04-21 03:12:06 3400 unloaded ...
2015-04-21 03:12:26 3500 unloaded ...
2015-04-21 03:12:48 3600 unloaded ...
2015-04-21 03:13:10 3700 unloaded ...
2015-04-21 03:13:33 3800 unloaded ...
2015-04-21 03:13:52 3900 unloaded ...
2015-04-21 03:14:11 4000 unloaded ...
2015-04-21 03:14:36 4100 unloaded ...
2015-04-21 03:14:59 4200 unloaded ...
2015-04-21 03:15:21 4300 unloaded ...
2015-04-21 03:15:42 4400 unloaded ...
2015-04-21 03:16:08 4500 unloaded ...
2015-04-21 03:16:28 4600 unloaded ...
2015-04-21 03:16:54 4700 unloaded ...
2015-04-21 03:17:21 4800 unloaded ...
2015-04-21 03:17:45 4900 unloaded ...
2015-04-21 03:18:06 5000 unloaded ...
2015-04-21 03:18:29 5100 unloaded ...
2015-04-21 03:18:50 5200 unloaded ...
2015-04-21 03:19:10 5300 unloaded ...
2015-04-21 03:19:37 5400 unloaded ...
2015-04-21 03:19:57 5500 unloaded ...
2015-04-21 03:20:23 5600 unloaded ...
2015-04-21 03:20:46 5700 unloaded ...
2015-04-21 03:21:05 5800 unloaded ...
2015-04-21 03:21:30 5900 unloaded ...
2015-04-21 03:21:55 6000 unloaded ...
2015-04-21 03:22:13 6100 unloaded ...
2015-04-21 03:22:32 6200 unloaded ...
2015-04-21 03:22:52 6300 unloaded ...
2015-04-21 03:23:18 6400 unloaded ...
2015-04-21 03:23:44 6500 unloaded ...
2015-04-21 03:24:10 6600 unloaded ...
2015-04-21 03:24:35 6700 unloaded ...
2015-04-21 03:24:56 6800 unloaded ...
2015-04-21 03:25:20 6900 unloaded ...
2015-04-21 03:25:33 7000 unloaded ...
2015-04-21 03:25:47 7100 unloaded ...
2015-04-21 03:26:01 7200 unloaded ...
2015-04-21 03:26:28 7300 unloaded ...
2015-04-21 03:26:59 7400 unloaded ...
2015-04-21 03:27:22 7500 unloaded ...
2015-04-21 03:27:46 7600 unloaded ...
2015-04-21 03:28:14 7700 unloaded ...
2015-04-21 03:28:37 7800 unloaded ...
2015-04-21 03:29:06 7900 unloaded ...
2015-04-21 03:29:28 8000 unloaded ...
2015-04-21 03:29:49 8100 unloaded ...
2015-04-21 03:30:17 8200 unloaded ...
2015-04-21 03:30:45 8300 unloaded ...
2015-04-21 03:31:08 8400 unloaded ...
2015-04-21 03:31:32 8500 unloaded ...
2015-04-21 03:31:59 8600 unloaded ...
2015-04-21 03:32:23 8700 unloaded ...
2015-04-21 03:32:52 8800 unloaded ...
2015-04-21 03:33:20 8900 unloaded ...
2015-04-21 03:33:41 9000 unloaded ...
2015-04-21 03:34:05 9100 unloaded ...
2015-04-21 03:34:24 9200 unloaded ...
2015-04-21 03:34:44 9300 unloaded ...
2015-04-21 03:35:12 9400 unloaded ...
2015-04-21 03:35:38 9500 unloaded ...
2015-04-21 03:36:02 9600 unloaded ...
2015-04-21 03:36:27 9700 unloaded ...
2015-04-21 03:36:49 9800 unloaded ...
2015-04-21 03:37:13 9900 unloaded ...
2015-04-21 03:37:30 10000 unloaded ...
2015-04-21 03:37:49 10100 unloaded ...
2015-04-21 03:38:10 10200 unloaded ...
2015-04-21 03:38:29 10300 unloaded ...
2015-04-21 03:38:47 10400 unloaded ...
2015-04-21 03:39:08 10500 unloaded ...
2015-04-21 03:39:29 10600 unloaded ...
2015-04-21 03:39:51 10700 unloaded ...
2015-04-21 03:40:13 10800 unloaded ...
2015-04-21 03:40:32 10900 unloaded ...
2015-04-21 03:40:52 11000 unloaded ...
2015-04-21 03:41:14 11100 unloaded ...
2015-04-21 03:41:34 11200 unloaded ...
2015-04-21 03:41:58 11300 unloaded ...
2015-04-21 03:42:17 11400 unloaded ...
2015-04-21 03:42:42 11500 unloaded ...
2015-04-21 03:43:00 11600 unloaded ...
2015-04-21 03:43:22 11700 unloaded ...
2015-04-21 03:43:41 11800 unloaded ...
2015-04-21 03:43:58 11900 unloaded ...
2015-04-21 03:44:19 12000 unloaded ...
2015-04-21 03:44:39 12100 unloaded ...
2015-04-21 03:45:02 12200 unloaded ...
2015-04-21 03:45:29 12300 unloaded ...
2015-04-21 03:45:51 12400 unloaded ...
2015-04-21 03:46:11 12500 unloaded ...
2015-04-21 03:46:30 12600 unloaded ...
2015-04-21 03:46:50 12700 unloaded ...
2015-04-21 03:47:13 12800 unloaded ...
2015-04-21 03:47:32 12900 unloaded ...
2015-04-21 03:47:54 13000 unloaded ...
2015-04-21 03:48:17 13100 unloaded ...
2015-04-21 03:48:36 13200 unloaded ...
2015-04-21 03:49:01 13300 unloaded ...
2015-04-21 03:49:22 13400 unloaded ...
2015-04-21 03:49:45 13500 unloaded ...
2015-04-21 03:50:06 13600 unloaded ...
2015-04-21 03:50:26 13700 unloaded ...
2015-04-21 03:50:48 13800 unloaded ...
2015-04-21 03:51:07 13900 unloaded ...
2015-04-21 03:51:27 14000 unloaded ...
2015-04-21 03:51:45 14100 unloaded ...
2015-04-21 03:52:01 14200 unloaded ...
2015-04-21 03:52:18 14300 unloaded ...
2015-04-21 03:52:41 14400 unloaded ...
2015-04-21 03:53:03 14500 unloaded ...
2015-04-21 03:53:20 14600 unloaded ...
2015-04-21 03:53:40 14700 unloaded ...
2015-04-21 03:53:58 14800 unloaded ...
2015-04-21 03:54:18 14900 unloaded ...
2015-04-21 03:54:33 15000 unloaded ...
2015-04-21 03:54:51 15100 unloaded ...
2015-04-21 03:55:10 15200 unloaded ...
2015-04-21 03:55:30 15300 unloaded ...
2015-04-21 03:55:47 15400 unloaded ...
2015-04-21 03:56:04 15500 unloaded ...
2015-04-21 03:56:23 15600 unloaded ...
2015-04-21 03:56:46 15700 unloaded ...
2015-04-21 03:57:05 15800 unloaded ...
2015-04-21 03:57:21 15900 unloaded ...
2015-04-21 03:57:38 16000 unloaded ...
2015-04-21 03:57:56 16100 unloaded ...
2015-04-21 03:58:13 16200 unloaded ...
2015-04-21 03:58:29 16300 unloaded ...
2015-04-21 03:58:43 16400 unloaded ...
2015-04-21 03:58:59 16500 unloaded ...
2015-04-21 03:59:13 16600 unloaded ...
2015-04-21 03:59:29 16700 unloaded ...
2015-04-21 03:59:46 16800 unloaded ...
2015-04-21 04:00:02 16900 unloaded ...
2015-04-21 04:00:17 17000 unloaded ...
2015-04-21 04:00:32 17100 unloaded ...
2015-04-21 04:00:53 17200 unloaded ...
2015-04-21 04:01:12 17300 unloaded ...
2015-04-21 04:01:28 17400 unloaded ...
2015-04-21 04:01:44 17500 unloaded ...
2015-04-21 04:01:59 17600 unloaded ...
2015-04-21 04:02:16 17700 unloaded ...
2015-04-21 04:02:33 17800 unloaded ...
2015-04-21 04:02:47 17900 unloaded ...
2015-04-21 04:03:03 18000 unloaded ...
2015-04-21 04:03:18 18100 unloaded ...
2015-04-21 04:03:35 18200 unloaded ...
2015-04-21 04:03:49 18300 unloaded ...
2015-04-21 04:04:05 18400 unloaded ...
2015-04-21 04:04:24 18500 unloaded ...
2015-04-21 04:04:43 18600 unloaded ...
2015-04-21 04:04:59 18700 unloaded ...
2015-04-21 04:05:14 18800 unloaded ...
2015-04-21 04:05:28 18900 unloaded ...
2015-04-21 04:05:43 19000 unloaded ...
2015-04-21 04:05:58 19100 unloaded ...
2015-04-21 04:06:14 19200 unloaded ...
2015-04-21 04:06:26 19300 unloaded ...
2015-04-21 04:06:42 19400 unloaded ...
2015-04-21 04:07:02 19500 unloaded ...
2015-04-21 04:07:15 19600 unloaded ...
2015-04-21 04:07:28 19700 unloaded ...
2015-04-21 04:07:42 19800 unloaded ...
2015-04-21 04:07:55 19900 unloaded ...
2015-04-21 04:08:10 20000 unloaded ...
2015-04-21 04:08:26 20100 unloaded ...
2015-04-21 04:08:39 20200 unloaded ...
2015-04-21 04:08:52 20300 unloaded ...
2015-04-21 04:09:07 20400 unloaded ...
2015-04-21 04:09:20 20500 unloaded ...
2015-04-21 04:09:34 20600 unloaded ...
2015-04-21 04:09:50 20700 unloaded ...
2015-04-21 04:10:04 20800 unloaded ...
2015-04-21 04:10:17 20900 unloaded ...
2015-04-21 04:10:32 21000 unloaded ...
2015-04-21 04:10:45 21100 unloaded ...
2015-04-21 04:10:57 21200 unloaded ...
2015-04-21 04:11:08 21300 unloaded ...
2015-04-21 04:11:22 21400 unloaded ...
2015-04-21 04:11:34 21500 unloaded ...
2015-04-21 04:11:47 21600 unloaded ...
2015-04-21 04:11:59 21700 unloaded ...
2015-04-21 04:12:11 21800 unloaded ...
2015-04-21 04:12:22 21900 unloaded ...
2015-04-21 04:12:31 22000 unloaded ...
2015-04-21 04:12:40 22100 unloaded ...
2015-04-21 04:12:48 22200 unloaded ...
2015-04-21 04:12:57 22300 unloaded ...
2015-04-21 04:13:06 22400 unloaded ...
2015-04-21 04:13:15 22500 unloaded ...
2015-04-21 04:13:23 22600 unloaded ...
2015-04-21 04:13:32 22700 unloaded ...
2015-04-21 04:13:40 22800 unloaded ...
2015-04-21 04:13:49 22900 unloaded ...
2015-04-21 04:13:57 23000 unloaded ...
2015-04-21 04:14:06 23100 unloaded ...
2015-04-21 04:14:14 23200 unloaded ...
2015-04-21 04:14:22 23300 unloaded ...
2015-04-21 04:14:31 23400 unloaded ...
2015-04-21 04:14:40 23500 unloaded ...
2015-04-21 04:14:53 23600 unloaded ...
2015-04-21 04:15:05 23700 unloaded ...
2015-04-21 04:15:17 23800 unloaded ...
2015-04-21 04:15:27 23900 unloaded ...
2015-04-21 04:15:40 24000 unloaded ...
2015-04-21 04:15:50 24100 unloaded ...
2015-04-21 04:16:03 24200 unloaded ...
2015-04-21 04:16:17 24300 unloaded ...
2015-04-21 04:16:27 24400 unloaded ...
2015-04-21 04:16:39 24500 unloaded ...
2015-04-21 04:16:51 24600 unloaded ...
2015-04-21 04:17:00 24700 unloaded ...
2015-04-21 04:17:11 24800 unloaded ...
2015-04-21 04:17:21 24900 unloaded ...
2015-04-21 04:17:31 25000 unloaded ...
2015-04-21 04:17:42 25100 unloaded ...
2015-04-21 04:17:52 25200 unloaded ...
2015-04-21 04:18:01 25300 unloaded ...
2015-04-21 04:18:10 25400 unloaded ...
Export completed 

D:\Program Files\Lvis_NPL\NplLvisUtility>if ERRORLEVEL 1 GOTO ERROR 

D:\Program Files\Lvis_NPL\NplLvisUtility>if ERRORLEVEL 2 GOTO ERROR 

D:\Program Files\Lvis_NPL\NplLvisUtility>if ERRORLEVEL 3 GOTO ERROR 
"Export all NPL lexicons ..."

D:\Program Files\Lvis_NPL\NplLvisUtility>"D:\Program files\lvis_NPL\NplLvisUtility"\NpLvisConsole.exe LexExport -p "E:\Data\lvis_NPL\NplPublicering\Data"  -d 2001-10-20 
Info: Outputfile directory:  E:\Data\lvis_NPL\NplPublicering\Data

Info: Changed products after =  2001-10-20

Processing LEXEXPORT
Export all lexicons in Xml format
2015-04-21 04:18:19 Retrieving lexicon list

2015-04-21 04:18:21 Retriving Xml for 59 Lexicons 

Output file E:\Data\lvis_NPL\NplPublicering\Data\apo-pack-flag-type-lx.xsd
... 
Output file E:\Data\lvis_NPL\NplPublicering\Data\apo-pack-id-type-lx.xsd
... 
Output file E:\Data\lvis_NPL\NplPublicering\Data\apo-prod-id-type-lx.xsd
... 
Output file E:\Data\lvis_NPL\NplPublicering\Data\atc-code-lx.xml
... 
Output file E:\Data\lvis_NPL\NplPublicering\Data\comp-ref-quantity-lx.xsd
... 
Output file E:\Data\lvis_NPL\NplPublicering\Data\control-class-lx.xsd
... 
Output file E:\Data\lvis_NPL\NplPublicering\Data\country-lx.xsd
... 
Output file E:\Data\lvis_NPL\NplPublicering\Data\data-status-lx.xsd
... 
Output file E:\Data\lvis_NPL\NplPublicering\Data\drug-classification-lx.xsd
... 
Output file E:\Data\lvis_NPL\NplPublicering\Data\ind-date-type-lx.xsd
... 
Output file E:\Data\lvis_NPL\NplPublicering\Data\ind-name-type-lx.xsd
... 
Output file E:\Data\lvis_NPL\NplPublicering\Data\ind-pack-flag-type-lx.xsd
... 
Output file E:\Data\lvis_NPL\NplPublicering\Data\ind-pack-id-type-lx.xsd
... 
Output file E:\Data\lvis_NPL\NplPublicering\Data\ind-price-type-lx.xsd
... 
Output file E:\Data\lvis_NPL\NplPublicering\Data\ind-prod-flag-type-lx.xsd
... 
Output file E:\Data\lvis_NPL\NplPublicering\Data\ingredient-numeric-unit-lx.xsd
... 
Output file E:\Data\lvis_NPL\NplPublicering\Data\ingredient-role-lx.xsd
... 
Output file E:\Data\lvis_NPL\NplPublicering\Data\Lexicon.xsd
... 
Output file E:\Data\lvis_NPL\NplPublicering\Data\lfn-price-type-lx.xsd
... 
Output file E:\Data\lvis_NPL\NplPublicering\Data\lfn-prod-flag-type-lx.xsd
... 
Output file E:\Data\lvis_NPL\NplPublicering\Data\medprod-pack-derived-lx.xsd
... 
Output file E:\Data\lvis_NPL\NplPublicering\Data\mpa-date-type-lx.xsd
... 
Output file E:\Data\lvis_NPL\NplPublicering\Data\mpa-id-type-lx.xsd
... 
Output file E:\Data\lvis_NPL\NplPublicering\Data\mpa-pack-flag-type-lx.xsd
... 
Output file E:\Data\lvis_NPL\NplPublicering\Data\mpa-pack-id-type-lx.xsd
... 
Output file E:\Data\lvis_NPL\NplPublicering\Data\mpa-prod-derived-flag-type-lx.xsd
... 
Output file E:\Data\lvis_NPL\NplPublicering\Data\mpa-prod-flag-type-lx.xsd
... 
Output file E:\Data\lvis_NPL\NplPublicering\Data\mrl-tissue-lx.xsd
... 
Output file E:\Data\lvis_NPL\NplPublicering\Data\mrl-unit-lx.xsd
... 
Output file E:\Data\lvis_NPL\NplPublicering\Data\narcclass-lx.xsd
... 
Output file E:\Data\lvis_NPL\NplPublicering\Data\npl-price-type-lx.xsd
... 
Output file E:\Data\lvis_NPL\NplPublicering\Data\organization.xml
... 
Output file E:\Data\lvis_NPL\NplPublicering\Data\organization-role-lx.xsd
... 
Output file E:\Data\lvis_NPL\NplPublicering\Data\package-condition-lx.xsd
... 
Output file E:\Data\lvis_NPL\NplPublicering\Data\packmtrldet-lx.xsd
... 
Output file E:\Data\lvis_NPL\NplPublicering\Data\packmtrlout-lx.xsd
... 
Output file E:\Data\lvis_NPL\NplPublicering\Data\packtypedet-lx.xsd
... 
Output file E:\Data\lvis_NPL\NplPublicering\Data\packtypeout-lx.xsd
... 
Output file E:\Data\lvis_NPL\NplPublicering\Data\pharmaceutical-form-group-lx.xsd
... 
Output file E:\Data\lvis_NPL\NplPublicering\Data\pharmaceutical-form-lx.xsd
... 
Output file E:\Data\lvis_NPL\NplPublicering\Data\presccode-lx.xsd
... 
Output file E:\Data\lvis_NPL\NplPublicering\Data\prescright-lx.xsd
... 
Output file E:\Data\lvis_NPL\NplPublicering\Data\primpac-unit-lx.xsd
... 
Output file E:\Data\lvis_NPL\NplPublicering\Data\proc-not-lx.xsd
... 
Output file E:\Data\lvis_NPL\NplPublicering\Data\proc-status-lx.xsd
... 
Output file E:\Data\lvis_NPL\NplPublicering\Data\prodclass-lx.xsd
... 
Output file E:\Data\lvis_NPL\NplPublicering\Data\quantity-unit-alt-lx.xsd
... 
Output file E:\Data\lvis_NPL\NplPublicering\Data\quantity-unit-lx.xsd
... 
Output file E:\Data\lvis_NPL\NplPublicering\Data\reimbursement-lx.xsd
... 
Output file E:\Data\lvis_NPL\NplPublicering\Data\route-of-administration-lx.xsd
... 
Output file E:\Data\lvis_NPL\NplPublicering\Data\sales-restriction-lx.xsd
... 
Output file E:\Data\lvis_NPL\NplPublicering\Data\shelf-life-unit-lx.xsd
... 
Output file E:\Data\lvis_NPL\NplPublicering\Data\species-of-animal-lx.xsd
... 
Output file E:\Data\lvis_NPL\NplPublicering\Data\storagecond-lx.xsd
... 
Output file E:\Data\lvis_NPL\NplPublicering\Data\storage-temp-lx.xsd
... 
Output file E:\Data\lvis_NPL\NplPublicering\Data\substance.xml
... 
Output file E:\Data\lvis_NPL\NplPublicering\Data\trafficwarning-lx.xsd
... 
Output file E:\Data\lvis_NPL\NplPublicering\Data\withdrawal-tissue-lx.xsd
... 
Output file E:\Data\lvis_NPL\NplPublicering\Data\yesno-lx.xsd
... 
Lexicon export completed

D:\Program Files\Lvis_NPL\NplLvisUtility>if ERRORLEVEL 1 GOTO ERROR 

D:\Program Files\Lvis_NPL\NplLvisUtility>if ERRORLEVEL 2 GOTO ERROR 

D:\Program Files\Lvis_NPL\NplLvisUtility>if ERRORLEVEL 3 GOTO ERROR 
"Create archive containing all files ..."

D:\Program Files\Lvis_NPL\NplLvisUtility>E:

E:\>cd "E:\Data\lvis_NPL\NplPublicering\Data" 
"Archive"

E:\Data\Lvis_NPL\NplPublicering\Data>"D:\Program files\lvis_NPL\NplLvisUtility"\tar -c *   1>"E:\data\lvis_NPL\NplPublicering"\npl.tar 

E:\Data\Lvis_NPL\NplPublicering\Data>if ERRORLEVEL 1 GOTO ERROR 

E:\Data\Lvis_NPL\NplPublicering\Data>if ERRORLEVEL 2 GOTO ERROR 

E:\Data\Lvis_NPL\NplPublicering\Data>if ERRORLEVEL 3 GOTO ERROR 
"Compress archive ..."

E:\Data\Lvis_NPL\NplPublicering\Data>"D:\Program files\lvis_NPL\NplLvisUtility"\gzip "E:\data\lvis_NPL\NplPublicering"\npl.tar  

E:\Data\Lvis_NPL\NplPublicering\Data>if ERRORLEVEL 1 GOTO ERROR 

E:\Data\Lvis_NPL\NplPublicering\Data>if ERRORLEVEL 2 GOTO ERROR 

E:\Data\Lvis_NPL\NplPublicering\Data>if ERRORLEVEL 3 GOTO ERROR 

E:\Data\Lvis_NPL\NplPublicering\Data>rename "E:\data\lvis_NPL\NplPublicering"\npl.tar.gz npl.tgz 

E:\Data\Lvis_NPL\NplPublicering\Data>if ERRORLEVEL 1 GOTO ERROR 

E:\Data\Lvis_NPL\NplPublicering\Data>if ERRORLEVEL 2 GOTO ERROR 

E:\Data\Lvis_NPL\NplPublicering\Data>if ERRORLEVEL 3 GOTO ERROR 

E:\Data\Lvis_NPL\NplPublicering\Data>GOTO END 
Export ready without error: 0
