
D:\Program Files\Lvis_NPL\NplLvisUtility>set WORKDIR="D:\Program files\lvis_NPL\NplLvisUtility" 

D:\Program Files\Lvis_NPL\NplLvisUtility>set DATADIR="E:\Data\lvis_NPL\NplPublicering\Data" 

D:\Program Files\Lvis_NPL\NplLvisUtility>set EXPDIR="E:\data\lvis_NPL\NplPublicering" 

D:\Program Files\Lvis_NPL\NplLvisUtility>set PRODEXPDATE=2001-01-01 

D:\Program Files\Lvis_NPL\NplLvisUtility>set LEXEXPDATE=2001-10-20 

D:\Program Files\Lvis_NPL\NplLvisUtility>set TIMESTAMP=2014-03-29 3:00:00,09 
Start export  2014-03-29 3:00:00,09
"Remove old zip- and tar-filer" 

D:\Program Files\Lvis_NPL\NplLvisUtility>DEL  "E:\data\lvis_NPL\NplPublicering"\*.tgz  2>nul 

D:\Program Files\Lvis_NPL\NplLvisUtility>DEL  "E:\data\lvis_NPL\NplPublicering"\*.gz   2>nul 

D:\Program Files\Lvis_NPL\NplLvisUtility>DEL  "E:\data\lvis_NPL\NplPublicering"\*.tar  2>nul 
" "
"Export NPL products ..." 

D:\Program Files\Lvis_NPL\NplLvisUtility>"D:\Program files\lvis_NPL\NplLvisUtility"\NpLvisConsole.exe Export -f noaudit -p "E:\Data\lvis_NPL\NplPublicering\Data" -d 2001-01-01 
Info :Filter is set to noaudit

Info: Outputfile directory:  E:\Data\lvis_NPL\NplPublicering\Data

Info: Changed products after =  2001-01-01

Processing EXPORT
Export products in Xml format
Output file E:\Data\lvis_NPL\NplPublicering\Data\NplProducts.xml
2014-03-29 03:00:02 Retrieving product list

2014-03-29 03:00:17 Retriving Xml for 23502 products 

2014-03-29 03:00:35 100 unloaded ...
2014-03-29 03:01:02 200 unloaded ...
2014-03-29 03:01:20 300 unloaded ...
2014-03-29 03:01:35 400 unloaded ...
2014-03-29 03:01:50 500 unloaded ...
2014-03-29 03:02:06 600 unloaded ...
2014-03-29 03:02:23 700 unloaded ...
2014-03-29 03:02:39 800 unloaded ...
2014-03-29 03:02:55 900 unloaded ...
2014-03-29 03:03:11 1000 unloaded ...
2014-03-29 03:03:28 1100 unloaded ...
2014-03-29 03:03:45 1200 unloaded ...
2014-03-29 03:04:03 1300 unloaded ...
2014-03-29 03:04:22 1400 unloaded ...
2014-03-29 03:04:44 1500 unloaded ...
2014-03-29 03:05:02 1600 unloaded ...
2014-03-29 03:05:21 1700 unloaded ...
2014-03-29 03:05:34 1800 unloaded ...
2014-03-29 03:05:49 1900 unloaded ...
2014-03-29 03:06:07 2000 unloaded ...
2014-03-29 03:06:23 2100 unloaded ...
2014-03-29 03:06:40 2200 unloaded ...
2014-03-29 03:06:55 2300 unloaded ...
2014-03-29 03:07:14 2400 unloaded ...
2014-03-29 03:07:32 2500 unloaded ...
2014-03-29 03:07:47 2600 unloaded ...
2014-03-29 03:08:05 2700 unloaded ...
2014-03-29 03:08:24 2800 unloaded ...
2014-03-29 03:08:40 2900 unloaded ...
2014-03-29 03:08:56 3000 unloaded ...
2014-03-29 03:09:17 3100 unloaded ...
2014-03-29 03:09:36 3200 unloaded ...
2014-03-29 03:09:56 3300 unloaded ...
2014-03-29 03:10:17 3400 unloaded ...
2014-03-29 03:10:34 3500 unloaded ...
2014-03-29 03:10:52 3600 unloaded ...
2014-03-29 03:11:09 3700 unloaded ...
2014-03-29 03:11:25 3800 unloaded ...
2014-03-29 03:11:41 3900 unloaded ...
2014-03-29 03:11:57 4000 unloaded ...
2014-03-29 03:12:17 4100 unloaded ...
2014-03-29 03:12:35 4200 unloaded ...
2014-03-29 03:12:52 4300 unloaded ...
2014-03-29 03:13:10 4400 unloaded ...
2014-03-29 03:13:30 4500 unloaded ...
2014-03-29 03:13:48 4600 unloaded ...
2014-03-29 03:14:08 4700 unloaded ...
2014-03-29 03:14:31 4800 unloaded ...
2014-03-29 03:14:50 4900 unloaded ...
2014-03-29 03:15:08 5000 unloaded ...
2014-03-29 03:15:27 5100 unloaded ...
2014-03-29 03:15:45 5200 unloaded ...
2014-03-29 03:16:02 5300 unloaded ...
2014-03-29 03:16:23 5400 unloaded ...
2014-03-29 03:16:39 5500 unloaded ...
2014-03-29 03:17:00 5600 unloaded ...
2014-03-29 03:17:19 5700 unloaded ...
2014-03-29 03:17:34 5800 unloaded ...
2014-03-29 03:17:55 5900 unloaded ...
2014-03-29 03:18:14 6000 unloaded ...
2014-03-29 03:18:29 6100 unloaded ...
2014-03-29 03:18:45 6200 unloaded ...
2014-03-29 03:19:01 6300 unloaded ...
2014-03-29 03:19:21 6400 unloaded ...
2014-03-29 03:19:42 6500 unloaded ...
2014-03-29 03:20:03 6600 unloaded ...
2014-03-29 03:20:24 6700 unloaded ...
2014-03-29 03:20:41 6800 unloaded ...
2014-03-29 03:20:58 6900 unloaded ...
2014-03-29 03:21:10 7000 unloaded ...
2014-03-29 03:21:22 7100 unloaded ...
2014-03-29 03:21:35 7200 unloaded ...
2014-03-29 03:21:57 7300 unloaded ...
2014-03-29 03:22:20 7400 unloaded ...
2014-03-29 03:22:40 7500 unloaded ...
2014-03-29 03:23:00 7600 unloaded ...
2014-03-29 03:23:23 7700 unloaded ...
2014-03-29 03:23:42 7800 unloaded ...
2014-03-29 03:24:05 7900 unloaded ...
2014-03-29 03:24:24 8000 unloaded ...
2014-03-29 03:24:42 8100 unloaded ...
2014-03-29 03:25:04 8200 unloaded ...
2014-03-29 03:25:25 8300 unloaded ...
2014-03-29 03:25:44 8400 unloaded ...
2014-03-29 03:26:03 8500 unloaded ...
2014-03-29 03:26:25 8600 unloaded ...
2014-03-29 03:26:44 8700 unloaded ...
2014-03-29 03:27:09 8800 unloaded ...
2014-03-29 03:27:28 8900 unloaded ...
2014-03-29 03:27:47 9000 unloaded ...
2014-03-29 03:28:06 9100 unloaded ...
2014-03-29 03:28:23 9200 unloaded ...
2014-03-29 03:28:39 9300 unloaded ...
2014-03-29 03:29:02 9400 unloaded ...
2014-03-29 03:29:22 9500 unloaded ...
2014-03-29 03:29:41 9600 unloaded ...
2014-03-29 03:30:01 9700 unloaded ...
2014-03-29 03:30:19 9800 unloaded ...
2014-03-29 03:30:38 9900 unloaded ...
2014-03-29 03:30:52 10000 unloaded ...
2014-03-29 03:31:08 10100 unloaded ...
2014-03-29 03:31:25 10200 unloaded ...
2014-03-29 03:31:40 10300 unloaded ...
2014-03-29 03:31:56 10400 unloaded ...
2014-03-29 03:32:14 10500 unloaded ...
2014-03-29 03:32:32 10600 unloaded ...
2014-03-29 03:32:50 10700 unloaded ...
2014-03-29 03:33:08 10800 unloaded ...
2014-03-29 03:33:23 10900 unloaded ...
2014-03-29 03:33:40 11000 unloaded ...
2014-03-29 03:33:59 11100 unloaded ...
2014-03-29 03:34:17 11200 unloaded ...
2014-03-29 03:34:36 11300 unloaded ...
2014-03-29 03:34:51 11400 unloaded ...
2014-03-29 03:35:13 11500 unloaded ...
2014-03-29 03:35:27 11600 unloaded ...
2014-03-29 03:35:44 11700 unloaded ...
2014-03-29 03:36:00 11800 unloaded ...
2014-03-29 03:36:13 11900 unloaded ...
2014-03-29 03:36:29 12000 unloaded ...
2014-03-29 03:36:45 12100 unloaded ...
2014-03-29 03:37:04 12200 unloaded ...
2014-03-29 03:37:22 12300 unloaded ...
2014-03-29 03:37:36 12400 unloaded ...
2014-03-29 03:37:53 12500 unloaded ...
2014-03-29 03:38:07 12600 unloaded ...
2014-03-29 03:38:22 12700 unloaded ...
2014-03-29 03:38:40 12800 unloaded ...
2014-03-29 03:38:56 12900 unloaded ...
2014-03-29 03:39:13 13000 unloaded ...
2014-03-29 03:39:30 13100 unloaded ...
2014-03-29 03:39:45 13200 unloaded ...
2014-03-29 03:40:06 13300 unloaded ...
2014-03-29 03:40:22 13400 unloaded ...
2014-03-29 03:40:41 13500 unloaded ...
2014-03-29 03:40:56 13600 unloaded ...
2014-03-29 03:41:11 13700 unloaded ...
2014-03-29 03:41:28 13800 unloaded ...
2014-03-29 03:41:43 13900 unloaded ...
2014-03-29 03:41:58 14000 unloaded ...
2014-03-29 03:42:13 14100 unloaded ...
2014-03-29 03:42:26 14200 unloaded ...
2014-03-29 03:42:40 14300 unloaded ...
2014-03-29 03:42:57 14400 unloaded ...
2014-03-29 03:43:14 14500 unloaded ...
2014-03-29 03:43:28 14600 unloaded ...
2014-03-29 03:43:44 14700 unloaded ...
2014-03-29 03:43:58 14800 unloaded ...
2014-03-29 03:44:14 14900 unloaded ...
2014-03-29 03:44:27 15000 unloaded ...
2014-03-29 03:44:42 15100 unloaded ...
2014-03-29 03:44:56 15200 unloaded ...
2014-03-29 03:45:12 15300 unloaded ...
2014-03-29 03:45:34 15400 unloaded ...
2014-03-29 03:45:48 15500 unloaded ...
2014-03-29 03:46:05 15600 unloaded ...
2014-03-29 03:46:23 15700 unloaded ...
2014-03-29 03:46:39 15800 unloaded ...
2014-03-29 03:46:52 15900 unloaded ...
2014-03-29 03:47:07 16000 unloaded ...
2014-03-29 03:47:21 16100 unloaded ...
2014-03-29 03:47:35 16200 unloaded ...
2014-03-29 03:47:49 16300 unloaded ...
2014-03-29 03:48:01 16400 unloaded ...
2014-03-29 03:48:13 16500 unloaded ...
2014-03-29 03:48:25 16600 unloaded ...
2014-03-29 03:48:38 16700 unloaded ...
2014-03-29 03:48:52 16800 unloaded ...
2014-03-29 03:49:03 16900 unloaded ...
2014-03-29 03:49:15 17000 unloaded ...
2014-03-29 03:49:27 17100 unloaded ...
2014-03-29 03:49:42 17200 unloaded ...
2014-03-29 03:49:55 17300 unloaded ...
2014-03-29 03:50:09 17400 unloaded ...
2014-03-29 03:50:22 17500 unloaded ...
2014-03-29 03:50:35 17600 unloaded ...
2014-03-29 03:50:47 17700 unloaded ...
2014-03-29 03:51:01 17800 unloaded ...
2014-03-29 03:51:13 17900 unloaded ...
2014-03-29 03:51:25 18000 unloaded ...
2014-03-29 03:51:38 18100 unloaded ...
2014-03-29 03:51:51 18200 unloaded ...
2014-03-29 03:52:03 18300 unloaded ...
2014-03-29 03:52:15 18400 unloaded ...
2014-03-29 03:52:32 18500 unloaded ...
2014-03-29 03:52:45 18600 unloaded ...
2014-03-29 03:52:58 18700 unloaded ...
2014-03-29 03:53:10 18800 unloaded ...
2014-03-29 03:53:21 18900 unloaded ...
2014-03-29 03:53:33 19000 unloaded ...
2014-03-29 03:53:44 19100 unloaded ...
2014-03-29 03:53:59 19200 unloaded ...
2014-03-29 03:54:10 19300 unloaded ...
2014-03-29 03:54:23 19400 unloaded ...
2014-03-29 03:54:39 19500 unloaded ...
2014-03-29 03:54:50 19600 unloaded ...
2014-03-29 03:55:00 19700 unloaded ...
2014-03-29 03:55:13 19800 unloaded ...
2014-03-29 03:55:26 19900 unloaded ...
2014-03-29 03:55:37 20000 unloaded ...
2014-03-29 03:55:49 20100 unloaded ...
2014-03-29 03:56:00 20200 unloaded ...
2014-03-29 03:56:11 20300 unloaded ...
2014-03-29 03:56:23 20400 unloaded ...
2014-03-29 03:56:33 20500 unloaded ...
2014-03-29 03:56:46 20600 unloaded ...
2014-03-29 03:56:56 20700 unloaded ...
2014-03-29 03:57:08 20800 unloaded ...
2014-03-29 03:57:21 20900 unloaded ...
2014-03-29 03:57:31 21000 unloaded ...
2014-03-29 03:57:40 21100 unloaded ...
2014-03-29 03:57:50 21200 unloaded ...
2014-03-29 03:57:59 21300 unloaded ...
2014-03-29 03:58:09 21400 unloaded ...
2014-03-29 03:58:18 21500 unloaded ...
2014-03-29 03:58:25 21600 unloaded ...
2014-03-29 03:58:33 21700 unloaded ...
2014-03-29 03:58:41 21800 unloaded ...
2014-03-29 03:58:48 21900 unloaded ...
2014-03-29 03:58:56 22000 unloaded ...
2014-03-29 03:59:03 22100 unloaded ...
2014-03-29 03:59:11 22200 unloaded ...
2014-03-29 03:59:19 22300 unloaded ...
2014-03-29 03:59:26 22400 unloaded ...
2014-03-29 03:59:34 22500 unloaded ...
2014-03-29 03:59:42 22600 unloaded ...
2014-03-29 03:59:49 22700 unloaded ...
2014-03-29 03:59:56 22800 unloaded ...
2014-03-29 04:00:05 22900 unloaded ...
2014-03-29 04:00:13 23000 unloaded ...
2014-03-29 04:00:21 23100 unloaded ...
2014-03-29 04:00:29 23200 unloaded ...
2014-03-29 04:00:38 23300 unloaded ...
2014-03-29 04:00:45 23400 unloaded ...
2014-03-29 04:00:53 23500 unloaded ...
Export completed 

D:\Program Files\Lvis_NPL\NplLvisUtility>if ERRORLEVEL 1 GOTO ERROR 

D:\Program Files\Lvis_NPL\NplLvisUtility>if ERRORLEVEL 2 GOTO ERROR 

D:\Program Files\Lvis_NPL\NplLvisUtility>if ERRORLEVEL 3 GOTO ERROR 
"Export all NPL lexicons ..."

D:\Program Files\Lvis_NPL\NplLvisUtility>"D:\Program files\lvis_NPL\NplLvisUtility"\NpLvisConsole.exe LexExport -p "E:\Data\lvis_NPL\NplPublicering\Data"  -d 2001-10-20 
Info: Outputfile directory:  E:\Data\lvis_NPL\NplPublicering\Data

Info: Changed products after =  2001-10-20

Processing LEXEXPORT
Export all lexicons in Xml format
2014-03-29 04:00:59 Retrieving lexicon list

2014-03-29 04:01:00 Retriving Xml for 59 Lexicons 

Output file E:\Data\lvis_NPL\NplPublicering\Data\apo-pack-flag-type-lx.xsd
... 
Output file E:\Data\lvis_NPL\NplPublicering\Data\apo-pack-id-type-lx.xsd
... 
Output file E:\Data\lvis_NPL\NplPublicering\Data\apo-prod-id-type-lx.xsd
... 
Output file E:\Data\lvis_NPL\NplPublicering\Data\atc-code-lx.xml
... 
Output file E:\Data\lvis_NPL\NplPublicering\Data\comp-ref-quantity-lx.xsd
... 
Output file E:\Data\lvis_NPL\NplPublicering\Data\control-class-lx.xsd
... 
Output file E:\Data\lvis_NPL\NplPublicering\Data\country-lx.xsd
... 
Output file E:\Data\lvis_NPL\NplPublicering\Data\data-status-lx.xsd
... 
Output file E:\Data\lvis_NPL\NplPublicering\Data\drug-classification-lx.xsd
... 
Output file E:\Data\lvis_NPL\NplPublicering\Data\ind-date-type-lx.xsd
... 
Output file E:\Data\lvis_NPL\NplPublicering\Data\ind-name-type-lx.xsd
... 
Output file E:\Data\lvis_NPL\NplPublicering\Data\ind-pack-flag-type-lx.xsd
... 
Output file E:\Data\lvis_NPL\NplPublicering\Data\ind-pack-id-type-lx.xsd
... 
Output file E:\Data\lvis_NPL\NplPublicering\Data\ind-price-type-lx.xsd
... 
Output file E:\Data\lvis_NPL\NplPublicering\Data\ind-prod-flag-type-lx.xsd
... 
Output file E:\Data\lvis_NPL\NplPublicering\Data\ingredient-numeric-unit-lx.xsd
... 
Output file E:\Data\lvis_NPL\NplPublicering\Data\ingredient-role-lx.xsd
... 
Output file E:\Data\lvis_NPL\NplPublicering\Data\Lexicon.xsd
... 
Output file E:\Data\lvis_NPL\NplPublicering\Data\lfn-price-type-lx.xsd
... 
Output file E:\Data\lvis_NPL\NplPublicering\Data\lfn-prod-flag-type-lx.xsd
... 
Output file E:\Data\lvis_NPL\NplPublicering\Data\medprod-pack-derived-lx.xsd
... 
Output file E:\Data\lvis_NPL\NplPublicering\Data\mpa-date-type-lx.xsd
... 
Output file E:\Data\lvis_NPL\NplPublicering\Data\mpa-id-type-lx.xsd
... 
Output file E:\Data\lvis_NPL\NplPublicering\Data\mpa-pack-flag-type-lx.xsd
... 
Output file E:\Data\lvis_NPL\NplPublicering\Data\mpa-pack-id-type-lx.xsd
... 
Output file E:\Data\lvis_NPL\NplPublicering\Data\mpa-prod-derived-flag-type-lx.xsd
... 
Output file E:\Data\lvis_NPL\NplPublicering\Data\mpa-prod-flag-type-lx.xsd
... 
Output file E:\Data\lvis_NPL\NplPublicering\Data\mrl-tissue-lx.xsd
... 
Output file E:\Data\lvis_NPL\NplPublicering\Data\mrl-unit-lx.xsd
... 
Output file E:\Data\lvis_NPL\NplPublicering\Data\narcclass-lx.xsd
... 
Output file E:\Data\lvis_NPL\NplPublicering\Data\npl-price-type-lx.xsd
... 
Output file E:\Data\lvis_NPL\NplPublicering\Data\organization.xml
... 
Output file E:\Data\lvis_NPL\NplPublicering\Data\organization-role-lx.xsd
... 
Output file E:\Data\lvis_NPL\NplPublicering\Data\package-condition-lx.xsd
... 
Output file E:\Data\lvis_NPL\NplPublicering\Data\packmtrldet-lx.xsd
... 
Output file E:\Data\lvis_NPL\NplPublicering\Data\packmtrlout-lx.xsd
... 
Output file E:\Data\lvis_NPL\NplPublicering\Data\packtypedet-lx.xsd
... 
Output file E:\Data\lvis_NPL\NplPublicering\Data\packtypeout-lx.xsd
... 
Output file E:\Data\lvis_NPL\NplPublicering\Data\pharmaceutical-form-group-lx.xsd
... 
Output file E:\Data\lvis_NPL\NplPublicering\Data\pharmaceutical-form-lx.xsd
... 
Output file E:\Data\lvis_NPL\NplPublicering\Data\presccode-lx.xsd
... 
Output file E:\Data\lvis_NPL\NplPublicering\Data\prescright-lx.xsd
... 
Output file E:\Data\lvis_NPL\NplPublicering\Data\primpac-unit-lx.xsd
... 
Output file E:\Data\lvis_NPL\NplPublicering\Data\proc-not-lx.xsd
... 
Output file E:\Data\lvis_NPL\NplPublicering\Data\proc-status-lx.xsd
... 
Output file E:\Data\lvis_NPL\NplPublicering\Data\prodclass-lx.xsd
... 
Output file E:\Data\lvis_NPL\NplPublicering\Data\quantity-unit-alt-lx.xsd
... 
Output file E:\Data\lvis_NPL\NplPublicering\Data\quantity-unit-lx.xsd
... 
Output file E:\Data\lvis_NPL\NplPublicering\Data\reimbursement-lx.xsd
... 
Output file E:\Data\lvis_NPL\NplPublicering\Data\route-of-administration-lx.xsd
... 
Output file E:\Data\lvis_NPL\NplPublicering\Data\sales-restriction-lx.xsd
... 
Output file E:\Data\lvis_NPL\NplPublicering\Data\shelf-life-unit-lx.xsd
... 
Output file E:\Data\lvis_NPL\NplPublicering\Data\species-of-animal-lx.xsd
... 
Output file E:\Data\lvis_NPL\NplPublicering\Data\storagecond-lx.xsd
... 
Output file E:\Data\lvis_NPL\NplPublicering\Data\storage-temp-lx.xsd
... 
Output file E:\Data\lvis_NPL\NplPublicering\Data\substance.xml
... 
Output file E:\Data\lvis_NPL\NplPublicering\Data\trafficwarning-lx.xsd
... 
Output file E:\Data\lvis_NPL\NplPublicering\Data\withdrawal-tissue-lx.xsd
... 
Output file E:\Data\lvis_NPL\NplPublicering\Data\yesno-lx.xsd
... 
Lexicon export completed

D:\Program Files\Lvis_NPL\NplLvisUtility>if ERRORLEVEL 1 GOTO ERROR 

D:\Program Files\Lvis_NPL\NplLvisUtility>if ERRORLEVEL 2 GOTO ERROR 

D:\Program Files\Lvis_NPL\NplLvisUtility>if ERRORLEVEL 3 GOTO ERROR 
"Create archive containing all files ..."

D:\Program Files\Lvis_NPL\NplLvisUtility>E:

E:\>cd "E:\Data\lvis_NPL\NplPublicering\Data" 
"Archive"

E:\Data\Lvis_NPL\NplPublicering\Data>"D:\Program files\lvis_NPL\NplLvisUtility"\tar -c *   1>"E:\data\lvis_NPL\NplPublicering"\npl.tar 

E:\Data\Lvis_NPL\NplPublicering\Data>if ERRORLEVEL 1 GOTO ERROR 

E:\Data\Lvis_NPL\NplPublicering\Data>if ERRORLEVEL 2 GOTO ERROR 

E:\Data\Lvis_NPL\NplPublicering\Data>if ERRORLEVEL 3 GOTO ERROR 
"Compress archive ..."

E:\Data\Lvis_NPL\NplPublicering\Data>"D:\Program files\lvis_NPL\NplLvisUtility"\gzip "E:\data\lvis_NPL\NplPublicering"\npl.tar  

E:\Data\Lvis_NPL\NplPublicering\Data>if ERRORLEVEL 1 GOTO ERROR 

E:\Data\Lvis_NPL\NplPublicering\Data>if ERRORLEVEL 2 GOTO ERROR 

E:\Data\Lvis_NPL\NplPublicering\Data>if ERRORLEVEL 3 GOTO ERROR 

E:\Data\Lvis_NPL\NplPublicering\Data>rename "E:\data\lvis_NPL\NplPublicering"\npl.tar.gz npl.tgz 

E:\Data\Lvis_NPL\NplPublicering\Data>if ERRORLEVEL 1 GOTO ERROR 

E:\Data\Lvis_NPL\NplPublicering\Data>if ERRORLEVEL 2 GOTO ERROR 

E:\Data\Lvis_NPL\NplPublicering\Data>if ERRORLEVEL 3 GOTO ERROR 

E:\Data\Lvis_NPL\NplPublicering\Data>GOTO END 
Export ready without error: 0
