
D:\Program Files\Lvis_NPL\NplLvisUtility>set WORKDIR="D:\Program files\lvis_NPL\NplLvisUtility" 

D:\Program Files\Lvis_NPL\NplLvisUtility>set DATADIR="E:\Data\lvis_NPL\NplPublicering\Data" 

D:\Program Files\Lvis_NPL\NplLvisUtility>set EXPDIR="E:\data\lvis_NPL\NplPublicering" 

D:\Program Files\Lvis_NPL\NplLvisUtility>set PRODEXPDATE=2001-01-01 

D:\Program Files\Lvis_NPL\NplLvisUtility>set LEXEXPDATE=2001-10-20 

D:\Program Files\Lvis_NPL\NplLvisUtility>set TIMESTAMP=2014-02-15 3:00:00,41 
Start export  2014-02-15 3:00:00,41
"Remove old zip- and tar-filer" 

D:\Program Files\Lvis_NPL\NplLvisUtility>DEL  "E:\data\lvis_NPL\NplPublicering"\*.tgz  2>nul 

D:\Program Files\Lvis_NPL\NplLvisUtility>DEL  "E:\data\lvis_NPL\NplPublicering"\*.gz   2>nul 

D:\Program Files\Lvis_NPL\NplLvisUtility>DEL  "E:\data\lvis_NPL\NplPublicering"\*.tar  2>nul 
" "
"Export NPL products ..." 

D:\Program Files\Lvis_NPL\NplLvisUtility>"D:\Program files\lvis_NPL\NplLvisUtility"\NpLvisConsole.exe Export -f noaudit -p "E:\Data\lvis_NPL\NplPublicering\Data" -d 2001-01-01 
Info :Filter is set to noaudit

Info: Outputfile directory:  E:\Data\lvis_NPL\NplPublicering\Data

Info: Changed products after =  2001-01-01

Processing EXPORT
Export products in Xml format
Output file E:\Data\lvis_NPL\NplPublicering\Data\NplProducts.xml
2014-02-15 03:00:02 Retrieving product list

2014-02-15 03:00:16 Retriving Xml for 23301 products 

2014-02-15 03:00:36 100 unloaded ...
2014-02-15 03:00:57 200 unloaded ...
2014-02-15 03:01:22 300 unloaded ...
2014-02-15 03:01:38 400 unloaded ...
2014-02-15 03:01:53 500 unloaded ...
2014-02-15 03:02:09 600 unloaded ...
2014-02-15 03:02:25 700 unloaded ...
2014-02-15 03:02:41 800 unloaded ...
2014-02-15 03:02:58 900 unloaded ...
2014-02-15 03:03:14 1000 unloaded ...
2014-02-15 03:03:32 1100 unloaded ...
2014-02-15 03:03:49 1200 unloaded ...
2014-02-15 03:04:07 1300 unloaded ...
2014-02-15 03:04:26 1400 unloaded ...
2014-02-15 03:04:48 1500 unloaded ...
2014-02-15 03:05:06 1600 unloaded ...
2014-02-15 03:05:26 1700 unloaded ...
2014-02-15 03:05:38 1800 unloaded ...
2014-02-15 03:05:53 1900 unloaded ...
2014-02-15 03:06:12 2000 unloaded ...
2014-02-15 03:06:28 2100 unloaded ...
2014-02-15 03:06:44 2200 unloaded ...
2014-02-15 03:06:59 2300 unloaded ...
2014-02-15 03:07:17 2400 unloaded ...
2014-02-15 03:07:35 2500 unloaded ...
2014-02-15 03:07:51 2600 unloaded ...
2014-02-15 03:08:09 2700 unloaded ...
2014-02-15 03:08:27 2800 unloaded ...
2014-02-15 03:08:44 2900 unloaded ...
2014-02-15 03:09:00 3000 unloaded ...
2014-02-15 03:09:22 3100 unloaded ...
2014-02-15 03:09:41 3200 unloaded ...
2014-02-15 03:10:02 3300 unloaded ...
2014-02-15 03:10:22 3400 unloaded ...
2014-02-15 03:10:39 3500 unloaded ...
2014-02-15 03:10:57 3600 unloaded ...
2014-02-15 03:11:14 3700 unloaded ...
2014-02-15 03:11:30 3800 unloaded ...
2014-02-15 03:11:46 3900 unloaded ...
2014-02-15 03:12:01 4000 unloaded ...
2014-02-15 03:12:22 4100 unloaded ...
2014-02-15 03:12:40 4200 unloaded ...
2014-02-15 03:12:57 4300 unloaded ...
2014-02-15 03:13:15 4400 unloaded ...
2014-02-15 03:13:35 4500 unloaded ...
2014-02-15 03:13:52 4600 unloaded ...
2014-02-15 03:14:13 4700 unloaded ...
2014-02-15 03:14:36 4800 unloaded ...
2014-02-15 03:14:55 4900 unloaded ...
2014-02-15 03:15:13 5000 unloaded ...
2014-02-15 03:15:31 5100 unloaded ...
2014-02-15 03:15:48 5200 unloaded ...
2014-02-15 03:16:05 5300 unloaded ...
2014-02-15 03:16:26 5400 unloaded ...
2014-02-15 03:16:42 5500 unloaded ...
2014-02-15 03:17:01 5600 unloaded ...
2014-02-15 03:17:20 5700 unloaded ...
2014-02-15 03:17:35 5800 unloaded ...
2014-02-15 03:17:56 5900 unloaded ...
2014-02-15 03:18:15 6000 unloaded ...
2014-02-15 03:18:30 6100 unloaded ...
2014-02-15 03:18:46 6200 unloaded ...
2014-02-15 03:19:02 6300 unloaded ...
2014-02-15 03:19:23 6400 unloaded ...
2014-02-15 03:19:44 6500 unloaded ...
2014-02-15 03:20:05 6600 unloaded ...
2014-02-15 03:20:25 6700 unloaded ...
2014-02-15 03:20:43 6800 unloaded ...
2014-02-15 03:21:00 6900 unloaded ...
2014-02-15 03:21:11 7000 unloaded ...
2014-02-15 03:21:24 7100 unloaded ...
2014-02-15 03:21:36 7200 unloaded ...
2014-02-15 03:21:58 7300 unloaded ...
2014-02-15 03:22:22 7400 unloaded ...
2014-02-15 03:22:41 7500 unloaded ...
2014-02-15 03:23:01 7600 unloaded ...
2014-02-15 03:23:23 7700 unloaded ...
2014-02-15 03:23:42 7800 unloaded ...
2014-02-15 03:24:05 7900 unloaded ...
2014-02-15 03:24:23 8000 unloaded ...
2014-02-15 03:24:42 8100 unloaded ...
2014-02-15 03:25:03 8200 unloaded ...
2014-02-15 03:25:24 8300 unloaded ...
2014-02-15 03:25:46 8400 unloaded ...
2014-02-15 03:26:05 8500 unloaded ...
2014-02-15 03:26:27 8600 unloaded ...
2014-02-15 03:26:46 8700 unloaded ...
2014-02-15 03:27:09 8800 unloaded ...
2014-02-15 03:27:28 8900 unloaded ...
2014-02-15 03:27:47 9000 unloaded ...
2014-02-15 03:28:07 9100 unloaded ...
2014-02-15 03:28:23 9200 unloaded ...
2014-02-15 03:28:40 9300 unloaded ...
2014-02-15 03:29:02 9400 unloaded ...
2014-02-15 03:29:23 9500 unloaded ...
2014-02-15 03:29:42 9600 unloaded ...
2014-02-15 03:30:01 9700 unloaded ...
2014-02-15 03:30:19 9800 unloaded ...
2014-02-15 03:30:38 9900 unloaded ...
2014-02-15 03:30:52 10000 unloaded ...
2014-02-15 03:31:08 10100 unloaded ...
2014-02-15 03:31:24 10200 unloaded ...
2014-02-15 03:31:39 10300 unloaded ...
2014-02-15 03:31:53 10400 unloaded ...
2014-02-15 03:32:10 10500 unloaded ...
2014-02-15 03:32:27 10600 unloaded ...
2014-02-15 03:32:45 10700 unloaded ...
2014-02-15 03:33:02 10800 unloaded ...
2014-02-15 03:33:16 10900 unloaded ...
2014-02-15 03:33:33 11000 unloaded ...
2014-02-15 03:33:50 11100 unloaded ...
2014-02-15 03:34:07 11200 unloaded ...
2014-02-15 03:34:26 11300 unloaded ...
2014-02-15 03:34:41 11400 unloaded ...
2014-02-15 03:34:59 11500 unloaded ...
2014-02-15 03:35:14 11600 unloaded ...
2014-02-15 03:35:31 11700 unloaded ...
2014-02-15 03:35:47 11800 unloaded ...
2014-02-15 03:36:00 11900 unloaded ...
2014-02-15 03:36:17 12000 unloaded ...
2014-02-15 03:36:33 12100 unloaded ...
2014-02-15 03:36:51 12200 unloaded ...
2014-02-15 03:37:10 12300 unloaded ...
2014-02-15 03:37:24 12400 unloaded ...
2014-02-15 03:37:40 12500 unloaded ...
2014-02-15 03:37:55 12600 unloaded ...
2014-02-15 03:38:11 12700 unloaded ...
2014-02-15 03:38:28 12800 unloaded ...
2014-02-15 03:38:43 12900 unloaded ...
2014-02-15 03:39:00 13000 unloaded ...
2014-02-15 03:39:19 13100 unloaded ...
2014-02-15 03:39:34 13200 unloaded ...
2014-02-15 03:39:54 13300 unloaded ...
2014-02-15 03:40:11 13400 unloaded ...
2014-02-15 03:40:29 13500 unloaded ...
2014-02-15 03:40:45 13600 unloaded ...
2014-02-15 03:40:59 13700 unloaded ...
2014-02-15 03:41:16 13800 unloaded ...
2014-02-15 03:41:31 13900 unloaded ...
2014-02-15 03:41:46 14000 unloaded ...
2014-02-15 03:42:01 14100 unloaded ...
2014-02-15 03:42:14 14200 unloaded ...
2014-02-15 03:42:28 14300 unloaded ...
2014-02-15 03:42:44 14400 unloaded ...
2014-02-15 03:43:02 14500 unloaded ...
2014-02-15 03:43:17 14600 unloaded ...
2014-02-15 03:43:31 14700 unloaded ...
2014-02-15 03:43:46 14800 unloaded ...
2014-02-15 03:44:02 14900 unloaded ...
2014-02-15 03:44:15 15000 unloaded ...
2014-02-15 03:44:29 15100 unloaded ...
2014-02-15 03:44:43 15200 unloaded ...
2014-02-15 03:44:58 15300 unloaded ...
2014-02-15 03:45:13 15400 unloaded ...
2014-02-15 03:45:27 15500 unloaded ...
2014-02-15 03:45:43 15600 unloaded ...
2014-02-15 03:46:08 15700 unloaded ...
2014-02-15 03:46:24 15800 unloaded ...
2014-02-15 03:46:37 15900 unloaded ...
2014-02-15 03:46:50 16000 unloaded ...
2014-02-15 03:47:05 16100 unloaded ...
2014-02-15 03:47:18 16200 unloaded ...
2014-02-15 03:47:32 16300 unloaded ...
2014-02-15 03:47:43 16400 unloaded ...
2014-02-15 03:47:56 16500 unloaded ...
2014-02-15 03:48:08 16600 unloaded ...
2014-02-15 03:48:21 16700 unloaded ...
2014-02-15 03:48:35 16800 unloaded ...
2014-02-15 03:48:46 16900 unloaded ...
2014-02-15 03:48:58 17000 unloaded ...
2014-02-15 03:49:09 17100 unloaded ...
2014-02-15 03:49:26 17200 unloaded ...
2014-02-15 03:49:39 17300 unloaded ...
2014-02-15 03:49:52 17400 unloaded ...
2014-02-15 03:50:05 17500 unloaded ...
2014-02-15 03:50:18 17600 unloaded ...
2014-02-15 03:50:30 17700 unloaded ...
2014-02-15 03:50:43 17800 unloaded ...
2014-02-15 03:50:55 17900 unloaded ...
2014-02-15 03:51:07 18000 unloaded ...
2014-02-15 03:51:20 18100 unloaded ...
2014-02-15 03:51:33 18200 unloaded ...
2014-02-15 03:51:45 18300 unloaded ...
2014-02-15 03:51:57 18400 unloaded ...
2014-02-15 03:52:14 18500 unloaded ...
2014-02-15 03:52:28 18600 unloaded ...
2014-02-15 03:52:40 18700 unloaded ...
2014-02-15 03:52:52 18800 unloaded ...
2014-02-15 03:53:03 18900 unloaded ...
2014-02-15 03:53:15 19000 unloaded ...
2014-02-15 03:53:27 19100 unloaded ...
2014-02-15 03:53:40 19200 unloaded ...
2014-02-15 03:53:51 19300 unloaded ...
2014-02-15 03:54:03 19400 unloaded ...
2014-02-15 03:54:19 19500 unloaded ...
2014-02-15 03:54:30 19600 unloaded ...
2014-02-15 03:54:40 19700 unloaded ...
2014-02-15 03:54:52 19800 unloaded ...
2014-02-15 03:55:04 19900 unloaded ...
2014-02-15 03:55:17 20000 unloaded ...
2014-02-15 03:55:29 20100 unloaded ...
2014-02-15 03:55:39 20200 unloaded ...
2014-02-15 03:55:49 20300 unloaded ...
2014-02-15 03:56:03 20400 unloaded ...
2014-02-15 03:56:13 20500 unloaded ...
2014-02-15 03:56:26 20600 unloaded ...
2014-02-15 03:56:37 20700 unloaded ...
2014-02-15 03:56:47 20800 unloaded ...
2014-02-15 03:56:58 20900 unloaded ...
2014-02-15 03:57:08 21000 unloaded ...
2014-02-15 03:57:18 21100 unloaded ...
2014-02-15 03:57:28 21200 unloaded ...
2014-02-15 03:57:37 21300 unloaded ...
2014-02-15 03:57:45 21400 unloaded ...
2014-02-15 03:57:53 21500 unloaded ...
2014-02-15 03:58:00 21600 unloaded ...
2014-02-15 03:58:07 21700 unloaded ...
2014-02-15 03:58:15 21800 unloaded ...
2014-02-15 03:58:23 21900 unloaded ...
2014-02-15 03:58:31 22000 unloaded ...
2014-02-15 03:58:38 22100 unloaded ...
2014-02-15 03:58:46 22200 unloaded ...
2014-02-15 03:58:53 22300 unloaded ...
2014-02-15 03:59:01 22400 unloaded ...
2014-02-15 03:59:10 22500 unloaded ...
2014-02-15 03:59:18 22600 unloaded ...
2014-02-15 03:59:27 22700 unloaded ...
2014-02-15 03:59:34 22800 unloaded ...
2014-02-15 03:59:42 22900 unloaded ...
2014-02-15 03:59:49 23000 unloaded ...
2014-02-15 03:59:57 23100 unloaded ...
2014-02-15 04:00:06 23200 unloaded ...
2014-02-15 04:00:15 23300 unloaded ...
Export completed 

D:\Program Files\Lvis_NPL\NplLvisUtility>if ERRORLEVEL 1 GOTO ERROR 

D:\Program Files\Lvis_NPL\NplLvisUtility>if ERRORLEVEL 2 GOTO ERROR 

D:\Program Files\Lvis_NPL\NplLvisUtility>if ERRORLEVEL 3 GOTO ERROR 
"Export all NPL lexicons ..."

D:\Program Files\Lvis_NPL\NplLvisUtility>"D:\Program files\lvis_NPL\NplLvisUtility"\NpLvisConsole.exe LexExport -p "E:\Data\lvis_NPL\NplPublicering\Data"  -d 2001-10-20 
Info: Outputfile directory:  E:\Data\lvis_NPL\NplPublicering\Data

Info: Changed products after =  2001-10-20

Processing LEXEXPORT
Export all lexicons in Xml format
2014-02-15 04:00:20 Retrieving lexicon list

2014-02-15 04:00:20 Retriving Xml for 59 Lexicons 

Output file E:\Data\lvis_NPL\NplPublicering\Data\apo-pack-flag-type-lx.xsd
... 
Output file E:\Data\lvis_NPL\NplPublicering\Data\apo-pack-id-type-lx.xsd
... 
Output file E:\Data\lvis_NPL\NplPublicering\Data\apo-prod-id-type-lx.xsd
... 
Output file E:\Data\lvis_NPL\NplPublicering\Data\atc-code-lx.xml
... 
Output file E:\Data\lvis_NPL\NplPublicering\Data\comp-ref-quantity-lx.xsd
... 
Output file E:\Data\lvis_NPL\NplPublicering\Data\control-class-lx.xsd
... 
Output file E:\Data\lvis_NPL\NplPublicering\Data\country-lx.xsd
... 
Output file E:\Data\lvis_NPL\NplPublicering\Data\data-status-lx.xsd
... 
Output file E:\Data\lvis_NPL\NplPublicering\Data\drug-classification-lx.xsd
... 
Output file E:\Data\lvis_NPL\NplPublicering\Data\ind-date-type-lx.xsd
... 
Output file E:\Data\lvis_NPL\NplPublicering\Data\ind-name-type-lx.xsd
... 
Output file E:\Data\lvis_NPL\NplPublicering\Data\ind-pack-flag-type-lx.xsd
... 
Output file E:\Data\lvis_NPL\NplPublicering\Data\ind-pack-id-type-lx.xsd
... 
Output file E:\Data\lvis_NPL\NplPublicering\Data\ind-price-type-lx.xsd
... 
Output file E:\Data\lvis_NPL\NplPublicering\Data\ind-prod-flag-type-lx.xsd
... 
Output file E:\Data\lvis_NPL\NplPublicering\Data\ingredient-numeric-unit-lx.xsd
... 
Output file E:\Data\lvis_NPL\NplPublicering\Data\ingredient-role-lx.xsd
... 
Output file E:\Data\lvis_NPL\NplPublicering\Data\Lexicon.xsd
... 
Output file E:\Data\lvis_NPL\NplPublicering\Data\lfn-price-type-lx.xsd
... 
Output file E:\Data\lvis_NPL\NplPublicering\Data\lfn-prod-flag-type-lx.xsd
... 
Output file E:\Data\lvis_NPL\NplPublicering\Data\medprod-pack-derived-lx.xsd
... 
Output file E:\Data\lvis_NPL\NplPublicering\Data\mpa-date-type-lx.xsd
... 
Output file E:\Data\lvis_NPL\NplPublicering\Data\mpa-id-type-lx.xsd
... 
Output file E:\Data\lvis_NPL\NplPublicering\Data\mpa-pack-flag-type-lx.xsd
... 
Output file E:\Data\lvis_NPL\NplPublicering\Data\mpa-pack-id-type-lx.xsd
... 
Output file E:\Data\lvis_NPL\NplPublicering\Data\mpa-prod-derived-flag-type-lx.xsd
... 
Output file E:\Data\lvis_NPL\NplPublicering\Data\mpa-prod-flag-type-lx.xsd
... 
Output file E:\Data\lvis_NPL\NplPublicering\Data\mrl-tissue-lx.xsd
... 
Output file E:\Data\lvis_NPL\NplPublicering\Data\mrl-unit-lx.xsd
... 
Output file E:\Data\lvis_NPL\NplPublicering\Data\narcclass-lx.xsd
... 
Output file E:\Data\lvis_NPL\NplPublicering\Data\npl-price-type-lx.xsd
... 
Output file E:\Data\lvis_NPL\NplPublicering\Data\organization.xml
... 
Output file E:\Data\lvis_NPL\NplPublicering\Data\organization-role-lx.xsd
... 
Output file E:\Data\lvis_NPL\NplPublicering\Data\package-condition-lx.xsd
... 
Output file E:\Data\lvis_NPL\NplPublicering\Data\packmtrldet-lx.xsd
... 
Output file E:\Data\lvis_NPL\NplPublicering\Data\packmtrlout-lx.xsd
... 
Output file E:\Data\lvis_NPL\NplPublicering\Data\packtypedet-lx.xsd
... 
Output file E:\Data\lvis_NPL\NplPublicering\Data\packtypeout-lx.xsd
... 
Output file E:\Data\lvis_NPL\NplPublicering\Data\pharmaceutical-form-group-lx.xsd
... 
Output file E:\Data\lvis_NPL\NplPublicering\Data\pharmaceutical-form-lx.xsd
... 
Output file E:\Data\lvis_NPL\NplPublicering\Data\presccode-lx.xsd
... 
Output file E:\Data\lvis_NPL\NplPublicering\Data\prescright-lx.xsd
... 
Output file E:\Data\lvis_NPL\NplPublicering\Data\primpac-unit-lx.xsd
... 
Output file E:\Data\lvis_NPL\NplPublicering\Data\proc-not-lx.xsd
... 
Output file E:\Data\lvis_NPL\NplPublicering\Data\proc-status-lx.xsd
... 
Output file E:\Data\lvis_NPL\NplPublicering\Data\prodclass-lx.xsd
... 
Output file E:\Data\lvis_NPL\NplPublicering\Data\quantity-unit-alt-lx.xsd
... 
Output file E:\Data\lvis_NPL\NplPublicering\Data\quantity-unit-lx.xsd
... 
Output file E:\Data\lvis_NPL\NplPublicering\Data\reimbursement-lx.xsd
... 
Output file E:\Data\lvis_NPL\NplPublicering\Data\route-of-administration-lx.xsd
... 
Output file E:\Data\lvis_NPL\NplPublicering\Data\sales-restriction-lx.xsd
... 
Output file E:\Data\lvis_NPL\NplPublicering\Data\shelf-life-unit-lx.xsd
... 
Output file E:\Data\lvis_NPL\NplPublicering\Data\species-of-animal-lx.xsd
... 
Output file E:\Data\lvis_NPL\NplPublicering\Data\storagecond-lx.xsd
... 
Output file E:\Data\lvis_NPL\NplPublicering\Data\storage-temp-lx.xsd
... 
Output file E:\Data\lvis_NPL\NplPublicering\Data\substance.xml
... 
Output file E:\Data\lvis_NPL\NplPublicering\Data\trafficwarning-lx.xsd
... 
Output file E:\Data\lvis_NPL\NplPublicering\Data\withdrawal-tissue-lx.xsd
... 
Output file E:\Data\lvis_NPL\NplPublicering\Data\yesno-lx.xsd
... 
Lexicon export completed

D:\Program Files\Lvis_NPL\NplLvisUtility>if ERRORLEVEL 1 GOTO ERROR 

D:\Program Files\Lvis_NPL\NplLvisUtility>if ERRORLEVEL 2 GOTO ERROR 

D:\Program Files\Lvis_NPL\NplLvisUtility>if ERRORLEVEL 3 GOTO ERROR 
"Create archive containing all files ..."

D:\Program Files\Lvis_NPL\NplLvisUtility>E:

E:\>cd "E:\Data\lvis_NPL\NplPublicering\Data" 
"Archive"

E:\Data\Lvis_NPL\NplPublicering\Data>"D:\Program files\lvis_NPL\NplLvisUtility"\tar -c *   1>"E:\data\lvis_NPL\NplPublicering"\npl.tar 

E:\Data\Lvis_NPL\NplPublicering\Data>if ERRORLEVEL 1 GOTO ERROR 

E:\Data\Lvis_NPL\NplPublicering\Data>if ERRORLEVEL 2 GOTO ERROR 

E:\Data\Lvis_NPL\NplPublicering\Data>if ERRORLEVEL 3 GOTO ERROR 
"Compress archive ..."

E:\Data\Lvis_NPL\NplPublicering\Data>"D:\Program files\lvis_NPL\NplLvisUtility"\gzip "E:\data\lvis_NPL\NplPublicering"\npl.tar  

E:\Data\Lvis_NPL\NplPublicering\Data>if ERRORLEVEL 1 GOTO ERROR 

E:\Data\Lvis_NPL\NplPublicering\Data>if ERRORLEVEL 2 GOTO ERROR 

E:\Data\Lvis_NPL\NplPublicering\Data>if ERRORLEVEL 3 GOTO ERROR 

E:\Data\Lvis_NPL\NplPublicering\Data>rename "E:\data\lvis_NPL\NplPublicering"\npl.tar.gz npl.tgz 

E:\Data\Lvis_NPL\NplPublicering\Data>if ERRORLEVEL 1 GOTO ERROR 

E:\Data\Lvis_NPL\NplPublicering\Data>if ERRORLEVEL 2 GOTO ERROR 

E:\Data\Lvis_NPL\NplPublicering\Data>if ERRORLEVEL 3 GOTO ERROR 

E:\Data\Lvis_NPL\NplPublicering\Data>GOTO END 
Export ready without error: 0
