
D:\Program Files\Lvis_NPL\NplLvisUtility>set WORKDIR="D:\Program files\lvis_NPL\NplLvisUtility" 

D:\Program Files\Lvis_NPL\NplLvisUtility>set DATADIR="E:\Data\lvis_NPL\NplPublicering\Data" 

D:\Program Files\Lvis_NPL\NplLvisUtility>set EXPDIR="E:\data\lvis_NPL\NplPublicering" 

D:\Program Files\Lvis_NPL\NplLvisUtility>set PRODEXPDATE=2001-01-01 

D:\Program Files\Lvis_NPL\NplLvisUtility>set LEXEXPDATE=2001-10-20 

D:\Program Files\Lvis_NPL\NplLvisUtility>set TIMESTAMP=2013-04-05 3:00:00,48 
Start export  2013-04-05 3:00:00,48
"Remove old zip- and tar-filer" 

D:\Program Files\Lvis_NPL\NplLvisUtility>DEL  "E:\data\lvis_NPL\NplPublicering"\*.tgz  2>nul 

D:\Program Files\Lvis_NPL\NplLvisUtility>DEL  "E:\data\lvis_NPL\NplPublicering"\*.gz   2>nul 

D:\Program Files\Lvis_NPL\NplLvisUtility>DEL  "E:\data\lvis_NPL\NplPublicering"\*.tar  2>nul 
" "
"Export NPL products ..." 

D:\Program Files\Lvis_NPL\NplLvisUtility>"D:\Program files\lvis_NPL\NplLvisUtility"\NpLvisConsole.exe Export -f noaudit -p "E:\Data\lvis_NPL\NplPublicering\Data" -d 2001-01-01 
Info :Filter is set to noaudit

Info: Outputfile directory:  E:\Data\lvis_NPL\NplPublicering\Data

Info: Changed products after =  2001-01-01

Processing EXPORT
Export products in Xml format
Output file E:\Data\lvis_NPL\NplPublicering\Data\NplProducts.xml
2013-04-05 03:00:01 Retrieving product list

2013-04-05 03:00:14 Retriving Xml for 20170 products 

2013-04-05 03:00:39 100 unloaded ...
2013-04-05 03:00:59 200 unloaded ...
2013-04-05 03:01:21 300 unloaded ...
2013-04-05 03:01:42 400 unloaded ...
2013-04-05 03:02:02 500 unloaded ...
2013-04-05 03:02:26 600 unloaded ...
2013-04-05 03:02:47 700 unloaded ...
2013-04-05 03:03:08 800 unloaded ...
2013-04-05 03:03:31 900 unloaded ...
2013-04-05 03:03:51 1000 unloaded ...
2013-04-05 03:04:10 1100 unloaded ...
2013-04-05 03:04:29 1200 unloaded ...
2013-04-05 03:04:47 1300 unloaded ...
2013-04-05 03:05:08 1400 unloaded ...
2013-04-05 03:05:32 1500 unloaded ...
2013-04-05 03:05:51 1600 unloaded ...
2013-04-05 03:06:10 1700 unloaded ...
2013-04-05 03:06:26 1800 unloaded ...
2013-04-05 03:06:45 1900 unloaded ...
2013-04-05 03:07:05 2000 unloaded ...
2013-04-05 03:07:24 2100 unloaded ...
2013-04-05 03:07:43 2200 unloaded ...
2013-04-05 03:08:00 2300 unloaded ...
2013-04-05 03:08:20 2400 unloaded ...
2013-04-05 03:08:40 2500 unloaded ...
2013-04-05 03:08:58 2600 unloaded ...
2013-04-05 03:09:19 2700 unloaded ...
2013-04-05 03:09:39 2800 unloaded ...
2013-04-05 03:09:57 2900 unloaded ...
2013-04-05 03:10:23 3000 unloaded ...
2013-04-05 03:10:51 3100 unloaded ...
2013-04-05 03:11:16 3200 unloaded ...
2013-04-05 03:11:45 3300 unloaded ...
2013-04-05 03:12:11 3400 unloaded ...
2013-04-05 03:12:36 3500 unloaded ...
2013-04-05 03:13:00 3600 unloaded ...
2013-04-05 03:13:24 3700 unloaded ...
2013-04-05 03:13:48 3800 unloaded ...
2013-04-05 03:14:08 3900 unloaded ...
2013-04-05 03:14:26 4000 unloaded ...
2013-04-05 03:14:50 4100 unloaded ...
2013-04-05 03:15:13 4200 unloaded ...
2013-04-05 03:15:34 4300 unloaded ...
2013-04-05 03:15:53 4400 unloaded ...
2013-04-05 03:16:17 4500 unloaded ...
2013-04-05 03:16:38 4600 unloaded ...
2013-04-05 03:17:02 4700 unloaded ...
2013-04-05 03:17:27 4800 unloaded ...
2013-04-05 03:17:49 4900 unloaded ...
2013-04-05 03:18:08 5000 unloaded ...
2013-04-05 03:18:29 5100 unloaded ...
2013-04-05 03:18:49 5200 unloaded ...
2013-04-05 03:19:08 5300 unloaded ...
2013-04-05 03:19:31 5400 unloaded ...
2013-04-05 03:19:50 5500 unloaded ...
2013-04-05 03:20:16 5600 unloaded ...
2013-04-05 03:20:43 5700 unloaded ...
2013-04-05 03:21:06 5800 unloaded ...
2013-04-05 03:21:35 5900 unloaded ...
2013-04-05 03:22:01 6000 unloaded ...
2013-04-05 03:22:23 6100 unloaded ...
2013-04-05 03:22:46 6200 unloaded ...
2013-04-05 03:23:09 6300 unloaded ...
2013-04-05 03:23:36 6400 unloaded ...
2013-04-05 03:24:02 6500 unloaded ...
2013-04-05 03:24:26 6600 unloaded ...
2013-04-05 03:24:48 6700 unloaded ...
2013-04-05 03:25:08 6800 unloaded ...
2013-04-05 03:25:28 6900 unloaded ...
2013-04-05 03:25:42 7000 unloaded ...
2013-04-05 03:25:56 7100 unloaded ...
2013-04-05 03:26:12 7200 unloaded ...
2013-04-05 03:26:37 7300 unloaded ...
2013-04-05 03:27:04 7400 unloaded ...
2013-04-05 03:27:25 7500 unloaded ...
2013-04-05 03:27:48 7600 unloaded ...
2013-04-05 03:28:13 7700 unloaded ...
2013-04-05 03:28:34 7800 unloaded ...
2013-04-05 03:28:59 7900 unloaded ...
2013-04-05 03:29:22 8000 unloaded ...
2013-04-05 03:29:43 8100 unloaded ...
2013-04-05 03:30:08 8200 unloaded ...
2013-04-05 03:30:39 8300 unloaded ...
2013-04-05 03:31:04 8400 unloaded ...
2013-04-05 03:31:31 8500 unloaded ...
2013-04-05 03:31:58 8600 unloaded ...
2013-04-05 03:32:24 8700 unloaded ...
2013-04-05 03:32:56 8800 unloaded ...
2013-04-05 03:33:22 8900 unloaded ...
2013-04-05 03:33:48 9000 unloaded ...
2013-04-05 03:34:09 9100 unloaded ...
2013-04-05 03:34:29 9200 unloaded ...
2013-04-05 03:34:47 9300 unloaded ...
2013-04-05 03:35:12 9400 unloaded ...
2013-04-05 03:35:35 9500 unloaded ...
2013-04-05 03:35:56 9600 unloaded ...
2013-04-05 03:36:17 9700 unloaded ...
2013-04-05 03:36:37 9800 unloaded ...
2013-04-05 03:36:58 9900 unloaded ...
2013-04-05 03:37:15 10000 unloaded ...
2013-04-05 03:37:33 10100 unloaded ...
2013-04-05 03:37:50 10200 unloaded ...
2013-04-05 03:38:08 10300 unloaded ...
2013-04-05 03:38:25 10400 unloaded ...
2013-04-05 03:38:44 10500 unloaded ...
2013-04-05 03:39:03 10600 unloaded ...
2013-04-05 03:39:23 10700 unloaded ...
2013-04-05 03:39:42 10800 unloaded ...
2013-04-05 03:39:59 10900 unloaded ...
2013-04-05 03:40:25 11000 unloaded ...
2013-04-05 03:40:48 11100 unloaded ...
2013-04-05 03:41:12 11200 unloaded ...
2013-04-05 03:41:37 11300 unloaded ...
2013-04-05 03:41:57 11400 unloaded ...
2013-04-05 03:42:21 11500 unloaded ...
2013-04-05 03:42:42 11600 unloaded ...
2013-04-05 03:43:04 11700 unloaded ...
2013-04-05 03:43:26 11800 unloaded ...
2013-04-05 03:43:46 11900 unloaded ...
2013-04-05 03:44:04 12000 unloaded ...
2013-04-05 03:44:22 12100 unloaded ...
2013-04-05 03:44:42 12200 unloaded ...
2013-04-05 03:45:03 12300 unloaded ...
2013-04-05 03:45:22 12400 unloaded ...
2013-04-05 03:45:45 12500 unloaded ...
2013-04-05 03:46:01 12600 unloaded ...
2013-04-05 03:46:20 12700 unloaded ...
2013-04-05 03:46:40 12800 unloaded ...
2013-04-05 03:46:58 12900 unloaded ...
2013-04-05 03:47:17 13000 unloaded ...
2013-04-05 03:47:35 13100 unloaded ...
2013-04-05 03:47:52 13200 unloaded ...
2013-04-05 03:48:15 13300 unloaded ...
2013-04-05 03:48:36 13400 unloaded ...
2013-04-05 03:48:53 13500 unloaded ...
2013-04-05 03:49:11 13600 unloaded ...
2013-04-05 03:49:28 13700 unloaded ...
2013-04-05 03:49:47 13800 unloaded ...
2013-04-05 03:50:05 13900 unloaded ...
2013-04-05 03:50:30 14000 unloaded ...
2013-04-05 03:50:49 14100 unloaded ...
2013-04-05 03:51:08 14200 unloaded ...
2013-04-05 03:51:30 14300 unloaded ...
2013-04-05 03:51:53 14400 unloaded ...
2013-04-05 03:52:17 14500 unloaded ...
2013-04-05 03:52:36 14600 unloaded ...
2013-04-05 03:52:58 14700 unloaded ...
2013-04-05 03:53:18 14800 unloaded ...
2013-04-05 03:53:39 14900 unloaded ...
2013-04-05 03:53:57 15000 unloaded ...
2013-04-05 03:54:13 15100 unloaded ...
2013-04-05 03:54:28 15200 unloaded ...
2013-04-05 03:54:46 15300 unloaded ...
2013-04-05 03:55:00 15400 unloaded ...
2013-04-05 03:55:19 15500 unloaded ...
2013-04-05 03:55:38 15600 unloaded ...
2013-04-05 03:55:58 15700 unloaded ...
2013-04-05 03:56:17 15800 unloaded ...
2013-04-05 03:56:34 15900 unloaded ...
2013-04-05 03:56:50 16000 unloaded ...
2013-04-05 03:57:06 16100 unloaded ...
2013-04-05 03:57:22 16200 unloaded ...
2013-04-05 03:57:38 16300 unloaded ...
2013-04-05 03:57:52 16400 unloaded ...
2013-04-05 03:58:06 16500 unloaded ...
2013-04-05 03:58:21 16600 unloaded ...
2013-04-05 03:58:36 16700 unloaded ...
2013-04-05 03:58:51 16800 unloaded ...
2013-04-05 03:59:05 16900 unloaded ...
2013-04-05 03:59:18 17000 unloaded ...
2013-04-05 03:59:33 17100 unloaded ...
2013-04-05 03:59:49 17200 unloaded ...
2013-04-05 04:00:09 17300 unloaded ...
2013-04-05 04:00:28 17400 unloaded ...
2013-04-05 04:00:47 17500 unloaded ...
2013-04-05 04:01:04 17600 unloaded ...
2013-04-05 04:01:22 17700 unloaded ...
2013-04-05 04:01:41 17800 unloaded ...
2013-04-05 04:01:58 17900 unloaded ...
2013-04-05 04:02:14 18000 unloaded ...
2013-04-05 04:02:37 18100 unloaded ...
2013-04-05 04:02:55 18200 unloaded ...
2013-04-05 04:03:11 18300 unloaded ...
2013-04-05 04:03:30 18400 unloaded ...
2013-04-05 04:03:51 18500 unloaded ...
2013-04-05 04:04:06 18600 unloaded ...
2013-04-05 04:04:20 18700 unloaded ...
2013-04-05 04:04:34 18800 unloaded ...
2013-04-05 04:04:48 18900 unloaded ...
2013-04-05 04:05:02 19000 unloaded ...
2013-04-05 04:05:17 19100 unloaded ...
2013-04-05 04:05:32 19200 unloaded ...
2013-04-05 04:05:46 19300 unloaded ...
2013-04-05 04:06:06 19400 unloaded ...
2013-04-05 04:06:19 19500 unloaded ...
2013-04-05 04:06:31 19600 unloaded ...
2013-04-05 04:06:45 19700 unloaded ...
2013-04-05 04:07:02 19800 unloaded ...
2013-04-05 04:07:16 19900 unloaded ...
2013-04-05 04:07:28 20000 unloaded ...
2013-04-05 04:07:42 20100 unloaded ...
Export completed 

D:\Program Files\Lvis_NPL\NplLvisUtility>if ERRORLEVEL 1 GOTO ERROR 

D:\Program Files\Lvis_NPL\NplLvisUtility>if ERRORLEVEL 2 GOTO ERROR 

D:\Program Files\Lvis_NPL\NplLvisUtility>if ERRORLEVEL 3 GOTO ERROR 
"Export all NPL lexicons ..."

D:\Program Files\Lvis_NPL\NplLvisUtility>"D:\Program files\lvis_NPL\NplLvisUtility"\NpLvisConsole.exe LexExport -p "E:\Data\lvis_NPL\NplPublicering\Data"  -d 2001-10-20 
Info: Outputfile directory:  E:\Data\lvis_NPL\NplPublicering\Data

Info: Changed products after =  2001-10-20

Processing LEXEXPORT
Export all lexicons in Xml format
2013-04-05 04:08:09 Retrieving lexicon list

2013-04-05 04:08:10 Retriving Xml for 59 Lexicons 

Output file E:\Data\lvis_NPL\NplPublicering\Data\apo-pack-flag-type-lx.xsd
... 
Output file E:\Data\lvis_NPL\NplPublicering\Data\apo-pack-id-type-lx.xsd
... 
Output file E:\Data\lvis_NPL\NplPublicering\Data\apo-prod-id-type-lx.xsd
... 
Output file E:\Data\lvis_NPL\NplPublicering\Data\atc-code-lx.xml
... 
Output file E:\Data\lvis_NPL\NplPublicering\Data\comp-ref-quantity-lx.xsd
... 
Output file E:\Data\lvis_NPL\NplPublicering\Data\control-class-lx.xsd
... 
Output file E:\Data\lvis_NPL\NplPublicering\Data\country-lx.xsd
... 
Output file E:\Data\lvis_NPL\NplPublicering\Data\data-status-lx.xsd
... 
Output file E:\Data\lvis_NPL\NplPublicering\Data\drug-classification-lx.xsd
... 
Output file E:\Data\lvis_NPL\NplPublicering\Data\ind-date-type-lx.xsd
... 
Output file E:\Data\lvis_NPL\NplPublicering\Data\ind-name-type-lx.xsd
... 
Output file E:\Data\lvis_NPL\NplPublicering\Data\ind-pack-flag-type-lx.xsd
... 
Output file E:\Data\lvis_NPL\NplPublicering\Data\ind-pack-id-type-lx.xsd
... 
Output file E:\Data\lvis_NPL\NplPublicering\Data\ind-price-type-lx.xsd
... 
Output file E:\Data\lvis_NPL\NplPublicering\Data\ind-prod-flag-type-lx.xsd
... 
Output file E:\Data\lvis_NPL\NplPublicering\Data\ingredient-numeric-unit-lx.xsd
... 
Output file E:\Data\lvis_NPL\NplPublicering\Data\ingredient-role-lx.xsd
... 
Output file E:\Data\lvis_NPL\NplPublicering\Data\Lexicon.xsd
... 
Output file E:\Data\lvis_NPL\NplPublicering\Data\lfn-price-type-lx.xsd
... 
Output file E:\Data\lvis_NPL\NplPublicering\Data\lfn-prod-flag-type-lx.xsd
... 
Output file E:\Data\lvis_NPL\NplPublicering\Data\medprod-pack-derived-lx.xsd
... 
Output file E:\Data\lvis_NPL\NplPublicering\Data\mpa-date-type-lx.xsd
... 
Output file E:\Data\lvis_NPL\NplPublicering\Data\mpa-id-type-lx.xsd
... 
Output file E:\Data\lvis_NPL\NplPublicering\Data\mpa-pack-flag-type-lx.xsd
... 
Output file E:\Data\lvis_NPL\NplPublicering\Data\mpa-pack-id-type-lx.xsd
... 
Output file E:\Data\lvis_NPL\NplPublicering\Data\mpa-prod-derived-flag-type-lx.xsd
... 
Output file E:\Data\lvis_NPL\NplPublicering\Data\mpa-prod-flag-type-lx.xsd
... 
Output file E:\Data\lvis_NPL\NplPublicering\Data\mrl-tissue-lx.xsd
... 
Output file E:\Data\lvis_NPL\NplPublicering\Data\mrl-unit-lx.xsd
... 
Output file E:\Data\lvis_NPL\NplPublicering\Data\narcclass-lx.xsd
... 
Output file E:\Data\lvis_NPL\NplPublicering\Data\npl-price-type-lx.xsd
... 
Output file E:\Data\lvis_NPL\NplPublicering\Data\organization.xml
... 
Output file E:\Data\lvis_NPL\NplPublicering\Data\organization-role-lx.xsd
... 
Output file E:\Data\lvis_NPL\NplPublicering\Data\package-condition-lx.xsd
... 
Output file E:\Data\lvis_NPL\NplPublicering\Data\packmtrldet-lx.xsd
... 
Output file E:\Data\lvis_NPL\NplPublicering\Data\packmtrlout-lx.xsd
... 
Output file E:\Data\lvis_NPL\NplPublicering\Data\packtypedet-lx.xsd
... 
Output file E:\Data\lvis_NPL\NplPublicering\Data\packtypeout-lx.xsd
... 
Output file E:\Data\lvis_NPL\NplPublicering\Data\pharmaceutical-form-group-lx.xsd
... 
Output file E:\Data\lvis_NPL\NplPublicering\Data\pharmaceutical-form-lx.xsd
... 
Output file E:\Data\lvis_NPL\NplPublicering\Data\presccode-lx.xsd
... 
Output file E:\Data\lvis_NPL\NplPublicering\Data\prescright-lx.xsd
... 
Output file E:\Data\lvis_NPL\NplPublicering\Data\primpac-unit-lx.xsd
... 
Output file E:\Data\lvis_NPL\NplPublicering\Data\proc-not-lx.xsd
... 
Output file E:\Data\lvis_NPL\NplPublicering\Data\proc-status-lx.xsd
... 
Output file E:\Data\lvis_NPL\NplPublicering\Data\prodclass-lx.xsd
... 
Output file E:\Data\lvis_NPL\NplPublicering\Data\quantity-unit-alt-lx.xsd
... 
Output file E:\Data\lvis_NPL\NplPublicering\Data\quantity-unit-lx.xsd
... 
Output file E:\Data\lvis_NPL\NplPublicering\Data\reimbursement-lx.xsd
... 
Output file E:\Data\lvis_NPL\NplPublicering\Data\route-of-administration-lx.xsd
... 
Output file E:\Data\lvis_NPL\NplPublicering\Data\sales-restriction-lx.xsd
... 
Output file E:\Data\lvis_NPL\NplPublicering\Data\shelf-life-unit-lx.xsd
... 
Output file E:\Data\lvis_NPL\NplPublicering\Data\species-of-animal-lx.xsd
... 
Output file E:\Data\lvis_NPL\NplPublicering\Data\storagecond-lx.xsd
... 
Output file E:\Data\lvis_NPL\NplPublicering\Data\storage-temp-lx.xsd
... 
Output file E:\Data\lvis_NPL\NplPublicering\Data\substance.xml
... 
Output file E:\Data\lvis_NPL\NplPublicering\Data\trafficwarning-lx.xsd
... 
Output file E:\Data\lvis_NPL\NplPublicering\Data\withdrawal-tissue-lx.xsd
... 
Output file E:\Data\lvis_NPL\NplPublicering\Data\yesno-lx.xsd
... 
Lexicon export completed

D:\Program Files\Lvis_NPL\NplLvisUtility>if ERRORLEVEL 1 GOTO ERROR 

D:\Program Files\Lvis_NPL\NplLvisUtility>if ERRORLEVEL 2 GOTO ERROR 

D:\Program Files\Lvis_NPL\NplLvisUtility>if ERRORLEVEL 3 GOTO ERROR 
"Create archive containing all files ..."

D:\Program Files\Lvis_NPL\NplLvisUtility>E:

E:\>cd "E:\Data\lvis_NPL\NplPublicering\Data" 
"Archive"

E:\Data\Lvis_NPL\NplPublicering\Data>"D:\Program files\lvis_NPL\NplLvisUtility"\tar -c *   1>"E:\data\lvis_NPL\NplPublicering"\npl.tar 

E:\Data\Lvis_NPL\NplPublicering\Data>if ERRORLEVEL 1 GOTO ERROR 

E:\Data\Lvis_NPL\NplPublicering\Data>if ERRORLEVEL 2 GOTO ERROR 

E:\Data\Lvis_NPL\NplPublicering\Data>if ERRORLEVEL 3 GOTO ERROR 
"Compress archive ..."

E:\Data\Lvis_NPL\NplPublicering\Data>"D:\Program files\lvis_NPL\NplLvisUtility"\gzip "E:\data\lvis_NPL\NplPublicering"\npl.tar  

E:\Data\Lvis_NPL\NplPublicering\Data>if ERRORLEVEL 1 GOTO ERROR 

E:\Data\Lvis_NPL\NplPublicering\Data>if ERRORLEVEL 2 GOTO ERROR 

E:\Data\Lvis_NPL\NplPublicering\Data>if ERRORLEVEL 3 GOTO ERROR 

E:\Data\Lvis_NPL\NplPublicering\Data>rename "E:\data\lvis_NPL\NplPublicering"\npl.tar.gz npl.tgz 

E:\Data\Lvis_NPL\NplPublicering\Data>if ERRORLEVEL 1 GOTO ERROR 

E:\Data\Lvis_NPL\NplPublicering\Data>if ERRORLEVEL 2 GOTO ERROR 

E:\Data\Lvis_NPL\NplPublicering\Data>if ERRORLEVEL 3 GOTO ERROR 

E:\Data\Lvis_NPL\NplPublicering\Data>GOTO END 
Export ready without error: 0
