
D:\Program Files\Lvis_NPL\NplLvisUtility>set WORKDIR="D:\Program files\lvis_NPL\NplLvisUtility" 

D:\Program Files\Lvis_NPL\NplLvisUtility>set DATADIR="E:\Data\lvis_NPL\NplPublicering\Data" 

D:\Program Files\Lvis_NPL\NplLvisUtility>set EXPDIR="E:\data\lvis_NPL\NplPublicering" 

D:\Program Files\Lvis_NPL\NplLvisUtility>set PRODEXPDATE=2001-01-01 

D:\Program Files\Lvis_NPL\NplLvisUtility>set LEXEXPDATE=2001-10-20 

D:\Program Files\Lvis_NPL\NplLvisUtility>set TIMESTAMP=2015-08-25 3:00:00,25 
Start export  2015-08-25 3:00:00,25
"Remove old zip- and tar-filer" 

D:\Program Files\Lvis_NPL\NplLvisUtility>DEL  "E:\data\lvis_NPL\NplPublicering"\*.tgz  2>nul 

D:\Program Files\Lvis_NPL\NplLvisUtility>DEL  "E:\data\lvis_NPL\NplPublicering"\*.gz   2>nul 

D:\Program Files\Lvis_NPL\NplLvisUtility>DEL  "E:\data\lvis_NPL\NplPublicering"\*.tar  2>nul 
" "
"Export NPL products ..." 

D:\Program Files\Lvis_NPL\NplLvisUtility>"D:\Program files\lvis_NPL\NplLvisUtility"\NpLvisConsole.exe Export -f noaudit -p "E:\Data\lvis_NPL\NplPublicering\Data" -d 2001-01-01 
Info :Filter is set to noaudit

Info: Outputfile directory:  E:\Data\lvis_NPL\NplPublicering\Data

Info: Changed products after =  2001-01-01

Processing EXPORT
Export products in Xml format
Output file E:\Data\lvis_NPL\NplPublicering\Data\NplProducts.xml
2015-08-25 03:00:01 Retrieving product list

2015-08-25 03:00:23 Retriving Xml for 26023 products 

2015-08-25 03:00:48 100 unloaded ...
2015-08-25 03:01:08 200 unloaded ...
2015-08-25 03:01:27 300 unloaded ...
2015-08-25 03:01:48 400 unloaded ...
2015-08-25 03:02:09 500 unloaded ...
2015-08-25 03:02:32 600 unloaded ...
2015-08-25 03:02:53 700 unloaded ...
2015-08-25 03:03:15 800 unloaded ...
2015-08-25 03:03:38 900 unloaded ...
2015-08-25 03:03:58 1000 unloaded ...
2015-08-25 03:04:21 1100 unloaded ...
2015-08-25 03:04:41 1200 unloaded ...
2015-08-25 03:05:06 1300 unloaded ...
2015-08-25 03:05:30 1400 unloaded ...
2015-08-25 03:05:59 1500 unloaded ...
2015-08-25 03:06:21 1600 unloaded ...
2015-08-25 03:06:42 1700 unloaded ...
2015-08-25 03:06:59 1800 unloaded ...
2015-08-25 03:07:19 1900 unloaded ...
2015-08-25 03:07:44 2000 unloaded ...
2015-08-25 03:08:06 2100 unloaded ...
2015-08-25 03:08:26 2200 unloaded ...
2015-08-25 03:08:47 2300 unloaded ...
2015-08-25 03:09:08 2400 unloaded ...
2015-08-25 03:09:31 2500 unloaded ...
2015-08-25 03:09:51 2600 unloaded ...
2015-08-25 03:10:16 2700 unloaded ...
2015-08-25 03:10:39 2800 unloaded ...
2015-08-25 03:11:02 2900 unloaded ...
2015-08-25 03:11:24 3000 unloaded ...
2015-08-25 03:11:49 3100 unloaded ...
2015-08-25 03:12:13 3200 unloaded ...
2015-08-25 03:12:40 3300 unloaded ...
2015-08-25 03:13:08 3400 unloaded ...
2015-08-25 03:13:30 3500 unloaded ...
2015-08-25 03:13:53 3600 unloaded ...
2015-08-25 03:14:16 3700 unloaded ...
2015-08-25 03:14:38 3800 unloaded ...
2015-08-25 03:14:56 3900 unloaded ...
2015-08-25 03:15:18 4000 unloaded ...
2015-08-25 03:15:43 4100 unloaded ...
2015-08-25 03:16:06 4200 unloaded ...
2015-08-25 03:16:26 4300 unloaded ...
2015-08-25 03:16:48 4400 unloaded ...
2015-08-25 03:17:12 4500 unloaded ...
2015-08-25 03:17:33 4600 unloaded ...
2015-08-25 03:17:58 4700 unloaded ...
2015-08-25 03:18:25 4800 unloaded ...
2015-08-25 03:18:51 4900 unloaded ...
2015-08-25 03:19:12 5000 unloaded ...
2015-08-25 03:19:36 5100 unloaded ...
2015-08-25 03:19:57 5200 unloaded ...
2015-08-25 03:20:21 5300 unloaded ...
2015-08-25 03:20:47 5400 unloaded ...
2015-08-25 03:21:07 5500 unloaded ...
2015-08-25 03:21:30 5600 unloaded ...
2015-08-25 03:21:54 5700 unloaded ...
2015-08-25 03:22:14 5800 unloaded ...
2015-08-25 03:22:40 5900 unloaded ...
2015-08-25 03:23:05 6000 unloaded ...
2015-08-25 03:23:23 6100 unloaded ...
2015-08-25 03:23:43 6200 unloaded ...
2015-08-25 03:24:03 6300 unloaded ...
2015-08-25 03:24:29 6400 unloaded ...
2015-08-25 03:24:54 6500 unloaded ...
2015-08-25 03:25:21 6600 unloaded ...
2015-08-25 03:25:46 6700 unloaded ...
2015-08-25 03:26:08 6800 unloaded ...
2015-08-25 03:26:31 6900 unloaded ...
2015-08-25 03:26:44 7000 unloaded ...
2015-08-25 03:26:58 7100 unloaded ...
2015-08-25 03:27:12 7200 unloaded ...
2015-08-25 03:27:41 7300 unloaded ...
2015-08-25 03:28:12 7400 unloaded ...
2015-08-25 03:28:35 7500 unloaded ...
2015-08-25 03:28:59 7600 unloaded ...
2015-08-25 03:29:27 7700 unloaded ...
2015-08-25 03:29:51 7800 unloaded ...
2015-08-25 03:30:20 7900 unloaded ...
2015-08-25 03:30:44 8000 unloaded ...
2015-08-25 03:31:06 8100 unloaded ...
2015-08-25 03:31:32 8200 unloaded ...
2015-08-25 03:32:01 8300 unloaded ...
2015-08-25 03:32:24 8400 unloaded ...
2015-08-25 03:32:48 8500 unloaded ...
2015-08-25 03:33:16 8600 unloaded ...
2015-08-25 03:33:42 8700 unloaded ...
2015-08-25 03:34:11 8800 unloaded ...
2015-08-25 03:34:36 8900 unloaded ...
2015-08-25 03:34:58 9000 unloaded ...
2015-08-25 03:35:24 9100 unloaded ...
2015-08-25 03:35:45 9200 unloaded ...
2015-08-25 03:36:07 9300 unloaded ...
2015-08-25 03:36:35 9400 unloaded ...
2015-08-25 03:36:59 9500 unloaded ...
2015-08-25 03:37:25 9600 unloaded ...
2015-08-25 03:37:50 9700 unloaded ...
2015-08-25 03:38:12 9800 unloaded ...
2015-08-25 03:38:34 9900 unloaded ...
2015-08-25 03:38:52 10000 unloaded ...
2015-08-25 03:39:11 10100 unloaded ...
2015-08-25 03:39:32 10200 unloaded ...
2015-08-25 03:39:49 10300 unloaded ...
2015-08-25 03:40:09 10400 unloaded ...
2015-08-25 03:40:32 10500 unloaded ...
2015-08-25 03:40:53 10600 unloaded ...
2015-08-25 03:41:14 10700 unloaded ...
2015-08-25 03:41:35 10800 unloaded ...
2015-08-25 03:41:53 10900 unloaded ...
2015-08-25 03:42:14 11000 unloaded ...
2015-08-25 03:42:36 11100 unloaded ...
2015-08-25 03:42:58 11200 unloaded ...
2015-08-25 03:43:22 11300 unloaded ...
2015-08-25 03:43:40 11400 unloaded ...
2015-08-25 03:44:06 11500 unloaded ...
2015-08-25 03:44:25 11600 unloaded ...
2015-08-25 03:44:47 11700 unloaded ...
2015-08-25 03:45:09 11800 unloaded ...
2015-08-25 03:45:28 11900 unloaded ...
2015-08-25 03:45:47 12000 unloaded ...
2015-08-25 03:46:12 12100 unloaded ...
2015-08-25 03:46:33 12200 unloaded ...
2015-08-25 03:46:58 12300 unloaded ...
2015-08-25 03:47:17 12400 unloaded ...
2015-08-25 03:47:37 12500 unloaded ...
2015-08-25 03:47:57 12600 unloaded ...
2015-08-25 03:48:16 12700 unloaded ...
2015-08-25 03:48:40 12800 unloaded ...
2015-08-25 03:48:59 12900 unloaded ...
2015-08-25 03:49:22 13000 unloaded ...
2015-08-25 03:49:46 13100 unloaded ...
2015-08-25 03:50:08 13200 unloaded ...
2015-08-25 03:50:35 13300 unloaded ...
2015-08-25 03:50:57 13400 unloaded ...
2015-08-25 03:51:21 13500 unloaded ...
2015-08-25 03:51:43 13600 unloaded ...
2015-08-25 03:52:03 13700 unloaded ...
2015-08-25 03:52:26 13800 unloaded ...
2015-08-25 03:52:47 13900 unloaded ...
2015-08-25 03:53:07 14000 unloaded ...
2015-08-25 03:53:25 14100 unloaded ...
2015-08-25 03:53:42 14200 unloaded ...
2015-08-25 03:53:59 14300 unloaded ...
2015-08-25 03:54:22 14400 unloaded ...
2015-08-25 03:54:44 14500 unloaded ...
2015-08-25 03:55:04 14600 unloaded ...
2015-08-25 03:55:24 14700 unloaded ...
2015-08-25 03:55:43 14800 unloaded ...
2015-08-25 03:56:04 14900 unloaded ...
2015-08-25 03:56:20 15000 unloaded ...
2015-08-25 03:56:40 15100 unloaded ...
2015-08-25 03:56:58 15200 unloaded ...
2015-08-25 03:57:18 15300 unloaded ...
2015-08-25 03:57:37 15400 unloaded ...
2015-08-25 03:57:56 15500 unloaded ...
2015-08-25 03:58:18 15600 unloaded ...
2015-08-25 03:58:41 15700 unloaded ...
2015-08-25 03:59:00 15800 unloaded ...
2015-08-25 03:59:18 15900 unloaded ...
2015-08-25 03:59:36 16000 unloaded ...
2015-08-25 03:59:55 16100 unloaded ...
2015-08-25 04:00:18 16200 unloaded ...
2015-08-25 04:00:36 16300 unloaded ...
2015-08-25 04:00:51 16400 unloaded ...
2015-08-25 04:01:09 16500 unloaded ...
2015-08-25 04:01:23 16600 unloaded ...
2015-08-25 04:01:39 16700 unloaded ...
2015-08-25 04:01:58 16800 unloaded ...
2015-08-25 04:02:13 16900 unloaded ...
2015-08-25 04:02:28 17000 unloaded ...
2015-08-25 04:02:44 17100 unloaded ...
2015-08-25 04:03:03 17200 unloaded ...
2015-08-25 04:03:23 17300 unloaded ...
2015-08-25 04:03:41 17400 unloaded ...
2015-08-25 04:04:00 17500 unloaded ...
2015-08-25 04:04:17 17600 unloaded ...
2015-08-25 04:04:35 17700 unloaded ...
2015-08-25 04:04:53 17800 unloaded ...
2015-08-25 04:05:09 17900 unloaded ...
2015-08-25 04:05:26 18000 unloaded ...
2015-08-25 04:05:42 18100 unloaded ...
2015-08-25 04:05:59 18200 unloaded ...
2015-08-25 04:06:14 18300 unloaded ...
2015-08-25 04:06:30 18400 unloaded ...
2015-08-25 04:06:51 18500 unloaded ...
2015-08-25 04:07:12 18600 unloaded ...
2015-08-25 04:07:28 18700 unloaded ...
2015-08-25 04:07:44 18800 unloaded ...
2015-08-25 04:07:59 18900 unloaded ...
2015-08-25 04:08:14 19000 unloaded ...
2015-08-25 04:08:32 19100 unloaded ...
2015-08-25 04:08:51 19200 unloaded ...
2015-08-25 04:09:06 19300 unloaded ...
2015-08-25 04:09:23 19400 unloaded ...
2015-08-25 04:09:46 19500 unloaded ...
2015-08-25 04:10:00 19600 unloaded ...
2015-08-25 04:10:15 19700 unloaded ...
2015-08-25 04:10:30 19800 unloaded ...
2015-08-25 04:10:44 19900 unloaded ...
2015-08-25 04:11:01 20000 unloaded ...
2015-08-25 04:11:19 20100 unloaded ...
2015-08-25 04:11:33 20200 unloaded ...
2015-08-25 04:11:47 20300 unloaded ...
2015-08-25 04:12:03 20400 unloaded ...
2015-08-25 04:12:19 20500 unloaded ...
2015-08-25 04:12:34 20600 unloaded ...
2015-08-25 04:12:52 20700 unloaded ...
2015-08-25 04:13:06 20800 unloaded ...
2015-08-25 04:13:20 20900 unloaded ...
2015-08-25 04:13:36 21000 unloaded ...
2015-08-25 04:13:52 21100 unloaded ...
2015-08-25 04:14:05 21200 unloaded ...
2015-08-25 04:14:18 21300 unloaded ...
2015-08-25 04:14:33 21400 unloaded ...
2015-08-25 04:14:47 21500 unloaded ...
2015-08-25 04:15:02 21600 unloaded ...
2015-08-25 04:15:17 21700 unloaded ...
2015-08-25 04:15:30 21800 unloaded ...
2015-08-25 04:15:42 21900 unloaded ...
2015-08-25 04:15:50 22000 unloaded ...
2015-08-25 04:15:59 22100 unloaded ...
2015-08-25 04:16:07 22200 unloaded ...
2015-08-25 04:16:16 22300 unloaded ...
2015-08-25 04:16:24 22400 unloaded ...
2015-08-25 04:16:33 22500 unloaded ...
2015-08-25 04:16:41 22600 unloaded ...
2015-08-25 04:16:49 22700 unloaded ...
2015-08-25 04:16:57 22800 unloaded ...
2015-08-25 04:17:06 22900 unloaded ...
2015-08-25 04:17:14 23000 unloaded ...
2015-08-25 04:17:22 23100 unloaded ...
2015-08-25 04:17:31 23200 unloaded ...
2015-08-25 04:17:39 23300 unloaded ...
2015-08-25 04:17:47 23400 unloaded ...
2015-08-25 04:17:57 23500 unloaded ...
2015-08-25 04:18:11 23600 unloaded ...
2015-08-25 04:18:24 23700 unloaded ...
2015-08-25 04:18:38 23800 unloaded ...
2015-08-25 04:18:50 23900 unloaded ...
2015-08-25 04:19:04 24000 unloaded ...
2015-08-25 04:19:15 24100 unloaded ...
2015-08-25 04:19:30 24200 unloaded ...
2015-08-25 04:19:45 24300 unloaded ...
2015-08-25 04:19:57 24400 unloaded ...
2015-08-25 04:20:12 24500 unloaded ...
2015-08-25 04:20:26 24600 unloaded ...
2015-08-25 04:20:37 24700 unloaded ...
2015-08-25 04:20:48 24800 unloaded ...
2015-08-25 04:21:01 24900 unloaded ...
2015-08-25 04:21:12 25000 unloaded ...
2015-08-25 04:21:24 25100 unloaded ...
2015-08-25 04:21:36 25200 unloaded ...
2015-08-25 04:21:48 25300 unloaded ...
2015-08-25 04:21:59 25400 unloaded ...
2015-08-25 04:22:12 25500 unloaded ...
2015-08-25 04:22:24 25600 unloaded ...
2015-08-25 04:22:35 25700 unloaded ...
2015-08-25 04:22:45 25800 unloaded ...
2015-08-25 04:22:55 25900 unloaded ...
2015-08-25 04:23:03 26000 unloaded ...
Export completed 

D:\Program Files\Lvis_NPL\NplLvisUtility>if ERRORLEVEL 1 GOTO ERROR 

D:\Program Files\Lvis_NPL\NplLvisUtility>if ERRORLEVEL 2 GOTO ERROR 

D:\Program Files\Lvis_NPL\NplLvisUtility>if ERRORLEVEL 3 GOTO ERROR 
"Export all NPL lexicons ..."

D:\Program Files\Lvis_NPL\NplLvisUtility>"D:\Program files\lvis_NPL\NplLvisUtility"\NpLvisConsole.exe LexExport -p "E:\Data\lvis_NPL\NplPublicering\Data"  -d 2001-10-20 
Info: Outputfile directory:  E:\Data\lvis_NPL\NplPublicering\Data

Info: Changed products after =  2001-10-20

Processing LEXEXPORT
Export all lexicons in Xml format
2015-08-25 04:23:08 Retrieving lexicon list

2015-08-25 04:23:09 Retriving Xml for 59 Lexicons 

Output file E:\Data\lvis_NPL\NplPublicering\Data\apo-pack-flag-type-lx.xsd
... 
Output file E:\Data\lvis_NPL\NplPublicering\Data\apo-pack-id-type-lx.xsd
... 
Output file E:\Data\lvis_NPL\NplPublicering\Data\apo-prod-id-type-lx.xsd
... 
Output file E:\Data\lvis_NPL\NplPublicering\Data\atc-code-lx.xml
... 
Output file E:\Data\lvis_NPL\NplPublicering\Data\comp-ref-quantity-lx.xsd
... 
Output file E:\Data\lvis_NPL\NplPublicering\Data\control-class-lx.xsd
... 
Output file E:\Data\lvis_NPL\NplPublicering\Data\country-lx.xsd
... 
Output file E:\Data\lvis_NPL\NplPublicering\Data\data-status-lx.xsd
... 
Output file E:\Data\lvis_NPL\NplPublicering\Data\drug-classification-lx.xsd
... 
Output file E:\Data\lvis_NPL\NplPublicering\Data\ind-date-type-lx.xsd
... 
Output file E:\Data\lvis_NPL\NplPublicering\Data\ind-name-type-lx.xsd
... 
Output file E:\Data\lvis_NPL\NplPublicering\Data\ind-pack-flag-type-lx.xsd
... 
Output file E:\Data\lvis_NPL\NplPublicering\Data\ind-pack-id-type-lx.xsd
... 
Output file E:\Data\lvis_NPL\NplPublicering\Data\ind-price-type-lx.xsd
... 
Output file E:\Data\lvis_NPL\NplPublicering\Data\ind-prod-flag-type-lx.xsd
... 
Output file E:\Data\lvis_NPL\NplPublicering\Data\ingredient-numeric-unit-lx.xsd
... 
Output file E:\Data\lvis_NPL\NplPublicering\Data\ingredient-role-lx.xsd
... 
Output file E:\Data\lvis_NPL\NplPublicering\Data\Lexicon.xsd
... 
Output file E:\Data\lvis_NPL\NplPublicering\Data\lfn-price-type-lx.xsd
... 
Output file E:\Data\lvis_NPL\NplPublicering\Data\lfn-prod-flag-type-lx.xsd
... 
Output file E:\Data\lvis_NPL\NplPublicering\Data\medprod-pack-derived-lx.xsd
... 
Output file E:\Data\lvis_NPL\NplPublicering\Data\mpa-date-type-lx.xsd
... 
Output file E:\Data\lvis_NPL\NplPublicering\Data\mpa-id-type-lx.xsd
... 
Output file E:\Data\lvis_NPL\NplPublicering\Data\mpa-pack-flag-type-lx.xsd
... 
Output file E:\Data\lvis_NPL\NplPublicering\Data\mpa-pack-id-type-lx.xsd
... 
Output file E:\Data\lvis_NPL\NplPublicering\Data\mpa-prod-derived-flag-type-lx.xsd
... 
Output file E:\Data\lvis_NPL\NplPublicering\Data\mpa-prod-flag-type-lx.xsd
... 
Output file E:\Data\lvis_NPL\NplPublicering\Data\mrl-tissue-lx.xsd
... 
Output file E:\Data\lvis_NPL\NplPublicering\Data\mrl-unit-lx.xsd
... 
Output file E:\Data\lvis_NPL\NplPublicering\Data\narcclass-lx.xsd
... 
Output file E:\Data\lvis_NPL\NplPublicering\Data\npl-price-type-lx.xsd
... 
Output file E:\Data\lvis_NPL\NplPublicering\Data\organization.xml
... 
Output file E:\Data\lvis_NPL\NplPublicering\Data\organization-role-lx.xsd
... 
Output file E:\Data\lvis_NPL\NplPublicering\Data\package-condition-lx.xsd
... 
Output file E:\Data\lvis_NPL\NplPublicering\Data\packmtrldet-lx.xsd
... 
Output file E:\Data\lvis_NPL\NplPublicering\Data\packmtrlout-lx.xsd
... 
Output file E:\Data\lvis_NPL\NplPublicering\Data\packtypedet-lx.xsd
... 
Output file E:\Data\lvis_NPL\NplPublicering\Data\packtypeout-lx.xsd
... 
Output file E:\Data\lvis_NPL\NplPublicering\Data\pharmaceutical-form-group-lx.xsd
... 
Output file E:\Data\lvis_NPL\NplPublicering\Data\pharmaceutical-form-lx.xsd
... 
Output file E:\Data\lvis_NPL\NplPublicering\Data\presccode-lx.xsd
... 
Output file E:\Data\lvis_NPL\NplPublicering\Data\prescright-lx.xsd
... 
Output file E:\Data\lvis_NPL\NplPublicering\Data\primpac-unit-lx.xsd
... 
Output file E:\Data\lvis_NPL\NplPublicering\Data\proc-not-lx.xsd
... 
Output file E:\Data\lvis_NPL\NplPublicering\Data\proc-status-lx.xsd
... 
Output file E:\Data\lvis_NPL\NplPublicering\Data\prodclass-lx.xsd
... 
Output file E:\Data\lvis_NPL\NplPublicering\Data\quantity-unit-alt-lx.xsd
... 
Output file E:\Data\lvis_NPL\NplPublicering\Data\quantity-unit-lx.xsd
... 
Output file E:\Data\lvis_NPL\NplPublicering\Data\reimbursement-lx.xsd
... 
Output file E:\Data\lvis_NPL\NplPublicering\Data\route-of-administration-lx.xsd
... 
Output file E:\Data\lvis_NPL\NplPublicering\Data\sales-restriction-lx.xsd
... 
Output file E:\Data\lvis_NPL\NplPublicering\Data\shelf-life-unit-lx.xsd
... 
Output file E:\Data\lvis_NPL\NplPublicering\Data\species-of-animal-lx.xsd
... 
Output file E:\Data\lvis_NPL\NplPublicering\Data\storagecond-lx.xsd
... 
Output file E:\Data\lvis_NPL\NplPublicering\Data\storage-temp-lx.xsd
... 
Output file E:\Data\lvis_NPL\NplPublicering\Data\substance.xml
... 
Output file E:\Data\lvis_NPL\NplPublicering\Data\trafficwarning-lx.xsd
... 
Output file E:\Data\lvis_NPL\NplPublicering\Data\withdrawal-tissue-lx.xsd
... 
Output file E:\Data\lvis_NPL\NplPublicering\Data\yesno-lx.xsd
... 
Lexicon export completed

D:\Program Files\Lvis_NPL\NplLvisUtility>if ERRORLEVEL 1 GOTO ERROR 

D:\Program Files\Lvis_NPL\NplLvisUtility>if ERRORLEVEL 2 GOTO ERROR 

D:\Program Files\Lvis_NPL\NplLvisUtility>if ERRORLEVEL 3 GOTO ERROR 
"Create archive containing all files ..."

D:\Program Files\Lvis_NPL\NplLvisUtility>E:

E:\>cd "E:\Data\lvis_NPL\NplPublicering\Data" 
"Archive"

E:\Data\Lvis_NPL\NplPublicering\Data>"D:\Program files\lvis_NPL\NplLvisUtility"\tar -c *   1>"E:\data\lvis_NPL\NplPublicering"\npl.tar 

E:\Data\Lvis_NPL\NplPublicering\Data>if ERRORLEVEL 1 GOTO ERROR 

E:\Data\Lvis_NPL\NplPublicering\Data>if ERRORLEVEL 2 GOTO ERROR 

E:\Data\Lvis_NPL\NplPublicering\Data>if ERRORLEVEL 3 GOTO ERROR 
"Compress archive ..."

E:\Data\Lvis_NPL\NplPublicering\Data>"D:\Program files\lvis_NPL\NplLvisUtility"\gzip "E:\data\lvis_NPL\NplPublicering"\npl.tar  

E:\Data\Lvis_NPL\NplPublicering\Data>if ERRORLEVEL 1 GOTO ERROR 

E:\Data\Lvis_NPL\NplPublicering\Data>if ERRORLEVEL 2 GOTO ERROR 

E:\Data\Lvis_NPL\NplPublicering\Data>if ERRORLEVEL 3 GOTO ERROR 

E:\Data\Lvis_NPL\NplPublicering\Data>rename "E:\data\lvis_NPL\NplPublicering"\npl.tar.gz npl.tgz 

E:\Data\Lvis_NPL\NplPublicering\Data>if ERRORLEVEL 1 GOTO ERROR 

E:\Data\Lvis_NPL\NplPublicering\Data>if ERRORLEVEL 2 GOTO ERROR 

E:\Data\Lvis_NPL\NplPublicering\Data>if ERRORLEVEL 3 GOTO ERROR 

E:\Data\Lvis_NPL\NplPublicering\Data>GOTO END 
Export ready without error: 0
