
D:\Program Files\Lvis_NPL\NplLvisUtility>set WORKDIR="D:\Program files\lvis_NPL\NplLvisUtility" 

D:\Program Files\Lvis_NPL\NplLvisUtility>set DATADIR="E:\Data\lvis_NPL\NplPublicering\Data" 

D:\Program Files\Lvis_NPL\NplLvisUtility>set EXPDIR="E:\data\lvis_NPL\NplPublicering" 

D:\Program Files\Lvis_NPL\NplLvisUtility>set PRODEXPDATE=2001-01-01 

D:\Program Files\Lvis_NPL\NplLvisUtility>set LEXEXPDATE=2001-10-20 

D:\Program Files\Lvis_NPL\NplLvisUtility>set TIMESTAMP=2013-07-02 3:00:00,34 
Start export  2013-07-02 3:00:00,34
"Remove old zip- and tar-filer" 

D:\Program Files\Lvis_NPL\NplLvisUtility>DEL  "E:\data\lvis_NPL\NplPublicering"\*.tgz  2>nul 

D:\Program Files\Lvis_NPL\NplLvisUtility>DEL  "E:\data\lvis_NPL\NplPublicering"\*.gz   2>nul 

D:\Program Files\Lvis_NPL\NplLvisUtility>DEL  "E:\data\lvis_NPL\NplPublicering"\*.tar  2>nul 
" "
"Export NPL products ..." 

D:\Program Files\Lvis_NPL\NplLvisUtility>"D:\Program files\lvis_NPL\NplLvisUtility"\NpLvisConsole.exe Export -f noaudit -p "E:\Data\lvis_NPL\NplPublicering\Data" -d 2001-01-01 
Info :Filter is set to noaudit

Info: Outputfile directory:  E:\Data\lvis_NPL\NplPublicering\Data

Info: Changed products after =  2001-01-01

Processing EXPORT
Export products in Xml format
Output file E:\Data\lvis_NPL\NplPublicering\Data\NplProducts.xml
2013-07-02 03:00:00 Retrieving product list

2013-07-02 03:00:14 Retriving Xml for 21834 products 

2013-07-02 03:00:31 100 unloaded ...
2013-07-02 03:00:53 200 unloaded ...
2013-07-02 03:01:11 300 unloaded ...
2013-07-02 03:01:27 400 unloaded ...
2013-07-02 03:01:42 500 unloaded ...
2013-07-02 03:01:57 600 unloaded ...
2013-07-02 03:02:12 700 unloaded ...
2013-07-02 03:02:27 800 unloaded ...
2013-07-02 03:02:44 900 unloaded ...
2013-07-02 03:02:59 1000 unloaded ...
2013-07-02 03:03:15 1100 unloaded ...
2013-07-02 03:03:32 1200 unloaded ...
2013-07-02 03:03:49 1300 unloaded ...
2013-07-02 03:04:07 1400 unloaded ...
2013-07-02 03:04:28 1500 unloaded ...
2013-07-02 03:04:43 1600 unloaded ...
2013-07-02 03:04:58 1700 unloaded ...
2013-07-02 03:05:11 1800 unloaded ...
2013-07-02 03:05:26 1900 unloaded ...
2013-07-02 03:05:44 2000 unloaded ...
2013-07-02 03:05:59 2100 unloaded ...
2013-07-02 03:06:15 2200 unloaded ...
2013-07-02 03:06:30 2300 unloaded ...
2013-07-02 03:06:46 2400 unloaded ...
2013-07-02 03:07:03 2500 unloaded ...
2013-07-02 03:07:19 2600 unloaded ...
2013-07-02 03:07:36 2700 unloaded ...
2013-07-02 03:07:53 2800 unloaded ...
2013-07-02 03:08:08 2900 unloaded ...
2013-07-02 03:08:23 3000 unloaded ...
2013-07-02 03:08:44 3100 unloaded ...
2013-07-02 03:09:02 3200 unloaded ...
2013-07-02 03:09:23 3300 unloaded ...
2013-07-02 03:09:42 3400 unloaded ...
2013-07-02 03:09:58 3500 unloaded ...
2013-07-02 03:10:17 3600 unloaded ...
2013-07-02 03:10:34 3700 unloaded ...
2013-07-02 03:10:49 3800 unloaded ...
2013-07-02 03:11:05 3900 unloaded ...
2013-07-02 03:11:20 4000 unloaded ...
2013-07-02 03:11:40 4100 unloaded ...
2013-07-02 03:11:57 4200 unloaded ...
2013-07-02 03:12:14 4300 unloaded ...
2013-07-02 03:12:30 4400 unloaded ...
2013-07-02 03:12:49 4500 unloaded ...
2013-07-02 03:13:06 4600 unloaded ...
2013-07-02 03:13:27 4700 unloaded ...
2013-07-02 03:13:49 4800 unloaded ...
2013-07-02 03:14:08 4900 unloaded ...
2013-07-02 03:14:26 5000 unloaded ...
2013-07-02 03:14:45 5100 unloaded ...
2013-07-02 03:15:02 5200 unloaded ...
2013-07-02 03:15:19 5300 unloaded ...
2013-07-02 03:15:40 5400 unloaded ...
2013-07-02 03:15:56 5500 unloaded ...
2013-07-02 03:16:16 5600 unloaded ...
2013-07-02 03:16:34 5700 unloaded ...
2013-07-02 03:16:49 5800 unloaded ...
2013-07-02 03:17:10 5900 unloaded ...
2013-07-02 03:17:28 6000 unloaded ...
2013-07-02 03:17:43 6100 unloaded ...
2013-07-02 03:17:58 6200 unloaded ...
2013-07-02 03:18:14 6300 unloaded ...
2013-07-02 03:18:34 6400 unloaded ...
2013-07-02 03:18:55 6500 unloaded ...
2013-07-02 03:19:17 6600 unloaded ...
2013-07-02 03:19:37 6700 unloaded ...
2013-07-02 03:19:53 6800 unloaded ...
2013-07-02 03:20:11 6900 unloaded ...
2013-07-02 03:20:22 7000 unloaded ...
2013-07-02 03:20:35 7100 unloaded ...
2013-07-02 03:20:47 7200 unloaded ...
2013-07-02 03:21:10 7300 unloaded ...
2013-07-02 03:21:33 7400 unloaded ...
2013-07-02 03:21:52 7500 unloaded ...
2013-07-02 03:22:12 7600 unloaded ...
2013-07-02 03:22:34 7700 unloaded ...
2013-07-02 03:22:52 7800 unloaded ...
2013-07-02 03:23:15 7900 unloaded ...
2013-07-02 03:23:34 8000 unloaded ...
2013-07-02 03:23:53 8100 unloaded ...
2013-07-02 03:24:13 8200 unloaded ...
2013-07-02 03:24:33 8300 unloaded ...
2013-07-02 03:24:52 8400 unloaded ...
2013-07-02 03:25:13 8500 unloaded ...
2013-07-02 03:25:33 8600 unloaded ...
2013-07-02 03:25:51 8700 unloaded ...
2013-07-02 03:26:14 8800 unloaded ...
2013-07-02 03:26:33 8900 unloaded ...
2013-07-02 03:26:54 9000 unloaded ...
2013-07-02 03:27:11 9100 unloaded ...
2013-07-02 03:27:27 9200 unloaded ...
2013-07-02 03:27:43 9300 unloaded ...
2013-07-02 03:28:04 9400 unloaded ...
2013-07-02 03:28:24 9500 unloaded ...
2013-07-02 03:28:42 9600 unloaded ...
2013-07-02 03:29:01 9700 unloaded ...
2013-07-02 03:29:19 9800 unloaded ...
2013-07-02 03:29:37 9900 unloaded ...
2013-07-02 03:29:50 10000 unloaded ...
2013-07-02 03:30:06 10100 unloaded ...
2013-07-02 03:30:22 10200 unloaded ...
2013-07-02 03:30:37 10300 unloaded ...
2013-07-02 03:30:52 10400 unloaded ...
2013-07-02 03:31:08 10500 unloaded ...
2013-07-02 03:31:24 10600 unloaded ...
2013-07-02 03:31:41 10700 unloaded ...
2013-07-02 03:31:58 10800 unloaded ...
2013-07-02 03:32:12 10900 unloaded ...
2013-07-02 03:32:27 11000 unloaded ...
2013-07-02 03:32:44 11100 unloaded ...
2013-07-02 03:33:01 11200 unloaded ...
2013-07-02 03:33:19 11300 unloaded ...
2013-07-02 03:33:33 11400 unloaded ...
2013-07-02 03:33:51 11500 unloaded ...
2013-07-02 03:34:05 11600 unloaded ...
2013-07-02 03:34:21 11700 unloaded ...
2013-07-02 03:34:36 11800 unloaded ...
2013-07-02 03:34:50 11900 unloaded ...
2013-07-02 03:35:06 12000 unloaded ...
2013-07-02 03:35:22 12100 unloaded ...
2013-07-02 03:35:39 12200 unloaded ...
2013-07-02 03:35:56 12300 unloaded ...
2013-07-02 03:36:10 12400 unloaded ...
2013-07-02 03:36:26 12500 unloaded ...
2013-07-02 03:36:41 12600 unloaded ...
2013-07-02 03:36:56 12700 unloaded ...
2013-07-02 03:37:13 12800 unloaded ...
2013-07-02 03:37:28 12900 unloaded ...
2013-07-02 03:37:44 13000 unloaded ...
2013-07-02 03:37:59 13100 unloaded ...
2013-07-02 03:38:14 13200 unloaded ...
2013-07-02 03:38:33 13300 unloaded ...
2013-07-02 03:38:51 13400 unloaded ...
2013-07-02 03:39:07 13500 unloaded ...
2013-07-02 03:39:22 13600 unloaded ...
2013-07-02 03:39:36 13700 unloaded ...
2013-07-02 03:39:52 13800 unloaded ...
2013-07-02 03:40:08 13900 unloaded ...
2013-07-02 03:40:25 14000 unloaded ...
2013-07-02 03:40:38 14100 unloaded ...
2013-07-02 03:40:51 14200 unloaded ...
2013-07-02 03:41:05 14300 unloaded ...
2013-07-02 03:41:21 14400 unloaded ...
2013-07-02 03:41:38 14500 unloaded ...
2013-07-02 03:41:51 14600 unloaded ...
2013-07-02 03:42:07 14700 unloaded ...
2013-07-02 03:42:21 14800 unloaded ...
2013-07-02 03:42:36 14900 unloaded ...
2013-07-02 03:42:49 15000 unloaded ...
2013-07-02 03:43:02 15100 unloaded ...
2013-07-02 03:43:16 15200 unloaded ...
2013-07-02 03:43:30 15300 unloaded ...
2013-07-02 03:43:42 15400 unloaded ...
2013-07-02 03:43:56 15500 unloaded ...
2013-07-02 03:44:13 15600 unloaded ...
2013-07-02 03:44:29 15700 unloaded ...
2013-07-02 03:44:45 15800 unloaded ...
2013-07-02 03:44:58 15900 unloaded ...
2013-07-02 03:45:10 16000 unloaded ...
2013-07-02 03:45:24 16100 unloaded ...
2013-07-02 03:45:37 16200 unloaded ...
2013-07-02 03:45:57 16300 unloaded ...
2013-07-02 03:46:08 16400 unloaded ...
2013-07-02 03:46:20 16500 unloaded ...
2013-07-02 03:46:32 16600 unloaded ...
2013-07-02 03:46:45 16700 unloaded ...
2013-07-02 03:46:58 16800 unloaded ...
2013-07-02 03:47:08 16900 unloaded ...
2013-07-02 03:47:19 17000 unloaded ...
2013-07-02 03:47:31 17100 unloaded ...
2013-07-02 03:47:45 17200 unloaded ...
2013-07-02 03:47:59 17300 unloaded ...
2013-07-02 03:48:11 17400 unloaded ...
2013-07-02 03:48:23 17500 unloaded ...
2013-07-02 03:48:35 17600 unloaded ...
2013-07-02 03:48:47 17700 unloaded ...
2013-07-02 03:49:00 17800 unloaded ...
2013-07-02 03:49:12 17900 unloaded ...
2013-07-02 03:49:22 18000 unloaded ...
2013-07-02 03:49:35 18100 unloaded ...
2013-07-02 03:49:48 18200 unloaded ...
2013-07-02 03:50:00 18300 unloaded ...
2013-07-02 03:50:13 18400 unloaded ...
2013-07-02 03:50:28 18500 unloaded ...
2013-07-02 03:50:40 18600 unloaded ...
2013-07-02 03:50:52 18700 unloaded ...
2013-07-02 03:51:04 18800 unloaded ...
2013-07-02 03:51:14 18900 unloaded ...
2013-07-02 03:51:25 19000 unloaded ...
2013-07-02 03:51:37 19100 unloaded ...
2013-07-02 03:51:49 19200 unloaded ...
2013-07-02 03:52:00 19300 unloaded ...
2013-07-02 03:52:16 19400 unloaded ...
2013-07-02 03:52:26 19500 unloaded ...
2013-07-02 03:52:36 19600 unloaded ...
2013-07-02 03:52:46 19700 unloaded ...
2013-07-02 03:52:58 19800 unloaded ...
2013-07-02 03:53:10 19900 unloaded ...
2013-07-02 03:53:22 20000 unloaded ...
2013-07-02 03:53:32 20100 unloaded ...
2013-07-02 03:53:42 20200 unloaded ...
2013-07-02 03:53:55 20300 unloaded ...
2013-07-02 03:54:05 20400 unloaded ...
2013-07-02 03:54:14 20500 unloaded ...
2013-07-02 03:54:22 20600 unloaded ...
2013-07-02 03:54:29 20700 unloaded ...
2013-07-02 03:54:36 20800 unloaded ...
2013-07-02 03:54:43 20900 unloaded ...
2013-07-02 03:54:51 21000 unloaded ...
2013-07-02 03:54:58 21100 unloaded ...
2013-07-02 03:55:07 21200 unloaded ...
2013-07-02 03:55:15 21300 unloaded ...
2013-07-02 03:55:22 21400 unloaded ...
2013-07-02 03:55:30 21500 unloaded ...
2013-07-02 03:55:37 21600 unloaded ...
2013-07-02 03:55:45 21700 unloaded ...
2013-07-02 03:55:53 21800 unloaded ...
Export completed 

D:\Program Files\Lvis_NPL\NplLvisUtility>if ERRORLEVEL 1 GOTO ERROR 

D:\Program Files\Lvis_NPL\NplLvisUtility>if ERRORLEVEL 2 GOTO ERROR 

D:\Program Files\Lvis_NPL\NplLvisUtility>if ERRORLEVEL 3 GOTO ERROR 
"Export all NPL lexicons ..."

D:\Program Files\Lvis_NPL\NplLvisUtility>"D:\Program files\lvis_NPL\NplLvisUtility"\NpLvisConsole.exe LexExport -p "E:\Data\lvis_NPL\NplPublicering\Data"  -d 2001-10-20 
Info: Outputfile directory:  E:\Data\lvis_NPL\NplPublicering\Data

Info: Changed products after =  2001-10-20

Processing LEXEXPORT
Export all lexicons in Xml format
2013-07-02 03:56:04 Retrieving lexicon list

2013-07-02 03:56:05 Retriving Xml for 59 Lexicons 

Output file E:\Data\lvis_NPL\NplPublicering\Data\apo-pack-flag-type-lx.xsd
... 
Output file E:\Data\lvis_NPL\NplPublicering\Data\apo-pack-id-type-lx.xsd
... 
Output file E:\Data\lvis_NPL\NplPublicering\Data\apo-prod-id-type-lx.xsd
... 
Output file E:\Data\lvis_NPL\NplPublicering\Data\atc-code-lx.xml
... 
Output file E:\Data\lvis_NPL\NplPublicering\Data\comp-ref-quantity-lx.xsd
... 
Output file E:\Data\lvis_NPL\NplPublicering\Data\control-class-lx.xsd
... 
Output file E:\Data\lvis_NPL\NplPublicering\Data\country-lx.xsd
... 
Output file E:\Data\lvis_NPL\NplPublicering\Data\data-status-lx.xsd
... 
Output file E:\Data\lvis_NPL\NplPublicering\Data\drug-classification-lx.xsd
... 
Output file E:\Data\lvis_NPL\NplPublicering\Data\ind-date-type-lx.xsd
... 
Output file E:\Data\lvis_NPL\NplPublicering\Data\ind-name-type-lx.xsd
... 
Output file E:\Data\lvis_NPL\NplPublicering\Data\ind-pack-flag-type-lx.xsd
... 
Output file E:\Data\lvis_NPL\NplPublicering\Data\ind-pack-id-type-lx.xsd
... 
Output file E:\Data\lvis_NPL\NplPublicering\Data\ind-price-type-lx.xsd
... 
Output file E:\Data\lvis_NPL\NplPublicering\Data\ind-prod-flag-type-lx.xsd
... 
Output file E:\Data\lvis_NPL\NplPublicering\Data\ingredient-numeric-unit-lx.xsd
... 
Output file E:\Data\lvis_NPL\NplPublicering\Data\ingredient-role-lx.xsd
... 
Output file E:\Data\lvis_NPL\NplPublicering\Data\Lexicon.xsd
... 
Output file E:\Data\lvis_NPL\NplPublicering\Data\lfn-price-type-lx.xsd
... 
Output file E:\Data\lvis_NPL\NplPublicering\Data\lfn-prod-flag-type-lx.xsd
... 
Output file E:\Data\lvis_NPL\NplPublicering\Data\medprod-pack-derived-lx.xsd
... 
Output file E:\Data\lvis_NPL\NplPublicering\Data\mpa-date-type-lx.xsd
... 
Output file E:\Data\lvis_NPL\NplPublicering\Data\mpa-id-type-lx.xsd
... 
Output file E:\Data\lvis_NPL\NplPublicering\Data\mpa-pack-flag-type-lx.xsd
... 
Output file E:\Data\lvis_NPL\NplPublicering\Data\mpa-pack-id-type-lx.xsd
... 
Output file E:\Data\lvis_NPL\NplPublicering\Data\mpa-prod-derived-flag-type-lx.xsd
... 
Output file E:\Data\lvis_NPL\NplPublicering\Data\mpa-prod-flag-type-lx.xsd
... 
Output file E:\Data\lvis_NPL\NplPublicering\Data\mrl-tissue-lx.xsd
... 
Output file E:\Data\lvis_NPL\NplPublicering\Data\mrl-unit-lx.xsd
... 
Output file E:\Data\lvis_NPL\NplPublicering\Data\narcclass-lx.xsd
... 
Output file E:\Data\lvis_NPL\NplPublicering\Data\npl-price-type-lx.xsd
... 
Output file E:\Data\lvis_NPL\NplPublicering\Data\organization.xml
... 
Output file E:\Data\lvis_NPL\NplPublicering\Data\organization-role-lx.xsd
... 
Output file E:\Data\lvis_NPL\NplPublicering\Data\package-condition-lx.xsd
... 
Output file E:\Data\lvis_NPL\NplPublicering\Data\packmtrldet-lx.xsd
... 
Output file E:\Data\lvis_NPL\NplPublicering\Data\packmtrlout-lx.xsd
... 
Output file E:\Data\lvis_NPL\NplPublicering\Data\packtypedet-lx.xsd
... 
Output file E:\Data\lvis_NPL\NplPublicering\Data\packtypeout-lx.xsd
... 
Output file E:\Data\lvis_NPL\NplPublicering\Data\pharmaceutical-form-group-lx.xsd
... 
Output file E:\Data\lvis_NPL\NplPublicering\Data\pharmaceutical-form-lx.xsd
... 
Output file E:\Data\lvis_NPL\NplPublicering\Data\presccode-lx.xsd
... 
Output file E:\Data\lvis_NPL\NplPublicering\Data\prescright-lx.xsd
... 
Output file E:\Data\lvis_NPL\NplPublicering\Data\primpac-unit-lx.xsd
... 
Output file E:\Data\lvis_NPL\NplPublicering\Data\proc-not-lx.xsd
... 
Output file E:\Data\lvis_NPL\NplPublicering\Data\proc-status-lx.xsd
... 
Output file E:\Data\lvis_NPL\NplPublicering\Data\prodclass-lx.xsd
... 
Output file E:\Data\lvis_NPL\NplPublicering\Data\quantity-unit-alt-lx.xsd
... 
Output file E:\Data\lvis_NPL\NplPublicering\Data\quantity-unit-lx.xsd
... 
Output file E:\Data\lvis_NPL\NplPublicering\Data\reimbursement-lx.xsd
... 
Output file E:\Data\lvis_NPL\NplPublicering\Data\route-of-administration-lx.xsd
... 
Output file E:\Data\lvis_NPL\NplPublicering\Data\sales-restriction-lx.xsd
... 
Output file E:\Data\lvis_NPL\NplPublicering\Data\shelf-life-unit-lx.xsd
... 
Output file E:\Data\lvis_NPL\NplPublicering\Data\species-of-animal-lx.xsd
... 
Output file E:\Data\lvis_NPL\NplPublicering\Data\storagecond-lx.xsd
... 
Output file E:\Data\lvis_NPL\NplPublicering\Data\storage-temp-lx.xsd
... 
Output file E:\Data\lvis_NPL\NplPublicering\Data\substance.xml
... 
Output file E:\Data\lvis_NPL\NplPublicering\Data\trafficwarning-lx.xsd
... 
Output file E:\Data\lvis_NPL\NplPublicering\Data\withdrawal-tissue-lx.xsd
... 
Output file E:\Data\lvis_NPL\NplPublicering\Data\yesno-lx.xsd
... 
Lexicon export completed

D:\Program Files\Lvis_NPL\NplLvisUtility>if ERRORLEVEL 1 GOTO ERROR 

D:\Program Files\Lvis_NPL\NplLvisUtility>if ERRORLEVEL 2 GOTO ERROR 

D:\Program Files\Lvis_NPL\NplLvisUtility>if ERRORLEVEL 3 GOTO ERROR 
"Create archive containing all files ..."

D:\Program Files\Lvis_NPL\NplLvisUtility>E:

E:\>cd "E:\Data\lvis_NPL\NplPublicering\Data" 
"Archive"

E:\Data\Lvis_NPL\NplPublicering\Data>"D:\Program files\lvis_NPL\NplLvisUtility"\tar -c *   1>"E:\data\lvis_NPL\NplPublicering"\npl.tar 

E:\Data\Lvis_NPL\NplPublicering\Data>if ERRORLEVEL 1 GOTO ERROR 

E:\Data\Lvis_NPL\NplPublicering\Data>if ERRORLEVEL 2 GOTO ERROR 

E:\Data\Lvis_NPL\NplPublicering\Data>if ERRORLEVEL 3 GOTO ERROR 
"Compress archive ..."

E:\Data\Lvis_NPL\NplPublicering\Data>"D:\Program files\lvis_NPL\NplLvisUtility"\gzip "E:\data\lvis_NPL\NplPublicering"\npl.tar  

E:\Data\Lvis_NPL\NplPublicering\Data>if ERRORLEVEL 1 GOTO ERROR 

E:\Data\Lvis_NPL\NplPublicering\Data>if ERRORLEVEL 2 GOTO ERROR 

E:\Data\Lvis_NPL\NplPublicering\Data>if ERRORLEVEL 3 GOTO ERROR 

E:\Data\Lvis_NPL\NplPublicering\Data>rename "E:\data\lvis_NPL\NplPublicering"\npl.tar.gz npl.tgz 

E:\Data\Lvis_NPL\NplPublicering\Data>if ERRORLEVEL 1 GOTO ERROR 

E:\Data\Lvis_NPL\NplPublicering\Data>if ERRORLEVEL 2 GOTO ERROR 

E:\Data\Lvis_NPL\NplPublicering\Data>if ERRORLEVEL 3 GOTO ERROR 

E:\Data\Lvis_NPL\NplPublicering\Data>GOTO END 
Export ready without error: 0
