
D:\Program Files\Lvis_NPL\NplLvisUtility>set WORKDIR="D:\Program files\lvis_NPL\NplLvisUtility" 

D:\Program Files\Lvis_NPL\NplLvisUtility>set DATADIR="E:\Data\lvis_NPL\NplPublicering\Data" 

D:\Program Files\Lvis_NPL\NplLvisUtility>set EXPDIR="E:\data\lvis_NPL\NplPublicering" 

D:\Program Files\Lvis_NPL\NplLvisUtility>set PRODEXPDATE=2001-01-01 

D:\Program Files\Lvis_NPL\NplLvisUtility>set LEXEXPDATE=2001-10-20 

D:\Program Files\Lvis_NPL\NplLvisUtility>set TIMESTAMP=2014-02-09 3:00:00,34 
Start export  2014-02-09 3:00:00,34
"Remove old zip- and tar-filer" 

D:\Program Files\Lvis_NPL\NplLvisUtility>DEL  "E:\data\lvis_NPL\NplPublicering"\*.tgz  2>nul 

D:\Program Files\Lvis_NPL\NplLvisUtility>DEL  "E:\data\lvis_NPL\NplPublicering"\*.gz   2>nul 

D:\Program Files\Lvis_NPL\NplLvisUtility>DEL  "E:\data\lvis_NPL\NplPublicering"\*.tar  2>nul 
" "
"Export NPL products ..." 

D:\Program Files\Lvis_NPL\NplLvisUtility>"D:\Program files\lvis_NPL\NplLvisUtility"\NpLvisConsole.exe Export -f noaudit -p "E:\Data\lvis_NPL\NplPublicering\Data" -d 2001-01-01 
Info :Filter is set to noaudit

Info: Outputfile directory:  E:\Data\lvis_NPL\NplPublicering\Data

Info: Changed products after =  2001-01-01

Processing EXPORT
Export products in Xml format
Output file E:\Data\lvis_NPL\NplPublicering\Data\NplProducts.xml
2014-02-09 03:00:01 Retrieving product list

2014-02-09 03:00:12 Retriving Xml for 23245 products 

2014-02-09 03:00:30 100 unloaded ...
2014-02-09 03:00:45 200 unloaded ...
2014-02-09 03:01:00 300 unloaded ...
2014-02-09 03:01:16 400 unloaded ...
2014-02-09 03:01:31 500 unloaded ...
2014-02-09 03:01:47 600 unloaded ...
2014-02-09 03:02:04 700 unloaded ...
2014-02-09 03:02:20 800 unloaded ...
2014-02-09 03:02:38 900 unloaded ...
2014-02-09 03:02:54 1000 unloaded ...
2014-02-09 03:03:12 1100 unloaded ...
2014-02-09 03:03:30 1200 unloaded ...
2014-02-09 03:03:47 1300 unloaded ...
2014-02-09 03:04:06 1400 unloaded ...
2014-02-09 03:04:28 1500 unloaded ...
2014-02-09 03:04:45 1600 unloaded ...
2014-02-09 03:05:03 1700 unloaded ...
2014-02-09 03:05:17 1800 unloaded ...
2014-02-09 03:05:33 1900 unloaded ...
2014-02-09 03:05:51 2000 unloaded ...
2014-02-09 03:06:07 2100 unloaded ...
2014-02-09 03:06:23 2200 unloaded ...
2014-02-09 03:06:38 2300 unloaded ...
2014-02-09 03:06:55 2400 unloaded ...
2014-02-09 03:07:13 2500 unloaded ...
2014-02-09 03:07:29 2600 unloaded ...
2014-02-09 03:07:46 2700 unloaded ...
2014-02-09 03:08:04 2800 unloaded ...
2014-02-09 03:08:20 2900 unloaded ...
2014-02-09 03:08:37 3000 unloaded ...
2014-02-09 03:08:56 3100 unloaded ...
2014-02-09 03:09:15 3200 unloaded ...
2014-02-09 03:09:35 3300 unloaded ...
2014-02-09 03:09:55 3400 unloaded ...
2014-02-09 03:10:13 3500 unloaded ...
2014-02-09 03:10:30 3600 unloaded ...
2014-02-09 03:10:47 3700 unloaded ...
2014-02-09 03:11:03 3800 unloaded ...
2014-02-09 03:11:18 3900 unloaded ...
2014-02-09 03:11:34 4000 unloaded ...
2014-02-09 03:11:54 4100 unloaded ...
2014-02-09 03:12:12 4200 unloaded ...
2014-02-09 03:12:29 4300 unloaded ...
2014-02-09 03:12:47 4400 unloaded ...
2014-02-09 03:13:07 4500 unloaded ...
2014-02-09 03:13:24 4600 unloaded ...
2014-02-09 03:13:45 4700 unloaded ...
2014-02-09 03:14:07 4800 unloaded ...
2014-02-09 03:14:26 4900 unloaded ...
2014-02-09 03:14:43 5000 unloaded ...
2014-02-09 03:15:02 5100 unloaded ...
2014-02-09 03:15:19 5200 unloaded ...
2014-02-09 03:15:36 5300 unloaded ...
2014-02-09 03:15:57 5400 unloaded ...
2014-02-09 03:16:13 5500 unloaded ...
2014-02-09 03:16:32 5600 unloaded ...
2014-02-09 03:16:51 5700 unloaded ...
2014-02-09 03:17:06 5800 unloaded ...
2014-02-09 03:17:26 5900 unloaded ...
2014-02-09 03:17:46 6000 unloaded ...
2014-02-09 03:18:00 6100 unloaded ...
2014-02-09 03:18:16 6200 unloaded ...
2014-02-09 03:18:31 6300 unloaded ...
2014-02-09 03:18:51 6400 unloaded ...
2014-02-09 03:19:12 6500 unloaded ...
2014-02-09 03:19:32 6600 unloaded ...
2014-02-09 03:19:53 6700 unloaded ...
2014-02-09 03:20:11 6800 unloaded ...
2014-02-09 03:20:28 6900 unloaded ...
2014-02-09 03:20:39 7000 unloaded ...
2014-02-09 03:20:52 7100 unloaded ...
2014-02-09 03:21:04 7200 unloaded ...
2014-02-09 03:21:26 7300 unloaded ...
2014-02-09 03:21:49 7400 unloaded ...
2014-02-09 03:22:08 7500 unloaded ...
2014-02-09 03:22:27 7600 unloaded ...
2014-02-09 03:22:50 7700 unloaded ...
2014-02-09 03:23:10 7800 unloaded ...
2014-02-09 03:23:31 7900 unloaded ...
2014-02-09 03:23:50 8000 unloaded ...
2014-02-09 03:24:08 8100 unloaded ...
2014-02-09 03:24:28 8200 unloaded ...
2014-02-09 03:24:49 8300 unloaded ...
2014-02-09 03:25:09 8400 unloaded ...
2014-02-09 03:25:27 8500 unloaded ...
2014-02-09 03:25:49 8600 unloaded ...
2014-02-09 03:26:07 8700 unloaded ...
2014-02-09 03:26:30 8800 unloaded ...
2014-02-09 03:26:48 8900 unloaded ...
2014-02-09 03:27:07 9000 unloaded ...
2014-02-09 03:27:26 9100 unloaded ...
2014-02-09 03:27:42 9200 unloaded ...
2014-02-09 03:27:58 9300 unloaded ...
2014-02-09 03:28:20 9400 unloaded ...
2014-02-09 03:28:40 9500 unloaded ...
2014-02-09 03:28:58 9600 unloaded ...
2014-02-09 03:29:17 9700 unloaded ...
2014-02-09 03:29:34 9800 unloaded ...
2014-02-09 03:29:52 9900 unloaded ...
2014-02-09 03:30:07 10000 unloaded ...
2014-02-09 03:30:21 10100 unloaded ...
2014-02-09 03:30:37 10200 unloaded ...
2014-02-09 03:30:52 10300 unloaded ...
2014-02-09 03:31:07 10400 unloaded ...
2014-02-09 03:31:24 10500 unloaded ...
2014-02-09 03:31:40 10600 unloaded ...
2014-02-09 03:31:57 10700 unloaded ...
2014-02-09 03:32:14 10800 unloaded ...
2014-02-09 03:32:29 10900 unloaded ...
2014-02-09 03:32:46 11000 unloaded ...
2014-02-09 03:33:03 11100 unloaded ...
2014-02-09 03:33:20 11200 unloaded ...
2014-02-09 03:33:39 11300 unloaded ...
2014-02-09 03:33:53 11400 unloaded ...
2014-02-09 03:34:11 11500 unloaded ...
2014-02-09 03:34:26 11600 unloaded ...
2014-02-09 03:34:42 11700 unloaded ...
2014-02-09 03:34:57 11800 unloaded ...
2014-02-09 03:35:11 11900 unloaded ...
2014-02-09 03:35:28 12000 unloaded ...
2014-02-09 03:35:43 12100 unloaded ...
2014-02-09 03:36:00 12200 unloaded ...
2014-02-09 03:36:19 12300 unloaded ...
2014-02-09 03:36:33 12400 unloaded ...
2014-02-09 03:36:48 12500 unloaded ...
2014-02-09 03:37:03 12600 unloaded ...
2014-02-09 03:37:18 12700 unloaded ...
2014-02-09 03:37:35 12800 unloaded ...
2014-02-09 03:37:50 12900 unloaded ...
2014-02-09 03:38:07 13000 unloaded ...
2014-02-09 03:38:24 13100 unloaded ...
2014-02-09 03:38:38 13200 unloaded ...
2014-02-09 03:38:57 13300 unloaded ...
2014-02-09 03:39:12 13400 unloaded ...
2014-02-09 03:39:31 13500 unloaded ...
2014-02-09 03:39:46 13600 unloaded ...
2014-02-09 03:40:01 13700 unloaded ...
2014-02-09 03:40:18 13800 unloaded ...
2014-02-09 03:40:33 13900 unloaded ...
2014-02-09 03:40:48 14000 unloaded ...
2014-02-09 03:41:02 14100 unloaded ...
2014-02-09 03:41:15 14200 unloaded ...
2014-02-09 03:41:29 14300 unloaded ...
2014-02-09 03:41:45 14400 unloaded ...
2014-02-09 03:42:02 14500 unloaded ...
2014-02-09 03:42:17 14600 unloaded ...
2014-02-09 03:42:32 14700 unloaded ...
2014-02-09 03:42:47 14800 unloaded ...
2014-02-09 03:43:03 14900 unloaded ...
2014-02-09 03:43:16 15000 unloaded ...
2014-02-09 03:43:30 15100 unloaded ...
2014-02-09 03:43:43 15200 unloaded ...
2014-02-09 03:43:58 15300 unloaded ...
2014-02-09 03:44:11 15400 unloaded ...
2014-02-09 03:44:25 15500 unloaded ...
2014-02-09 03:44:41 15600 unloaded ...
2014-02-09 03:44:59 15700 unloaded ...
2014-02-09 03:45:15 15800 unloaded ...
2014-02-09 03:45:29 15900 unloaded ...
2014-02-09 03:45:46 16000 unloaded ...
2014-02-09 03:46:02 16100 unloaded ...
2014-02-09 03:46:15 16200 unloaded ...
2014-02-09 03:46:29 16300 unloaded ...
2014-02-09 03:46:40 16400 unloaded ...
2014-02-09 03:46:52 16500 unloaded ...
2014-02-09 03:47:04 16600 unloaded ...
2014-02-09 03:47:17 16700 unloaded ...
2014-02-09 03:47:31 16800 unloaded ...
2014-02-09 03:47:42 16900 unloaded ...
2014-02-09 03:47:53 17000 unloaded ...
2014-02-09 03:48:05 17100 unloaded ...
2014-02-09 03:48:19 17200 unloaded ...
2014-02-09 03:48:33 17300 unloaded ...
2014-02-09 03:48:46 17400 unloaded ...
2014-02-09 03:48:58 17500 unloaded ...
2014-02-09 03:49:11 17600 unloaded ...
2014-02-09 03:49:23 17700 unloaded ...
2014-02-09 03:49:36 17800 unloaded ...
2014-02-09 03:49:48 17900 unloaded ...
2014-02-09 03:50:00 18000 unloaded ...
2014-02-09 03:50:13 18100 unloaded ...
2014-02-09 03:50:27 18200 unloaded ...
2014-02-09 03:50:39 18300 unloaded ...
2014-02-09 03:50:50 18400 unloaded ...
2014-02-09 03:51:06 18500 unloaded ...
2014-02-09 03:51:20 18600 unloaded ...
2014-02-09 03:51:33 18700 unloaded ...
2014-02-09 03:51:44 18800 unloaded ...
2014-02-09 03:51:54 18900 unloaded ...
2014-02-09 03:52:07 19000 unloaded ...
2014-02-09 03:52:18 19100 unloaded ...
2014-02-09 03:52:31 19200 unloaded ...
2014-02-09 03:52:43 19300 unloaded ...
2014-02-09 03:52:55 19400 unloaded ...
2014-02-09 03:53:11 19500 unloaded ...
2014-02-09 03:53:22 19600 unloaded ...
2014-02-09 03:53:31 19700 unloaded ...
2014-02-09 03:53:42 19800 unloaded ...
2014-02-09 03:53:55 19900 unloaded ...
2014-02-09 03:54:06 20000 unloaded ...
2014-02-09 03:54:18 20100 unloaded ...
2014-02-09 03:54:28 20200 unloaded ...
2014-02-09 03:54:38 20300 unloaded ...
2014-02-09 03:54:50 20400 unloaded ...
2014-02-09 03:55:00 20500 unloaded ...
2014-02-09 03:55:14 20600 unloaded ...
2014-02-09 03:55:24 20700 unloaded ...
2014-02-09 03:55:33 20800 unloaded ...
2014-02-09 03:55:44 20900 unloaded ...
2014-02-09 03:55:54 21000 unloaded ...
2014-02-09 03:56:03 21100 unloaded ...
2014-02-09 03:56:13 21200 unloaded ...
2014-02-09 03:56:22 21300 unloaded ...
2014-02-09 03:56:30 21400 unloaded ...
2014-02-09 03:56:39 21500 unloaded ...
2014-02-09 03:56:46 21600 unloaded ...
2014-02-09 03:56:53 21700 unloaded ...
2014-02-09 03:57:00 21800 unloaded ...
2014-02-09 03:57:08 21900 unloaded ...
2014-02-09 03:57:16 22000 unloaded ...
2014-02-09 03:57:23 22100 unloaded ...
2014-02-09 03:57:31 22200 unloaded ...
2014-02-09 03:57:38 22300 unloaded ...
2014-02-09 03:57:45 22400 unloaded ...
2014-02-09 03:57:52 22500 unloaded ...
2014-02-09 03:58:00 22600 unloaded ...
2014-02-09 03:58:08 22700 unloaded ...
2014-02-09 03:58:15 22800 unloaded ...
2014-02-09 03:58:22 22900 unloaded ...
2014-02-09 03:58:30 23000 unloaded ...
2014-02-09 03:58:38 23100 unloaded ...
2014-02-09 03:58:45 23200 unloaded ...
Export completed 

D:\Program Files\Lvis_NPL\NplLvisUtility>if ERRORLEVEL 1 GOTO ERROR 

D:\Program Files\Lvis_NPL\NplLvisUtility>if ERRORLEVEL 2 GOTO ERROR 

D:\Program Files\Lvis_NPL\NplLvisUtility>if ERRORLEVEL 3 GOTO ERROR 
"Export all NPL lexicons ..."

D:\Program Files\Lvis_NPL\NplLvisUtility>"D:\Program files\lvis_NPL\NplLvisUtility"\NpLvisConsole.exe LexExport -p "E:\Data\lvis_NPL\NplPublicering\Data"  -d 2001-10-20 
Info: Outputfile directory:  E:\Data\lvis_NPL\NplPublicering\Data

Info: Changed products after =  2001-10-20

Processing LEXEXPORT
Export all lexicons in Xml format
2014-02-09 03:58:54 Retrieving lexicon list

2014-02-09 03:58:55 Retriving Xml for 59 Lexicons 

Output file E:\Data\lvis_NPL\NplPublicering\Data\apo-pack-flag-type-lx.xsd
... 
Output file E:\Data\lvis_NPL\NplPublicering\Data\apo-pack-id-type-lx.xsd
... 
Output file E:\Data\lvis_NPL\NplPublicering\Data\apo-prod-id-type-lx.xsd
... 
Output file E:\Data\lvis_NPL\NplPublicering\Data\atc-code-lx.xml
... 
Output file E:\Data\lvis_NPL\NplPublicering\Data\comp-ref-quantity-lx.xsd
... 
Output file E:\Data\lvis_NPL\NplPublicering\Data\control-class-lx.xsd
... 
Output file E:\Data\lvis_NPL\NplPublicering\Data\country-lx.xsd
... 
Output file E:\Data\lvis_NPL\NplPublicering\Data\data-status-lx.xsd
... 
Output file E:\Data\lvis_NPL\NplPublicering\Data\drug-classification-lx.xsd
... 
Output file E:\Data\lvis_NPL\NplPublicering\Data\ind-date-type-lx.xsd
... 
Output file E:\Data\lvis_NPL\NplPublicering\Data\ind-name-type-lx.xsd
... 
Output file E:\Data\lvis_NPL\NplPublicering\Data\ind-pack-flag-type-lx.xsd
... 
Output file E:\Data\lvis_NPL\NplPublicering\Data\ind-pack-id-type-lx.xsd
... 
Output file E:\Data\lvis_NPL\NplPublicering\Data\ind-price-type-lx.xsd
... 
Output file E:\Data\lvis_NPL\NplPublicering\Data\ind-prod-flag-type-lx.xsd
... 
Output file E:\Data\lvis_NPL\NplPublicering\Data\ingredient-numeric-unit-lx.xsd
... 
Output file E:\Data\lvis_NPL\NplPublicering\Data\ingredient-role-lx.xsd
... 
Output file E:\Data\lvis_NPL\NplPublicering\Data\Lexicon.xsd
... 
Output file E:\Data\lvis_NPL\NplPublicering\Data\lfn-price-type-lx.xsd
... 
Output file E:\Data\lvis_NPL\NplPublicering\Data\lfn-prod-flag-type-lx.xsd
... 
Output file E:\Data\lvis_NPL\NplPublicering\Data\medprod-pack-derived-lx.xsd
... 
Output file E:\Data\lvis_NPL\NplPublicering\Data\mpa-date-type-lx.xsd
... 
Output file E:\Data\lvis_NPL\NplPublicering\Data\mpa-id-type-lx.xsd
... 
Output file E:\Data\lvis_NPL\NplPublicering\Data\mpa-pack-flag-type-lx.xsd
... 
Output file E:\Data\lvis_NPL\NplPublicering\Data\mpa-pack-id-type-lx.xsd
... 
Output file E:\Data\lvis_NPL\NplPublicering\Data\mpa-prod-derived-flag-type-lx.xsd
... 
Output file E:\Data\lvis_NPL\NplPublicering\Data\mpa-prod-flag-type-lx.xsd
... 
Output file E:\Data\lvis_NPL\NplPublicering\Data\mrl-tissue-lx.xsd
... 
Output file E:\Data\lvis_NPL\NplPublicering\Data\mrl-unit-lx.xsd
... 
Output file E:\Data\lvis_NPL\NplPublicering\Data\narcclass-lx.xsd
... 
Output file E:\Data\lvis_NPL\NplPublicering\Data\npl-price-type-lx.xsd
... 
Output file E:\Data\lvis_NPL\NplPublicering\Data\organization.xml
... 
Output file E:\Data\lvis_NPL\NplPublicering\Data\organization-role-lx.xsd
... 
Output file E:\Data\lvis_NPL\NplPublicering\Data\package-condition-lx.xsd
... 
Output file E:\Data\lvis_NPL\NplPublicering\Data\packmtrldet-lx.xsd
... 
Output file E:\Data\lvis_NPL\NplPublicering\Data\packmtrlout-lx.xsd
... 
Output file E:\Data\lvis_NPL\NplPublicering\Data\packtypedet-lx.xsd
... 
Output file E:\Data\lvis_NPL\NplPublicering\Data\packtypeout-lx.xsd
... 
Output file E:\Data\lvis_NPL\NplPublicering\Data\pharmaceutical-form-group-lx.xsd
... 
Output file E:\Data\lvis_NPL\NplPublicering\Data\pharmaceutical-form-lx.xsd
... 
Output file E:\Data\lvis_NPL\NplPublicering\Data\presccode-lx.xsd
... 
Output file E:\Data\lvis_NPL\NplPublicering\Data\prescright-lx.xsd
... 
Output file E:\Data\lvis_NPL\NplPublicering\Data\primpac-unit-lx.xsd
... 
Output file E:\Data\lvis_NPL\NplPublicering\Data\proc-not-lx.xsd
... 
Output file E:\Data\lvis_NPL\NplPublicering\Data\proc-status-lx.xsd
... 
Output file E:\Data\lvis_NPL\NplPublicering\Data\prodclass-lx.xsd
... 
Output file E:\Data\lvis_NPL\NplPublicering\Data\quantity-unit-alt-lx.xsd
... 
Output file E:\Data\lvis_NPL\NplPublicering\Data\quantity-unit-lx.xsd
... 
Output file E:\Data\lvis_NPL\NplPublicering\Data\reimbursement-lx.xsd
... 
Output file E:\Data\lvis_NPL\NplPublicering\Data\route-of-administration-lx.xsd
... 
Output file E:\Data\lvis_NPL\NplPublicering\Data\sales-restriction-lx.xsd
... 
Output file E:\Data\lvis_NPL\NplPublicering\Data\shelf-life-unit-lx.xsd
... 
Output file E:\Data\lvis_NPL\NplPublicering\Data\species-of-animal-lx.xsd
... 
Output file E:\Data\lvis_NPL\NplPublicering\Data\storagecond-lx.xsd
... 
Output file E:\Data\lvis_NPL\NplPublicering\Data\storage-temp-lx.xsd
... 
Output file E:\Data\lvis_NPL\NplPublicering\Data\substance.xml
... 
Output file E:\Data\lvis_NPL\NplPublicering\Data\trafficwarning-lx.xsd
... 
Output file E:\Data\lvis_NPL\NplPublicering\Data\withdrawal-tissue-lx.xsd
... 
Output file E:\Data\lvis_NPL\NplPublicering\Data\yesno-lx.xsd
... 
Lexicon export completed

D:\Program Files\Lvis_NPL\NplLvisUtility>if ERRORLEVEL 1 GOTO ERROR 

D:\Program Files\Lvis_NPL\NplLvisUtility>if ERRORLEVEL 2 GOTO ERROR 

D:\Program Files\Lvis_NPL\NplLvisUtility>if ERRORLEVEL 3 GOTO ERROR 
"Create archive containing all files ..."

D:\Program Files\Lvis_NPL\NplLvisUtility>E:

E:\>cd "E:\Data\lvis_NPL\NplPublicering\Data" 
"Archive"

E:\Data\Lvis_NPL\NplPublicering\Data>"D:\Program files\lvis_NPL\NplLvisUtility"\tar -c *   1>"E:\data\lvis_NPL\NplPublicering"\npl.tar 

E:\Data\Lvis_NPL\NplPublicering\Data>if ERRORLEVEL 1 GOTO ERROR 

E:\Data\Lvis_NPL\NplPublicering\Data>if ERRORLEVEL 2 GOTO ERROR 

E:\Data\Lvis_NPL\NplPublicering\Data>if ERRORLEVEL 3 GOTO ERROR 
"Compress archive ..."

E:\Data\Lvis_NPL\NplPublicering\Data>"D:\Program files\lvis_NPL\NplLvisUtility"\gzip "E:\data\lvis_NPL\NplPublicering"\npl.tar  

E:\Data\Lvis_NPL\NplPublicering\Data>if ERRORLEVEL 1 GOTO ERROR 

E:\Data\Lvis_NPL\NplPublicering\Data>if ERRORLEVEL 2 GOTO ERROR 

E:\Data\Lvis_NPL\NplPublicering\Data>if ERRORLEVEL 3 GOTO ERROR 

E:\Data\Lvis_NPL\NplPublicering\Data>rename "E:\data\lvis_NPL\NplPublicering"\npl.tar.gz npl.tgz 

E:\Data\Lvis_NPL\NplPublicering\Data>if ERRORLEVEL 1 GOTO ERROR 

E:\Data\Lvis_NPL\NplPublicering\Data>if ERRORLEVEL 2 GOTO ERROR 

E:\Data\Lvis_NPL\NplPublicering\Data>if ERRORLEVEL 3 GOTO ERROR 

E:\Data\Lvis_NPL\NplPublicering\Data>GOTO END 
Export ready without error: 0
