
D:\Program Files\Lvis_NPL\NplLvisUtility>set WORKDIR="D:\Program files\lvis_NPL\NplLvisUtility" 

D:\Program Files\Lvis_NPL\NplLvisUtility>set DATADIR="E:\Data\lvis_NPL\NplPublicering\Data" 

D:\Program Files\Lvis_NPL\NplLvisUtility>set EXPDIR="E:\data\lvis_NPL\NplPublicering" 

D:\Program Files\Lvis_NPL\NplLvisUtility>set PRODEXPDATE=2001-01-01 

D:\Program Files\Lvis_NPL\NplLvisUtility>set LEXEXPDATE=2001-10-20 

D:\Program Files\Lvis_NPL\NplLvisUtility>set TIMESTAMP=2014-01-18 3:00:00,36 
Start export  2014-01-18 3:00:00,36
"Remove old zip- and tar-filer" 

D:\Program Files\Lvis_NPL\NplLvisUtility>DEL  "E:\data\lvis_NPL\NplPublicering"\*.tgz  2>nul 

D:\Program Files\Lvis_NPL\NplLvisUtility>DEL  "E:\data\lvis_NPL\NplPublicering"\*.gz   2>nul 

D:\Program Files\Lvis_NPL\NplLvisUtility>DEL  "E:\data\lvis_NPL\NplPublicering"\*.tar  2>nul 
" "
"Export NPL products ..." 

D:\Program Files\Lvis_NPL\NplLvisUtility>"D:\Program files\lvis_NPL\NplLvisUtility"\NpLvisConsole.exe Export -f noaudit -p "E:\Data\lvis_NPL\NplPublicering\Data" -d 2001-01-01 
Info :Filter is set to noaudit

Info: Outputfile directory:  E:\Data\lvis_NPL\NplPublicering\Data

Info: Changed products after =  2001-01-01

Processing EXPORT
Export products in Xml format
Output file E:\Data\lvis_NPL\NplPublicering\Data\NplProducts.xml
2014-01-18 03:00:01 Retrieving product list

2014-01-18 03:00:13 Retriving Xml for 23173 products 

2014-01-18 03:00:31 100 unloaded ...
2014-01-18 03:00:56 200 unloaded ...
2014-01-18 03:01:13 300 unloaded ...
2014-01-18 03:01:28 400 unloaded ...
2014-01-18 03:01:43 500 unloaded ...
2014-01-18 03:01:59 600 unloaded ...
2014-01-18 03:02:16 700 unloaded ...
2014-01-18 03:02:31 800 unloaded ...
2014-01-18 03:02:49 900 unloaded ...
2014-01-18 03:03:06 1000 unloaded ...
2014-01-18 03:03:22 1100 unloaded ...
2014-01-18 03:03:39 1200 unloaded ...
2014-01-18 03:03:56 1300 unloaded ...
2014-01-18 03:04:15 1400 unloaded ...
2014-01-18 03:04:37 1500 unloaded ...
2014-01-18 03:04:53 1600 unloaded ...
2014-01-18 03:05:12 1700 unloaded ...
2014-01-18 03:05:25 1800 unloaded ...
2014-01-18 03:05:40 1900 unloaded ...
2014-01-18 03:05:57 2000 unloaded ...
2014-01-18 03:06:13 2100 unloaded ...
2014-01-18 03:06:30 2200 unloaded ...
2014-01-18 03:06:44 2300 unloaded ...
2014-01-18 03:07:01 2400 unloaded ...
2014-01-18 03:07:19 2500 unloaded ...
2014-01-18 03:07:34 2600 unloaded ...
2014-01-18 03:07:52 2700 unloaded ...
2014-01-18 03:08:09 2800 unloaded ...
2014-01-18 03:08:25 2900 unloaded ...
2014-01-18 03:08:41 3000 unloaded ...
2014-01-18 03:09:01 3100 unloaded ...
2014-01-18 03:09:20 3200 unloaded ...
2014-01-18 03:09:39 3300 unloaded ...
2014-01-18 03:09:59 3400 unloaded ...
2014-01-18 03:10:16 3500 unloaded ...
2014-01-18 03:10:34 3600 unloaded ...
2014-01-18 03:10:51 3700 unloaded ...
2014-01-18 03:11:07 3800 unloaded ...
2014-01-18 03:11:22 3900 unloaded ...
2014-01-18 03:11:37 4000 unloaded ...
2014-01-18 03:11:58 4100 unloaded ...
2014-01-18 03:12:15 4200 unloaded ...
2014-01-18 03:12:32 4300 unloaded ...
2014-01-18 03:12:50 4400 unloaded ...
2014-01-18 03:13:09 4500 unloaded ...
2014-01-18 03:13:27 4600 unloaded ...
2014-01-18 03:13:48 4700 unloaded ...
2014-01-18 03:14:10 4800 unloaded ...
2014-01-18 03:14:29 4900 unloaded ...
2014-01-18 03:14:46 5000 unloaded ...
2014-01-18 03:15:04 5100 unloaded ...
2014-01-18 03:15:21 5200 unloaded ...
2014-01-18 03:15:38 5300 unloaded ...
2014-01-18 03:15:59 5400 unloaded ...
2014-01-18 03:16:14 5500 unloaded ...
2014-01-18 03:16:33 5600 unloaded ...
2014-01-18 03:16:52 5700 unloaded ...
2014-01-18 03:17:07 5800 unloaded ...
2014-01-18 03:17:27 5900 unloaded ...
2014-01-18 03:17:46 6000 unloaded ...
2014-01-18 03:18:00 6100 unloaded ...
2014-01-18 03:18:16 6200 unloaded ...
2014-01-18 03:18:32 6300 unloaded ...
2014-01-18 03:18:51 6400 unloaded ...
2014-01-18 03:19:12 6500 unloaded ...
2014-01-18 03:19:32 6600 unloaded ...
2014-01-18 03:19:53 6700 unloaded ...
2014-01-18 03:20:11 6800 unloaded ...
2014-01-18 03:20:29 6900 unloaded ...
2014-01-18 03:20:40 7000 unloaded ...
2014-01-18 03:20:53 7100 unloaded ...
2014-01-18 03:21:05 7200 unloaded ...
2014-01-18 03:21:27 7300 unloaded ...
2014-01-18 03:21:50 7400 unloaded ...
2014-01-18 03:22:09 7500 unloaded ...
2014-01-18 03:22:29 7600 unloaded ...
2014-01-18 03:22:52 7700 unloaded ...
2014-01-18 03:23:10 7800 unloaded ...
2014-01-18 03:23:32 7900 unloaded ...
2014-01-18 03:23:51 8000 unloaded ...
2014-01-18 03:24:09 8100 unloaded ...
2014-01-18 03:24:29 8200 unloaded ...
2014-01-18 03:24:49 8300 unloaded ...
2014-01-18 03:25:09 8400 unloaded ...
2014-01-18 03:25:28 8500 unloaded ...
2014-01-18 03:25:49 8600 unloaded ...
2014-01-18 03:26:08 8700 unloaded ...
2014-01-18 03:26:31 8800 unloaded ...
2014-01-18 03:26:49 8900 unloaded ...
2014-01-18 03:27:07 9000 unloaded ...
2014-01-18 03:27:26 9100 unloaded ...
2014-01-18 03:27:42 9200 unloaded ...
2014-01-18 03:27:58 9300 unloaded ...
2014-01-18 03:28:19 9400 unloaded ...
2014-01-18 03:28:39 9500 unloaded ...
2014-01-18 03:28:58 9600 unloaded ...
2014-01-18 03:29:16 9700 unloaded ...
2014-01-18 03:29:33 9800 unloaded ...
2014-01-18 03:29:51 9900 unloaded ...
2014-01-18 03:30:06 10000 unloaded ...
2014-01-18 03:30:20 10100 unloaded ...
2014-01-18 03:30:36 10200 unloaded ...
2014-01-18 03:30:51 10300 unloaded ...
2014-01-18 03:31:06 10400 unloaded ...
2014-01-18 03:31:23 10500 unloaded ...
2014-01-18 03:31:39 10600 unloaded ...
2014-01-18 03:31:56 10700 unloaded ...
2014-01-18 03:32:12 10800 unloaded ...
2014-01-18 03:32:26 10900 unloaded ...
2014-01-18 03:32:43 11000 unloaded ...
2014-01-18 03:33:00 11100 unloaded ...
2014-01-18 03:33:17 11200 unloaded ...
2014-01-18 03:33:35 11300 unloaded ...
2014-01-18 03:33:49 11400 unloaded ...
2014-01-18 03:34:07 11500 unloaded ...
2014-01-18 03:34:21 11600 unloaded ...
2014-01-18 03:34:37 11700 unloaded ...
2014-01-18 03:34:52 11800 unloaded ...
2014-01-18 03:35:06 11900 unloaded ...
2014-01-18 03:35:22 12000 unloaded ...
2014-01-18 03:35:37 12100 unloaded ...
2014-01-18 03:35:54 12200 unloaded ...
2014-01-18 03:36:11 12300 unloaded ...
2014-01-18 03:36:25 12400 unloaded ...
2014-01-18 03:36:42 12500 unloaded ...
2014-01-18 03:36:56 12600 unloaded ...
2014-01-18 03:37:11 12700 unloaded ...
2014-01-18 03:37:28 12800 unloaded ...
2014-01-18 03:37:43 12900 unloaded ...
2014-01-18 03:37:59 13000 unloaded ...
2014-01-18 03:38:17 13100 unloaded ...
2014-01-18 03:38:31 13200 unloaded ...
2014-01-18 03:38:51 13300 unloaded ...
2014-01-18 03:39:06 13400 unloaded ...
2014-01-18 03:39:24 13500 unloaded ...
2014-01-18 03:39:39 13600 unloaded ...
2014-01-18 03:39:53 13700 unloaded ...
2014-01-18 03:40:11 13800 unloaded ...
2014-01-18 03:40:25 13900 unloaded ...
2014-01-18 03:40:41 14000 unloaded ...
2014-01-18 03:40:55 14100 unloaded ...
2014-01-18 03:41:07 14200 unloaded ...
2014-01-18 03:41:21 14300 unloaded ...
2014-01-18 03:41:37 14400 unloaded ...
2014-01-18 03:41:54 14500 unloaded ...
2014-01-18 03:42:07 14600 unloaded ...
2014-01-18 03:42:22 14700 unloaded ...
2014-01-18 03:42:38 14800 unloaded ...
2014-01-18 03:42:53 14900 unloaded ...
2014-01-18 03:43:05 15000 unloaded ...
2014-01-18 03:43:19 15100 unloaded ...
2014-01-18 03:43:33 15200 unloaded ...
2014-01-18 03:43:47 15300 unloaded ...
2014-01-18 03:43:59 15400 unloaded ...
2014-01-18 03:44:13 15500 unloaded ...
2014-01-18 03:44:28 15600 unloaded ...
2014-01-18 03:44:47 15700 unloaded ...
2014-01-18 03:45:03 15800 unloaded ...
2014-01-18 03:45:16 15900 unloaded ...
2014-01-18 03:45:29 16000 unloaded ...
2014-01-18 03:45:50 16100 unloaded ...
2014-01-18 03:46:03 16200 unloaded ...
2014-01-18 03:46:16 16300 unloaded ...
2014-01-18 03:46:28 16400 unloaded ...
2014-01-18 03:46:40 16500 unloaded ...
2014-01-18 03:46:52 16600 unloaded ...
2014-01-18 03:47:04 16700 unloaded ...
2014-01-18 03:47:18 16800 unloaded ...
2014-01-18 03:47:29 16900 unloaded ...
2014-01-18 03:47:40 17000 unloaded ...
2014-01-18 03:47:51 17100 unloaded ...
2014-01-18 03:48:06 17200 unloaded ...
2014-01-18 03:48:19 17300 unloaded ...
2014-01-18 03:48:31 17400 unloaded ...
2014-01-18 03:48:44 17500 unloaded ...
2014-01-18 03:48:56 17600 unloaded ...
2014-01-18 03:49:08 17700 unloaded ...
2014-01-18 03:49:21 17800 unloaded ...
2014-01-18 03:49:33 17900 unloaded ...
2014-01-18 03:49:44 18000 unloaded ...
2014-01-18 03:49:57 18100 unloaded ...
2014-01-18 03:50:11 18200 unloaded ...
2014-01-18 03:50:23 18300 unloaded ...
2014-01-18 03:50:35 18400 unloaded ...
2014-01-18 03:50:51 18500 unloaded ...
2014-01-18 03:51:04 18600 unloaded ...
2014-01-18 03:51:17 18700 unloaded ...
2014-01-18 03:51:28 18800 unloaded ...
2014-01-18 03:51:39 18900 unloaded ...
2014-01-18 03:51:50 19000 unloaded ...
2014-01-18 03:52:02 19100 unloaded ...
2014-01-18 03:52:15 19200 unloaded ...
2014-01-18 03:52:25 19300 unloaded ...
2014-01-18 03:52:38 19400 unloaded ...
2014-01-18 03:52:54 19500 unloaded ...
2014-01-18 03:53:05 19600 unloaded ...
2014-01-18 03:53:14 19700 unloaded ...
2014-01-18 03:53:25 19800 unloaded ...
2014-01-18 03:53:37 19900 unloaded ...
2014-01-18 03:53:49 20000 unloaded ...
2014-01-18 03:54:01 20100 unloaded ...
2014-01-18 03:54:10 20200 unloaded ...
2014-01-18 03:54:21 20300 unloaded ...
2014-01-18 03:54:32 20400 unloaded ...
2014-01-18 03:54:43 20500 unloaded ...
2014-01-18 03:54:55 20600 unloaded ...
2014-01-18 03:55:06 20700 unloaded ...
2014-01-18 03:55:15 20800 unloaded ...
2014-01-18 03:55:26 20900 unloaded ...
2014-01-18 03:55:36 21000 unloaded ...
2014-01-18 03:55:46 21100 unloaded ...
2014-01-18 03:55:55 21200 unloaded ...
2014-01-18 03:56:03 21300 unloaded ...
2014-01-18 03:56:11 21400 unloaded ...
2014-01-18 03:56:19 21500 unloaded ...
2014-01-18 03:56:26 21600 unloaded ...
2014-01-18 03:56:33 21700 unloaded ...
2014-01-18 03:56:41 21800 unloaded ...
2014-01-18 03:56:48 21900 unloaded ...
2014-01-18 03:56:55 22000 unloaded ...
2014-01-18 03:57:03 22100 unloaded ...
2014-01-18 03:57:10 22200 unloaded ...
2014-01-18 03:57:18 22300 unloaded ...
2014-01-18 03:57:25 22400 unloaded ...
2014-01-18 03:57:32 22500 unloaded ...
2014-01-18 03:57:39 22600 unloaded ...
2014-01-18 03:57:47 22700 unloaded ...
2014-01-18 03:57:54 22800 unloaded ...
2014-01-18 03:58:01 22900 unloaded ...
2014-01-18 03:58:09 23000 unloaded ...
2014-01-18 03:58:17 23100 unloaded ...
Export completed 

D:\Program Files\Lvis_NPL\NplLvisUtility>if ERRORLEVEL 1 GOTO ERROR 

D:\Program Files\Lvis_NPL\NplLvisUtility>if ERRORLEVEL 2 GOTO ERROR 

D:\Program Files\Lvis_NPL\NplLvisUtility>if ERRORLEVEL 3 GOTO ERROR 
"Export all NPL lexicons ..."

D:\Program Files\Lvis_NPL\NplLvisUtility>"D:\Program files\lvis_NPL\NplLvisUtility"\NpLvisConsole.exe LexExport -p "E:\Data\lvis_NPL\NplPublicering\Data"  -d 2001-10-20 
Info: Outputfile directory:  E:\Data\lvis_NPL\NplPublicering\Data

Info: Changed products after =  2001-10-20

Processing LEXEXPORT
Export all lexicons in Xml format
2014-01-18 03:58:27 Retrieving lexicon list

2014-01-18 03:58:28 Retriving Xml for 59 Lexicons 

Output file E:\Data\lvis_NPL\NplPublicering\Data\apo-pack-flag-type-lx.xsd
... 
Output file E:\Data\lvis_NPL\NplPublicering\Data\apo-pack-id-type-lx.xsd
... 
Output file E:\Data\lvis_NPL\NplPublicering\Data\apo-prod-id-type-lx.xsd
... 
Output file E:\Data\lvis_NPL\NplPublicering\Data\atc-code-lx.xml
... 
Output file E:\Data\lvis_NPL\NplPublicering\Data\comp-ref-quantity-lx.xsd
... 
Output file E:\Data\lvis_NPL\NplPublicering\Data\control-class-lx.xsd
... 
Output file E:\Data\lvis_NPL\NplPublicering\Data\country-lx.xsd
... 
Output file E:\Data\lvis_NPL\NplPublicering\Data\data-status-lx.xsd
... 
Output file E:\Data\lvis_NPL\NplPublicering\Data\drug-classification-lx.xsd
... 
Output file E:\Data\lvis_NPL\NplPublicering\Data\ind-date-type-lx.xsd
... 
Output file E:\Data\lvis_NPL\NplPublicering\Data\ind-name-type-lx.xsd
... 
Output file E:\Data\lvis_NPL\NplPublicering\Data\ind-pack-flag-type-lx.xsd
... 
Output file E:\Data\lvis_NPL\NplPublicering\Data\ind-pack-id-type-lx.xsd
... 
Output file E:\Data\lvis_NPL\NplPublicering\Data\ind-price-type-lx.xsd
... 
Output file E:\Data\lvis_NPL\NplPublicering\Data\ind-prod-flag-type-lx.xsd
... 
Output file E:\Data\lvis_NPL\NplPublicering\Data\ingredient-numeric-unit-lx.xsd
... 
Output file E:\Data\lvis_NPL\NplPublicering\Data\ingredient-role-lx.xsd
... 
Output file E:\Data\lvis_NPL\NplPublicering\Data\Lexicon.xsd
... 
Output file E:\Data\lvis_NPL\NplPublicering\Data\lfn-price-type-lx.xsd
... 
Output file E:\Data\lvis_NPL\NplPublicering\Data\lfn-prod-flag-type-lx.xsd
... 
Output file E:\Data\lvis_NPL\NplPublicering\Data\medprod-pack-derived-lx.xsd
... 
Output file E:\Data\lvis_NPL\NplPublicering\Data\mpa-date-type-lx.xsd
... 
Output file E:\Data\lvis_NPL\NplPublicering\Data\mpa-id-type-lx.xsd
... 
Output file E:\Data\lvis_NPL\NplPublicering\Data\mpa-pack-flag-type-lx.xsd
... 
Output file E:\Data\lvis_NPL\NplPublicering\Data\mpa-pack-id-type-lx.xsd
... 
Output file E:\Data\lvis_NPL\NplPublicering\Data\mpa-prod-derived-flag-type-lx.xsd
... 
Output file E:\Data\lvis_NPL\NplPublicering\Data\mpa-prod-flag-type-lx.xsd
... 
Output file E:\Data\lvis_NPL\NplPublicering\Data\mrl-tissue-lx.xsd
... 
Output file E:\Data\lvis_NPL\NplPublicering\Data\mrl-unit-lx.xsd
... 
Output file E:\Data\lvis_NPL\NplPublicering\Data\narcclass-lx.xsd
... 
Output file E:\Data\lvis_NPL\NplPublicering\Data\npl-price-type-lx.xsd
... 
Output file E:\Data\lvis_NPL\NplPublicering\Data\organization.xml
... 
Output file E:\Data\lvis_NPL\NplPublicering\Data\organization-role-lx.xsd
... 
Output file E:\Data\lvis_NPL\NplPublicering\Data\package-condition-lx.xsd
... 
Output file E:\Data\lvis_NPL\NplPublicering\Data\packmtrldet-lx.xsd
... 
Output file E:\Data\lvis_NPL\NplPublicering\Data\packmtrlout-lx.xsd
... 
Output file E:\Data\lvis_NPL\NplPublicering\Data\packtypedet-lx.xsd
... 
Output file E:\Data\lvis_NPL\NplPublicering\Data\packtypeout-lx.xsd
... 
Output file E:\Data\lvis_NPL\NplPublicering\Data\pharmaceutical-form-group-lx.xsd
... 
Output file E:\Data\lvis_NPL\NplPublicering\Data\pharmaceutical-form-lx.xsd
... 
Output file E:\Data\lvis_NPL\NplPublicering\Data\presccode-lx.xsd
... 
Output file E:\Data\lvis_NPL\NplPublicering\Data\prescright-lx.xsd
... 
Output file E:\Data\lvis_NPL\NplPublicering\Data\primpac-unit-lx.xsd
... 
Output file E:\Data\lvis_NPL\NplPublicering\Data\proc-not-lx.xsd
... 
Output file E:\Data\lvis_NPL\NplPublicering\Data\proc-status-lx.xsd
... 
Output file E:\Data\lvis_NPL\NplPublicering\Data\prodclass-lx.xsd
... 
Output file E:\Data\lvis_NPL\NplPublicering\Data\quantity-unit-alt-lx.xsd
... 
Output file E:\Data\lvis_NPL\NplPublicering\Data\quantity-unit-lx.xsd
... 
Output file E:\Data\lvis_NPL\NplPublicering\Data\reimbursement-lx.xsd
... 
Output file E:\Data\lvis_NPL\NplPublicering\Data\route-of-administration-lx.xsd
... 
Output file E:\Data\lvis_NPL\NplPublicering\Data\sales-restriction-lx.xsd
... 
Output file E:\Data\lvis_NPL\NplPublicering\Data\shelf-life-unit-lx.xsd
... 
Output file E:\Data\lvis_NPL\NplPublicering\Data\species-of-animal-lx.xsd
... 
Output file E:\Data\lvis_NPL\NplPublicering\Data\storagecond-lx.xsd
... 
Output file E:\Data\lvis_NPL\NplPublicering\Data\storage-temp-lx.xsd
... 
Output file E:\Data\lvis_NPL\NplPublicering\Data\substance.xml
... 
Output file E:\Data\lvis_NPL\NplPublicering\Data\trafficwarning-lx.xsd
... 
Output file E:\Data\lvis_NPL\NplPublicering\Data\withdrawal-tissue-lx.xsd
... 
Output file E:\Data\lvis_NPL\NplPublicering\Data\yesno-lx.xsd
... 
Lexicon export completed

D:\Program Files\Lvis_NPL\NplLvisUtility>if ERRORLEVEL 1 GOTO ERROR 

D:\Program Files\Lvis_NPL\NplLvisUtility>if ERRORLEVEL 2 GOTO ERROR 

D:\Program Files\Lvis_NPL\NplLvisUtility>if ERRORLEVEL 3 GOTO ERROR 
"Create archive containing all files ..."

D:\Program Files\Lvis_NPL\NplLvisUtility>E:

E:\>cd "E:\Data\lvis_NPL\NplPublicering\Data" 
"Archive"

E:\Data\Lvis_NPL\NplPublicering\Data>"D:\Program files\lvis_NPL\NplLvisUtility"\tar -c *   1>"E:\data\lvis_NPL\NplPublicering"\npl.tar 

E:\Data\Lvis_NPL\NplPublicering\Data>if ERRORLEVEL 1 GOTO ERROR 

E:\Data\Lvis_NPL\NplPublicering\Data>if ERRORLEVEL 2 GOTO ERROR 

E:\Data\Lvis_NPL\NplPublicering\Data>if ERRORLEVEL 3 GOTO ERROR 
"Compress archive ..."

E:\Data\Lvis_NPL\NplPublicering\Data>"D:\Program files\lvis_NPL\NplLvisUtility"\gzip "E:\data\lvis_NPL\NplPublicering"\npl.tar  

E:\Data\Lvis_NPL\NplPublicering\Data>if ERRORLEVEL 1 GOTO ERROR 

E:\Data\Lvis_NPL\NplPublicering\Data>if ERRORLEVEL 2 GOTO ERROR 

E:\Data\Lvis_NPL\NplPublicering\Data>if ERRORLEVEL 3 GOTO ERROR 

E:\Data\Lvis_NPL\NplPublicering\Data>rename "E:\data\lvis_NPL\NplPublicering"\npl.tar.gz npl.tgz 

E:\Data\Lvis_NPL\NplPublicering\Data>if ERRORLEVEL 1 GOTO ERROR 

E:\Data\Lvis_NPL\NplPublicering\Data>if ERRORLEVEL 2 GOTO ERROR 

E:\Data\Lvis_NPL\NplPublicering\Data>if ERRORLEVEL 3 GOTO ERROR 

E:\Data\Lvis_NPL\NplPublicering\Data>GOTO END 
Export ready without error: 0
