
D:\Program Files\Lvis_NPL\NplLvisUtility>set WORKDIR="D:\Program files\lvis_NPL\NplLvisUtility" 

D:\Program Files\Lvis_NPL\NplLvisUtility>set DATADIR="E:\Data\lvis_NPL\NplPublicering\Data" 

D:\Program Files\Lvis_NPL\NplLvisUtility>set EXPDIR="E:\data\lvis_NPL\NplPublicering" 

D:\Program Files\Lvis_NPL\NplLvisUtility>set PRODEXPDATE=2001-01-01 

D:\Program Files\Lvis_NPL\NplLvisUtility>set LEXEXPDATE=2001-10-20 

D:\Program Files\Lvis_NPL\NplLvisUtility>set TIMESTAMP=2014-10-01 3:00:00,40 
Start export  2014-10-01 3:00:00,40
"Remove old zip- and tar-filer" 

D:\Program Files\Lvis_NPL\NplLvisUtility>DEL  "E:\data\lvis_NPL\NplPublicering"\*.tgz  2>nul 

D:\Program Files\Lvis_NPL\NplLvisUtility>DEL  "E:\data\lvis_NPL\NplPublicering"\*.gz   2>nul 

D:\Program Files\Lvis_NPL\NplLvisUtility>DEL  "E:\data\lvis_NPL\NplPublicering"\*.tar  2>nul 
" "
"Export NPL products ..." 

D:\Program Files\Lvis_NPL\NplLvisUtility>"D:\Program files\lvis_NPL\NplLvisUtility"\NpLvisConsole.exe Export -f noaudit -p "E:\Data\lvis_NPL\NplPublicering\Data" -d 2001-01-01 
Info :Filter is set to noaudit

Info: Outputfile directory:  E:\Data\lvis_NPL\NplPublicering\Data

Info: Changed products after =  2001-01-01

Processing EXPORT
Export products in Xml format
Output file E:\Data\lvis_NPL\NplPublicering\Data\NplProducts.xml
2014-10-01 03:00:00 Retrieving product list

2014-10-01 03:00:18 Retriving Xml for 24446 products 

2014-10-01 03:00:36 100 unloaded ...
2014-10-01 03:01:06 200 unloaded ...
2014-10-01 03:01:23 300 unloaded ...
2014-10-01 03:01:40 400 unloaded ...
2014-10-01 03:01:56 500 unloaded ...
2014-10-01 03:02:12 600 unloaded ...
2014-10-01 03:02:30 700 unloaded ...
2014-10-01 03:02:46 800 unloaded ...
2014-10-01 03:03:05 900 unloaded ...
2014-10-01 03:03:24 1000 unloaded ...
2014-10-01 03:03:42 1100 unloaded ...
2014-10-01 03:04:00 1200 unloaded ...
2014-10-01 03:04:19 1300 unloaded ...
2014-10-01 03:04:40 1400 unloaded ...
2014-10-01 03:05:04 1500 unloaded ...
2014-10-01 03:05:23 1600 unloaded ...
2014-10-01 03:05:41 1700 unloaded ...
2014-10-01 03:05:55 1800 unloaded ...
2014-10-01 03:06:11 1900 unloaded ...
2014-10-01 03:06:31 2000 unloaded ...
2014-10-01 03:06:48 2100 unloaded ...
2014-10-01 03:07:08 2200 unloaded ...
2014-10-01 03:07:25 2300 unloaded ...
2014-10-01 03:07:43 2400 unloaded ...
2014-10-01 03:08:02 2500 unloaded ...
2014-10-01 03:08:19 2600 unloaded ...
2014-10-01 03:08:39 2700 unloaded ...
2014-10-01 03:08:58 2800 unloaded ...
2014-10-01 03:09:15 2900 unloaded ...
2014-10-01 03:09:32 3000 unloaded ...
2014-10-01 03:09:55 3100 unloaded ...
2014-10-01 03:10:16 3200 unloaded ...
2014-10-01 03:10:38 3300 unloaded ...
2014-10-01 03:11:00 3400 unloaded ...
2014-10-01 03:11:18 3500 unloaded ...
2014-10-01 03:11:37 3600 unloaded ...
2014-10-01 03:11:56 3700 unloaded ...
2014-10-01 03:12:14 3800 unloaded ...
2014-10-01 03:12:30 3900 unloaded ...
2014-10-01 03:12:47 4000 unloaded ...
2014-10-01 03:13:09 4100 unloaded ...
2014-10-01 03:13:27 4200 unloaded ...
2014-10-01 03:13:46 4300 unloaded ...
2014-10-01 03:14:04 4400 unloaded ...
2014-10-01 03:14:25 4500 unloaded ...
2014-10-01 03:14:42 4600 unloaded ...
2014-10-01 03:15:06 4700 unloaded ...
2014-10-01 03:15:31 4800 unloaded ...
2014-10-01 03:15:51 4900 unloaded ...
2014-10-01 03:16:11 5000 unloaded ...
2014-10-01 03:16:30 5100 unloaded ...
2014-10-01 03:16:50 5200 unloaded ...
2014-10-01 03:17:11 5300 unloaded ...
2014-10-01 03:17:34 5400 unloaded ...
2014-10-01 03:17:51 5500 unloaded ...
2014-10-01 03:18:14 5600 unloaded ...
2014-10-01 03:18:34 5700 unloaded ...
2014-10-01 03:18:50 5800 unloaded ...
2014-10-01 03:19:12 5900 unloaded ...
2014-10-01 03:19:33 6000 unloaded ...
2014-10-01 03:19:48 6100 unloaded ...
2014-10-01 03:20:08 6200 unloaded ...
2014-10-01 03:20:25 6300 unloaded ...
2014-10-01 03:20:46 6400 unloaded ...
2014-10-01 03:21:09 6500 unloaded ...
2014-10-01 03:21:31 6600 unloaded ...
2014-10-01 03:21:52 6700 unloaded ...
2014-10-01 03:22:11 6800 unloaded ...
2014-10-01 03:22:29 6900 unloaded ...
2014-10-01 03:22:41 7000 unloaded ...
2014-10-01 03:22:54 7100 unloaded ...
2014-10-01 03:23:08 7200 unloaded ...
2014-10-01 03:23:31 7300 unloaded ...
2014-10-01 03:23:55 7400 unloaded ...
2014-10-01 03:24:16 7500 unloaded ...
2014-10-01 03:24:37 7600 unloaded ...
2014-10-01 03:25:01 7700 unloaded ...
2014-10-01 03:25:23 7800 unloaded ...
2014-10-01 03:25:46 7900 unloaded ...
2014-10-01 03:26:07 8000 unloaded ...
2014-10-01 03:26:26 8100 unloaded ...
2014-10-01 03:26:48 8200 unloaded ...
2014-10-01 03:27:13 8300 unloaded ...
2014-10-01 03:27:33 8400 unloaded ...
2014-10-01 03:27:54 8500 unloaded ...
2014-10-01 03:28:17 8600 unloaded ...
2014-10-01 03:28:37 8700 unloaded ...
2014-10-01 03:29:02 8800 unloaded ...
2014-10-01 03:29:23 8900 unloaded ...
2014-10-01 03:29:42 9000 unloaded ...
2014-10-01 03:30:05 9100 unloaded ...
2014-10-01 03:30:23 9200 unloaded ...
2014-10-01 03:30:41 9300 unloaded ...
2014-10-01 03:31:04 9400 unloaded ...
2014-10-01 03:31:26 9500 unloaded ...
2014-10-01 03:31:46 9600 unloaded ...
2014-10-01 03:32:07 9700 unloaded ...
2014-10-01 03:32:26 9800 unloaded ...
2014-10-01 03:32:46 9900 unloaded ...
2014-10-01 03:33:01 10000 unloaded ...
2014-10-01 03:33:17 10100 unloaded ...
2014-10-01 03:33:34 10200 unloaded ...
2014-10-01 03:33:50 10300 unloaded ...
2014-10-01 03:34:06 10400 unloaded ...
2014-10-01 03:34:24 10500 unloaded ...
2014-10-01 03:34:42 10600 unloaded ...
2014-10-01 03:35:01 10700 unloaded ...
2014-10-01 03:35:19 10800 unloaded ...
2014-10-01 03:35:35 10900 unloaded ...
2014-10-01 03:35:53 11000 unloaded ...
2014-10-01 03:36:12 11100 unloaded ...
2014-10-01 03:36:29 11200 unloaded ...
2014-10-01 03:36:50 11300 unloaded ...
2014-10-01 03:37:06 11400 unloaded ...
2014-10-01 03:37:27 11500 unloaded ...
2014-10-01 03:37:42 11600 unloaded ...
2014-10-01 03:38:01 11700 unloaded ...
2014-10-01 03:38:17 11800 unloaded ...
2014-10-01 03:38:31 11900 unloaded ...
2014-10-01 03:38:48 12000 unloaded ...
2014-10-01 03:39:06 12100 unloaded ...
2014-10-01 03:39:24 12200 unloaded ...
2014-10-01 03:39:44 12300 unloaded ...
2014-10-01 03:39:59 12400 unloaded ...
2014-10-01 03:40:19 12500 unloaded ...
2014-10-01 03:40:35 12600 unloaded ...
2014-10-01 03:40:50 12700 unloaded ...
2014-10-01 03:41:09 12800 unloaded ...
2014-10-01 03:41:25 12900 unloaded ...
2014-10-01 03:41:44 13000 unloaded ...
2014-10-01 03:42:03 13100 unloaded ...
2014-10-01 03:42:19 13200 unloaded ...
2014-10-01 03:42:40 13300 unloaded ...
2014-10-01 03:42:57 13400 unloaded ...
2014-10-01 03:43:18 13500 unloaded ...
2014-10-01 03:43:35 13600 unloaded ...
2014-10-01 03:43:51 13700 unloaded ...
2014-10-01 03:44:09 13800 unloaded ...
2014-10-01 03:44:26 13900 unloaded ...
2014-10-01 03:44:43 14000 unloaded ...
2014-10-01 03:44:58 14100 unloaded ...
2014-10-01 03:45:13 14200 unloaded ...
2014-10-01 03:45:34 14300 unloaded ...
2014-10-01 03:45:51 14400 unloaded ...
2014-10-01 03:46:10 14500 unloaded ...
2014-10-01 03:46:25 14600 unloaded ...
2014-10-01 03:46:42 14700 unloaded ...
2014-10-01 03:46:57 14800 unloaded ...
2014-10-01 03:47:16 14900 unloaded ...
2014-10-01 03:47:30 15000 unloaded ...
2014-10-01 03:47:46 15100 unloaded ...
2014-10-01 03:48:01 15200 unloaded ...
2014-10-01 03:48:18 15300 unloaded ...
2014-10-01 03:48:33 15400 unloaded ...
2014-10-01 03:48:48 15500 unloaded ...
2014-10-01 03:49:06 15600 unloaded ...
2014-10-01 03:49:27 15700 unloaded ...
2014-10-01 03:49:44 15800 unloaded ...
2014-10-01 03:49:59 15900 unloaded ...
2014-10-01 03:50:15 16000 unloaded ...
2014-10-01 03:50:32 16100 unloaded ...
2014-10-01 03:50:47 16200 unloaded ...
2014-10-01 03:51:04 16300 unloaded ...
2014-10-01 03:51:20 16400 unloaded ...
2014-10-01 03:51:33 16500 unloaded ...
2014-10-01 03:51:46 16600 unloaded ...
2014-10-01 03:52:01 16700 unloaded ...
2014-10-01 03:52:16 16800 unloaded ...
2014-10-01 03:52:29 16900 unloaded ...
2014-10-01 03:52:42 17000 unloaded ...
2014-10-01 03:52:54 17100 unloaded ...
2014-10-01 03:53:10 17200 unloaded ...
2014-10-01 03:53:25 17300 unloaded ...
2014-10-01 03:53:39 17400 unloaded ...
2014-10-01 03:53:53 17500 unloaded ...
2014-10-01 03:54:06 17600 unloaded ...
2014-10-01 03:54:20 17700 unloaded ...
2014-10-01 03:54:35 17800 unloaded ...
2014-10-01 03:54:47 17900 unloaded ...
2014-10-01 03:54:59 18000 unloaded ...
2014-10-01 03:55:14 18100 unloaded ...
2014-10-01 03:55:29 18200 unloaded ...
2014-10-01 03:55:42 18300 unloaded ...
2014-10-01 03:55:55 18400 unloaded ...
2014-10-01 03:56:12 18500 unloaded ...
2014-10-01 03:56:27 18600 unloaded ...
2014-10-01 03:56:42 18700 unloaded ...
2014-10-01 03:56:53 18800 unloaded ...
2014-10-01 03:57:07 18900 unloaded ...
2014-10-01 03:57:19 19000 unloaded ...
2014-10-01 03:57:33 19100 unloaded ...
2014-10-01 03:57:47 19200 unloaded ...
2014-10-01 03:57:59 19300 unloaded ...
2014-10-01 03:58:12 19400 unloaded ...
2014-10-01 03:58:30 19500 unloaded ...
2014-10-01 03:58:42 19600 unloaded ...
2014-10-01 03:58:52 19700 unloaded ...
2014-10-01 03:59:05 19800 unloaded ...
2014-10-01 03:59:17 19900 unloaded ...
2014-10-01 03:59:30 20000 unloaded ...
2014-10-01 03:59:43 20100 unloaded ...
2014-10-01 03:59:54 20200 unloaded ...
2014-10-01 04:00:08 20300 unloaded ...
2014-10-01 04:00:21 20400 unloaded ...
2014-10-01 04:00:32 20500 unloaded ...
2014-10-01 04:00:45 20600 unloaded ...
2014-10-01 04:00:58 20700 unloaded ...
2014-10-01 04:01:10 20800 unloaded ...
2014-10-01 04:01:22 20900 unloaded ...
2014-10-01 04:01:35 21000 unloaded ...
2014-10-01 04:01:46 21100 unloaded ...
2014-10-01 04:01:56 21200 unloaded ...
2014-10-01 04:02:07 21300 unloaded ...
2014-10-01 04:02:17 21400 unloaded ...
2014-10-01 04:02:28 21500 unloaded ...
2014-10-01 04:02:39 21600 unloaded ...
2014-10-01 04:02:49 21700 unloaded ...
2014-10-01 04:02:59 21800 unloaded ...
2014-10-01 04:03:07 21900 unloaded ...
2014-10-01 04:03:15 22000 unloaded ...
2014-10-01 04:03:22 22100 unloaded ...
2014-10-01 04:03:30 22200 unloaded ...
2014-10-01 04:03:38 22300 unloaded ...
2014-10-01 04:03:45 22400 unloaded ...
2014-10-01 04:03:53 22500 unloaded ...
2014-10-01 04:04:01 22600 unloaded ...
2014-10-01 04:04:08 22700 unloaded ...
2014-10-01 04:04:16 22800 unloaded ...
2014-10-01 04:04:24 22900 unloaded ...
2014-10-01 04:04:31 23000 unloaded ...
2014-10-01 04:04:39 23100 unloaded ...
2014-10-01 04:04:46 23200 unloaded ...
2014-10-01 04:04:54 23300 unloaded ...
2014-10-01 04:05:02 23400 unloaded ...
2014-10-01 04:05:12 23500 unloaded ...
2014-10-01 04:05:22 23600 unloaded ...
2014-10-01 04:05:31 23700 unloaded ...
2014-10-01 04:05:40 23800 unloaded ...
2014-10-01 04:05:49 23900 unloaded ...
2014-10-01 04:06:02 24000 unloaded ...
2014-10-01 04:06:11 24100 unloaded ...
2014-10-01 04:06:20 24200 unloaded ...
2014-10-01 04:06:28 24300 unloaded ...
2014-10-01 04:06:36 24400 unloaded ...
Export completed 

D:\Program Files\Lvis_NPL\NplLvisUtility>if ERRORLEVEL 1 GOTO ERROR 

D:\Program Files\Lvis_NPL\NplLvisUtility>if ERRORLEVEL 2 GOTO ERROR 

D:\Program Files\Lvis_NPL\NplLvisUtility>if ERRORLEVEL 3 GOTO ERROR 
"Export all NPL lexicons ..."

D:\Program Files\Lvis_NPL\NplLvisUtility>"D:\Program files\lvis_NPL\NplLvisUtility"\NpLvisConsole.exe LexExport -p "E:\Data\lvis_NPL\NplPublicering\Data"  -d 2001-10-20 
Info: Outputfile directory:  E:\Data\lvis_NPL\NplPublicering\Data

Info: Changed products after =  2001-10-20

Processing LEXEXPORT
Export all lexicons in Xml format
2014-10-01 04:06:47 Retrieving lexicon list

2014-10-01 04:06:48 Retriving Xml for 59 Lexicons 

Output file E:\Data\lvis_NPL\NplPublicering\Data\apo-pack-flag-type-lx.xsd
... 
Output file E:\Data\lvis_NPL\NplPublicering\Data\apo-pack-id-type-lx.xsd
... 
Output file E:\Data\lvis_NPL\NplPublicering\Data\apo-prod-id-type-lx.xsd
... 
Output file E:\Data\lvis_NPL\NplPublicering\Data\atc-code-lx.xml
... 
Output file E:\Data\lvis_NPL\NplPublicering\Data\comp-ref-quantity-lx.xsd
... 
Output file E:\Data\lvis_NPL\NplPublicering\Data\control-class-lx.xsd
... 
Output file E:\Data\lvis_NPL\NplPublicering\Data\country-lx.xsd
... 
Output file E:\Data\lvis_NPL\NplPublicering\Data\data-status-lx.xsd
... 
Output file E:\Data\lvis_NPL\NplPublicering\Data\drug-classification-lx.xsd
... 
Output file E:\Data\lvis_NPL\NplPublicering\Data\ind-date-type-lx.xsd
... 
Output file E:\Data\lvis_NPL\NplPublicering\Data\ind-name-type-lx.xsd
... 
Output file E:\Data\lvis_NPL\NplPublicering\Data\ind-pack-flag-type-lx.xsd
... 
Output file E:\Data\lvis_NPL\NplPublicering\Data\ind-pack-id-type-lx.xsd
... 
Output file E:\Data\lvis_NPL\NplPublicering\Data\ind-price-type-lx.xsd
... 
Output file E:\Data\lvis_NPL\NplPublicering\Data\ind-prod-flag-type-lx.xsd
... 
Output file E:\Data\lvis_NPL\NplPublicering\Data\ingredient-numeric-unit-lx.xsd
... 
Output file E:\Data\lvis_NPL\NplPublicering\Data\ingredient-role-lx.xsd
... 
Output file E:\Data\lvis_NPL\NplPublicering\Data\Lexicon.xsd
... 
Output file E:\Data\lvis_NPL\NplPublicering\Data\lfn-price-type-lx.xsd
... 
Output file E:\Data\lvis_NPL\NplPublicering\Data\lfn-prod-flag-type-lx.xsd
... 
Output file E:\Data\lvis_NPL\NplPublicering\Data\medprod-pack-derived-lx.xsd
... 
Output file E:\Data\lvis_NPL\NplPublicering\Data\mpa-date-type-lx.xsd
... 
Output file E:\Data\lvis_NPL\NplPublicering\Data\mpa-id-type-lx.xsd
... 
Output file E:\Data\lvis_NPL\NplPublicering\Data\mpa-pack-flag-type-lx.xsd
... 
Output file E:\Data\lvis_NPL\NplPublicering\Data\mpa-pack-id-type-lx.xsd
... 
Output file E:\Data\lvis_NPL\NplPublicering\Data\mpa-prod-derived-flag-type-lx.xsd
... 
Output file E:\Data\lvis_NPL\NplPublicering\Data\mpa-prod-flag-type-lx.xsd
... 
Output file E:\Data\lvis_NPL\NplPublicering\Data\mrl-tissue-lx.xsd
... 
Output file E:\Data\lvis_NPL\NplPublicering\Data\mrl-unit-lx.xsd
... 
Output file E:\Data\lvis_NPL\NplPublicering\Data\narcclass-lx.xsd
... 
Output file E:\Data\lvis_NPL\NplPublicering\Data\npl-price-type-lx.xsd
... 
Output file E:\Data\lvis_NPL\NplPublicering\Data\organization.xml
... 
Output file E:\Data\lvis_NPL\NplPublicering\Data\organization-role-lx.xsd
... 
Output file E:\Data\lvis_NPL\NplPublicering\Data\package-condition-lx.xsd
... 
Output file E:\Data\lvis_NPL\NplPublicering\Data\packmtrldet-lx.xsd
... 
Output file E:\Data\lvis_NPL\NplPublicering\Data\packmtrlout-lx.xsd
... 
Output file E:\Data\lvis_NPL\NplPublicering\Data\packtypedet-lx.xsd
... 
Output file E:\Data\lvis_NPL\NplPublicering\Data\packtypeout-lx.xsd
... 
Output file E:\Data\lvis_NPL\NplPublicering\Data\pharmaceutical-form-group-lx.xsd
... 
Output file E:\Data\lvis_NPL\NplPublicering\Data\pharmaceutical-form-lx.xsd
... 
Output file E:\Data\lvis_NPL\NplPublicering\Data\presccode-lx.xsd
... 
Output file E:\Data\lvis_NPL\NplPublicering\Data\prescright-lx.xsd
... 
Output file E:\Data\lvis_NPL\NplPublicering\Data\primpac-unit-lx.xsd
... 
Output file E:\Data\lvis_NPL\NplPublicering\Data\proc-not-lx.xsd
... 
Output file E:\Data\lvis_NPL\NplPublicering\Data\proc-status-lx.xsd
... 
Output file E:\Data\lvis_NPL\NplPublicering\Data\prodclass-lx.xsd
... 
Output file E:\Data\lvis_NPL\NplPublicering\Data\quantity-unit-alt-lx.xsd
... 
Output file E:\Data\lvis_NPL\NplPublicering\Data\quantity-unit-lx.xsd
... 
Output file E:\Data\lvis_NPL\NplPublicering\Data\reimbursement-lx.xsd
... 
Output file E:\Data\lvis_NPL\NplPublicering\Data\route-of-administration-lx.xsd
... 
Output file E:\Data\lvis_NPL\NplPublicering\Data\sales-restriction-lx.xsd
... 
Output file E:\Data\lvis_NPL\NplPublicering\Data\shelf-life-unit-lx.xsd
... 
Output file E:\Data\lvis_NPL\NplPublicering\Data\species-of-animal-lx.xsd
... 
Output file E:\Data\lvis_NPL\NplPublicering\Data\storagecond-lx.xsd
... 
Output file E:\Data\lvis_NPL\NplPublicering\Data\storage-temp-lx.xsd
... 
Output file E:\Data\lvis_NPL\NplPublicering\Data\substance.xml
... 
Output file E:\Data\lvis_NPL\NplPublicering\Data\trafficwarning-lx.xsd
... 
Output file E:\Data\lvis_NPL\NplPublicering\Data\withdrawal-tissue-lx.xsd
... 
Output file E:\Data\lvis_NPL\NplPublicering\Data\yesno-lx.xsd
... 
Lexicon export completed

D:\Program Files\Lvis_NPL\NplLvisUtility>if ERRORLEVEL 1 GOTO ERROR 

D:\Program Files\Lvis_NPL\NplLvisUtility>if ERRORLEVEL 2 GOTO ERROR 

D:\Program Files\Lvis_NPL\NplLvisUtility>if ERRORLEVEL 3 GOTO ERROR 
"Create archive containing all files ..."

D:\Program Files\Lvis_NPL\NplLvisUtility>E:

E:\>cd "E:\Data\lvis_NPL\NplPublicering\Data" 
"Archive"

E:\Data\Lvis_NPL\NplPublicering\Data>"D:\Program files\lvis_NPL\NplLvisUtility"\tar -c *   1>"E:\data\lvis_NPL\NplPublicering"\npl.tar 

E:\Data\Lvis_NPL\NplPublicering\Data>if ERRORLEVEL 1 GOTO ERROR 

E:\Data\Lvis_NPL\NplPublicering\Data>if ERRORLEVEL 2 GOTO ERROR 

E:\Data\Lvis_NPL\NplPublicering\Data>if ERRORLEVEL 3 GOTO ERROR 
"Compress archive ..."

E:\Data\Lvis_NPL\NplPublicering\Data>"D:\Program files\lvis_NPL\NplLvisUtility"\gzip "E:\data\lvis_NPL\NplPublicering"\npl.tar  

E:\Data\Lvis_NPL\NplPublicering\Data>if ERRORLEVEL 1 GOTO ERROR 

E:\Data\Lvis_NPL\NplPublicering\Data>if ERRORLEVEL 2 GOTO ERROR 

E:\Data\Lvis_NPL\NplPublicering\Data>if ERRORLEVEL 3 GOTO ERROR 

E:\Data\Lvis_NPL\NplPublicering\Data>rename "E:\data\lvis_NPL\NplPublicering"\npl.tar.gz npl.tgz 

E:\Data\Lvis_NPL\NplPublicering\Data>if ERRORLEVEL 1 GOTO ERROR 

E:\Data\Lvis_NPL\NplPublicering\Data>if ERRORLEVEL 2 GOTO ERROR 

E:\Data\Lvis_NPL\NplPublicering\Data>if ERRORLEVEL 3 GOTO ERROR 

E:\Data\Lvis_NPL\NplPublicering\Data>GOTO END 
Export ready without error: 0
